\relax 
\providecommand\hyper@newdestlabel[2]{}
\providecommand\HyperFirstAtBeginDocument{\AtBeginDocument}
\HyperFirstAtBeginDocument{\ifx\hyper@anchor\@undefined
\global\let\oldcontentsline\contentsline
\gdef\contentsline#1#2#3#4{\oldcontentsline{#1}{#2}{#3}}
\global\let\oldnewlabel\newlabel
\gdef\newlabel#1#2{\newlabelxx{#1}#2}
\gdef\newlabelxx#1#2#3#4#5#6{\oldnewlabel{#1}{{#2}{#3}}}
\AtEndDocument{\ifx\hyper@anchor\@undefined
\let\contentsline\oldcontentsline
\let\newlabel\oldnewlabel
\fi}
\fi}
\global\let\hyper@last\relax 
\gdef\HyperFirstAtBeginDocument#1{#1}
\providecommand\HyField@AuxAddToFields[1]{}
\providecommand\HyField@AuxAddToCoFields[2]{}
\catcode `"\active 
\catcode `<\active 
\catcode `>\active 
\@nameuse{es@quoting}
\select@language{spanish}
\@writefile{toc}{\select@language{spanish}}
\@writefile{lof}{\select@language{spanish}}
\@writefile{lot}{\select@language{spanish}}
\@writefile{toc}{\beamer@endinputifotherversion {3.24pt}}
\@writefile{nav}{\beamer@endinputifotherversion {3.24pt}}
\select@language{spanish}
\@writefile{toc}{\select@language{spanish}}
\@writefile{lof}{\select@language{spanish}}
\@writefile{lot}{\select@language{spanish}}
\@writefile{nav}{\headcommand {\slideentry {0}{0}{1}{1/1}{}{0}}}
\@writefile{nav}{\headcommand {\beamer@framepages {1}{1}}}
\pgfsyspdfmark {pgfid3}{0}{18646798}
\@writefile{nav}{\headcommand {\slideentry {0}{0}{2}{2/2}{}{0}}}
\@writefile{nav}{\headcommand {\beamer@framepages {2}{2}}}
\pgfsyspdfmark {pgfid5}{0}{18646798}
\@writefile{toc}{\beamer@sectionintoc {1}{Introducci\IeC {\'o}n}{3}{0}{1}}
\@writefile{nav}{\headcommand {\sectionentry {1}{Introducci\IeC {\'o}n}{3}{Introducci\IeC {\'o}n}{0}}}
\@writefile{nav}{\headcommand {\beamer@sectionpages {1}{2}}}
\@writefile{nav}{\headcommand {\beamer@subsectionpages {1}{2}}}
\@writefile{nav}{\headcommand {\slideentry {1}{0}{3}{3/3}{}{0}}}
\@writefile{nav}{\headcommand {\beamer@framepages {3}{3}}}
\pgfsyspdfmark {pgfid7}{0}{18646798}
\pgfsyspdfmark {pgfid9}{0}{18646798}
\pgfsyspdfmark {pgfid11}{0}{18646798}
\pgfsyspdfmark {pgfid13}{0}{18646798}
\pgfsyspdfmark {pgfid15}{0}{18646798}
\pgfsyspdfmark {pgfid17}{0}{18646798}
\pgfsyspdfmark {pgfid19}{0}{18646798}
\@writefile{nav}{\headcommand {\slideentry {1}{0}{4}{4/10}{}{0}}}
\@writefile{nav}{\headcommand {\beamer@framepages {4}{10}}}
\pgfsyspdfmark {pgfid21}{0}{18646798}
\newlabel{fig:nettypipeline}{{4}{11}{Introducción}{Doc-Start}{}}
\@writefile{snm}{\beamer@slide {fig:nettypipeline}{11}}
\@writefile{nav}{\headcommand {\slideentry {1}{0}{5}{11/11}{}{0}}}
\@writefile{nav}{\headcommand {\beamer@framepages {11}{11}}}
\pgfsyspdfmark {pgfid23}{0}{18646798}
\newlabel{table:m2mapp}{{1}{12}{Introducción}{Doc-Start}{}}
\@writefile{snm}{\beamer@slide {table:m2mapp}{12}}
\@writefile{nav}{\headcommand {\slideentry {1}{0}{6}{12/12}{}{0}}}
\@writefile{nav}{\headcommand {\beamer@framepages {12}{12}}}
\pgfsyspdfmark {pgfid25}{0}{18646798}
\pgfsyspdfmark {pgfid27}{0}{18646798}
\@writefile{nav}{\headcommand {\slideentry {1}{0}{7}{13/14}{}{0}}}
\@writefile{nav}{\headcommand {\beamer@framepages {13}{14}}}
\pgfsyspdfmark {pgfid29}{0}{18646798}
\pgfsyspdfmark {pgfid31}{0}{18646798}
\@writefile{nav}{\headcommand {\slideentry {1}{0}{8}{15/16}{}{0}}}
\@writefile{nav}{\headcommand {\beamer@framepages {15}{16}}}
\pgfsyspdfmark {pgfid33}{0}{18646798}
\pgfsyspdfmark {pgfid35}{0}{18646798}
\@writefile{nav}{\headcommand {\slideentry {1}{0}{9}{17/18}{}{0}}}
\@writefile{nav}{\headcommand {\beamer@framepages {17}{18}}}
\pgfsyspdfmark {pgfid37}{0}{18646798}
\@writefile{nav}{\headcommand {\slideentry {1}{0}{10}{19/19}{}{0}}}
\@writefile{nav}{\headcommand {\beamer@framepages {19}{19}}}
\pgfsyspdfmark {pgfid39}{0}{18646798}
\@writefile{toc}{\beamer@sectionintoc {2}{Estado del Arte}{20}{0}{2}}
\@writefile{nav}{\headcommand {\sectionentry {2}{Estado del Arte}{20}{Estado del Arte}{0}}}
\@writefile{nav}{\headcommand {\beamer@sectionpages {3}{19}}}
\@writefile{nav}{\headcommand {\beamer@subsectionpages {3}{19}}}
\@writefile{nav}{\headcommand {\slideentry {2}{0}{11}{20/20}{}{0}}}
\@writefile{nav}{\headcommand {\beamer@framepages {20}{20}}}
\pgfsyspdfmark {pgfid41}{0}{18646798}
\@writefile{nav}{\headcommand {\slideentry {2}{0}{12}{21/21}{}{0}}}
\@writefile{nav}{\headcommand {\beamer@framepages {21}{21}}}
\pgfsyspdfmark {pgfid43}{0}{18646798}
\@writefile{nav}{\headcommand {\slideentry {2}{0}{13}{22/22}{}{0}}}
\@writefile{nav}{\headcommand {\beamer@framepages {22}{22}}}
\pgfsyspdfmark {pgfid45}{0}{18646798}
\pgfsyspdfmark {pgfid47}{0}{18646798}
\pgfsyspdfmark {pgfid49}{0}{18646798}
\pgfsyspdfmark {pgfid51}{0}{18646798}
\pgfsyspdfmark {pgfid53}{0}{18646798}
\pgfsyspdfmark {pgfid55}{0}{18646798}
\@writefile{nav}{\headcommand {\slideentry {2}{0}{14}{23/28}{}{0}}}
\@writefile{nav}{\headcommand {\beamer@framepages {23}{28}}}
\pgfsyspdfmark {pgfid57}{0}{18646798}
\newlabel{fig:nettypipeline}{{14}{29}{Estado del Arte}{Doc-Start}{}}
\@writefile{snm}{\beamer@slide {fig:nettypipeline}{29}}
\@writefile{nav}{\headcommand {\slideentry {2}{0}{15}{29/29}{}{0}}}
\@writefile{nav}{\headcommand {\beamer@framepages {29}{29}}}
\pgfsyspdfmark {pgfid59}{0}{18646798}
\@writefile{nav}{\headcommand {\slideentry {2}{0}{16}{30/30}{}{0}}}
\@writefile{nav}{\headcommand {\beamer@framepages {30}{30}}}
\pgfsyspdfmark {pgfid61}{0}{18646798}
\@writefile{toc}{\beamer@sectionintoc {3}{Arquitectura de la soluci\IeC {\'o}n}{31}{0}{3}}
\@writefile{nav}{\headcommand {\sectionentry {3}{Arquitectura de la soluci\IeC {\'o}n}{31}{Arquitectura de la soluci\IeC {\'o}n}{0}}}
\@writefile{nav}{\headcommand {\beamer@sectionpages {20}{30}}}
\@writefile{nav}{\headcommand {\beamer@subsectionpages {20}{30}}}
\@writefile{nav}{\headcommand {\slideentry {3}{0}{17}{31/31}{}{0}}}
\@writefile{nav}{\headcommand {\beamer@framepages {31}{31}}}
\pgfsyspdfmark {pgfid63}{0}{18646798}
\pgfsyspdfmark {pgfid65}{0}{18646798}
\pgfsyspdfmark {pgfid67}{0}{18646798}
\@writefile{nav}{\headcommand {\slideentry {3}{0}{18}{32/34}{}{0}}}
\@writefile{nav}{\headcommand {\beamer@framepages {32}{34}}}
\pgfsyspdfmark {pgfid69}{0}{18646798}
\pgfsyspdfmark {pgfid71}{0}{18646798}
\pgfsyspdfmark {pgfid73}{0}{18646798}
\pgfsyspdfmark {pgfid75}{0}{18646798}
\@writefile{nav}{\headcommand {\slideentry {3}{0}{19}{35/38}{}{0}}}
\@writefile{nav}{\headcommand {\beamer@framepages {35}{38}}}
\pgfsyspdfmark {pgfid77}{0}{18646798}
\pgfsyspdfmark {pgfid79}{0}{18646798}
\pgfsyspdfmark {pgfid81}{0}{18646798}
\pgfsyspdfmark {pgfid83}{0}{18646798}
\@writefile{nav}{\headcommand {\slideentry {3}{0}{20}{39/42}{}{0}}}
\@writefile{nav}{\headcommand {\beamer@framepages {39}{42}}}
\pgfsyspdfmark {pgfid85}{0}{18646798}
\newlabel{fig:soam2m}{{1}{43}{Arquitectura de la solución}{Doc-Start}{}}
\@writefile{snm}{\beamer@slide {fig:soam2m}{43}}
\pgfsyspdfmark {pgfid87}{0}{18646798}
\pgfsyspdfmark {pgfid89}{0}{18646798}
\@writefile{nav}{\headcommand {\slideentry {3}{0}{21}{43/45}{}{0}}}
\@writefile{nav}{\headcommand {\beamer@framepages {43}{45}}}
\pgfsyspdfmark {pgfid91}{0}{18646798}
\@writefile{toc}{\beamer@sectionintoc {4}{Framework para el desarrollo modular}{46}{0}{4}}
\@writefile{nav}{\headcommand {\sectionentry {4}{Framework para el desarrollo modular}{46}{Framework para el desarrollo modular}{0}}}
\@writefile{nav}{\headcommand {\beamer@sectionpages {31}{45}}}
\@writefile{nav}{\headcommand {\beamer@subsectionpages {31}{45}}}
\@writefile{nav}{\headcommand {\slideentry {4}{0}{22}{46/46}{}{0}}}
\@writefile{nav}{\headcommand {\beamer@framepages {46}{46}}}
\pgfsyspdfmark {pgfid93}{0}{18646798}
\pgfsyspdfmark {pgfid95}{0}{18646798}
\pgfsyspdfmark {pgfid97}{0}{18646798}
\pgfsyspdfmark {pgfid99}{0}{18646798}
\pgfsyspdfmark {pgfid101}{0}{18646798}
\pgfsyspdfmark {pgfid103}{0}{18646798}
\pgfsyspdfmark {pgfid105}{0}{18646798}
\pgfsyspdfmark {pgfid107}{0}{18646798}
\pgfsyspdfmark {pgfid109}{0}{18646798}
\pgfsyspdfmark {pgfid111}{0}{18646798}
\pgfsyspdfmark {pgfid113}{0}{18646798}
\pgfsyspdfmark {pgfid115}{0}{18646798}
\@writefile{nav}{\headcommand {\slideentry {4}{0}{23}{47/58}{}{0}}}
\@writefile{nav}{\headcommand {\beamer@framepages {47}{58}}}
\pgfsyspdfmark {pgfid117}{0}{18646798}
\pgfsyspdfmark {pgfid119}{0}{18646798}
\pgfsyspdfmark {pgfid121}{0}{18646798}
\pgfsyspdfmark {pgfid123}{0}{18646798}
\pgfsyspdfmark {pgfid125}{0}{18646798}
\pgfsyspdfmark {pgfid127}{0}{18646798}
\pgfsyspdfmark {pgfid129}{0}{18646798}
\pgfsyspdfmark {pgfid131}{0}{18646798}
\@writefile{nav}{\headcommand {\slideentry {4}{0}{24}{59/66}{}{0}}}
\@writefile{nav}{\headcommand {\beamer@framepages {59}{66}}}
\pgfsyspdfmark {pgfid133}{0}{18646798}
\newlabel{fig:soam2m}{{24}{67}{Framework para el desarrollo modular}{Doc-Start}{}}
\@writefile{snm}{\beamer@slide {fig:soam2m}{67}}
\@writefile{nav}{\headcommand {\slideentry {4}{0}{25}{67/67}{}{0}}}
\@writefile{nav}{\headcommand {\beamer@framepages {67}{67}}}
\pgfsyspdfmark {pgfid135}{0}{18646798}
\@writefile{toc}{\beamer@sectionintoc {5}{M\IeC {\'o}dulo de mensajer\IeC {\'\i }a}{68}{0}{5}}
\@writefile{nav}{\headcommand {\sectionentry {5}{M\IeC {\'o}dulo de mensajer\IeC {\'\i }a}{68}{M\IeC {\'o}dulo de mensajer\IeC {\'\i }a}{0}}}
\@writefile{nav}{\headcommand {\beamer@sectionpages {46}{67}}}
\@writefile{nav}{\headcommand {\beamer@subsectionpages {46}{67}}}
\@writefile{nav}{\headcommand {\slideentry {5}{0}{26}{68/68}{}{0}}}
\@writefile{nav}{\headcommand {\beamer@framepages {68}{68}}}
\pgfsyspdfmark {pgfid137}{0}{18646798}
\pgfsyspdfmark {pgfid139}{0}{18646798}
\pgfsyspdfmark {pgfid141}{0}{18646798}
\pgfsyspdfmark {pgfid143}{0}{18646798}
\pgfsyspdfmark {pgfid145}{0}{18646798}
\pgfsyspdfmark {pgfid147}{0}{18646798}
\pgfsyspdfmark {pgfid149}{0}{18646798}
\@writefile{nav}{\headcommand {\slideentry {5}{0}{27}{69/75}{}{0}}}
\@writefile{nav}{\headcommand {\beamer@framepages {69}{75}}}
\pgfsyspdfmark {pgfid151}{0}{18646798}
\@writefile{nav}{\headcommand {\slideentry {5}{0}{28}{76/76}{}{0}}}
\@writefile{nav}{\headcommand {\beamer@framepages {76}{76}}}
\pgfsyspdfmark {pgfid153}{0}{18646798}
\@writefile{nav}{\headcommand {\slideentry {5}{0}{29}{77/77}{}{0}}}
\@writefile{nav}{\headcommand {\beamer@framepages {77}{77}}}
\pgfsyspdfmark {pgfid155}{0}{18646798}
\@writefile{nav}{\headcommand {\slideentry {5}{0}{30}{78/78}{}{0}}}
\@writefile{nav}{\headcommand {\beamer@framepages {78}{78}}}
\pgfsyspdfmark {pgfid157}{0}{18646798}
\@writefile{toc}{\beamer@sectionintoc {6}{M\IeC {\'o}dulo de comunicaci\IeC {\'o}n}{79}{0}{6}}
\@writefile{nav}{\headcommand {\sectionentry {6}{M\IeC {\'o}dulo de comunicaci\IeC {\'o}n}{79}{M\IeC {\'o}dulo de comunicaci\IeC {\'o}n}{0}}}
\@writefile{nav}{\headcommand {\beamer@sectionpages {68}{78}}}
\@writefile{nav}{\headcommand {\beamer@subsectionpages {68}{78}}}
\@writefile{nav}{\headcommand {\slideentry {6}{0}{31}{79/79}{}{0}}}
\@writefile{nav}{\headcommand {\beamer@framepages {79}{79}}}
\pgfsyspdfmark {pgfid159}{0}{18646798}
\@writefile{nav}{\headcommand {\slideentry {6}{0}{32}{80/80}{}{0}}}
\@writefile{nav}{\headcommand {\beamer@framepages {80}{80}}}
\pgfsyspdfmark {pgfid161}{0}{18646798}
\newlabel{fig:nettypipeline}{{2}{81}{Módulo de comunicación}{Doc-Start}{}}
\@writefile{snm}{\beamer@slide {fig:nettypipeline}{81}}
\@writefile{nav}{\headcommand {\slideentry {6}{0}{33}{81/81}{}{0}}}
\@writefile{nav}{\headcommand {\beamer@framepages {81}{81}}}
\pgfsyspdfmark {pgfid163}{0}{18646798}
\newlabel{fig:commpipeline}{{3}{82}{Módulo de comunicación}{Doc-Start}{}}
\@writefile{snm}{\beamer@slide {fig:commpipeline}{82}}
\@writefile{nav}{\headcommand {\slideentry {6}{0}{34}{82/82}{}{0}}}
\@writefile{nav}{\headcommand {\beamer@framepages {82}{82}}}
\pgfsyspdfmark {pgfid165}{0}{18646798}
\@writefile{toc}{\beamer@sectionintoc {7}{M\IeC {\'o}dulo consumidor de servicios}{83}{0}{7}}
\@writefile{nav}{\headcommand {\sectionentry {7}{M\IeC {\'o}dulo consumidor de servicios}{83}{M\IeC {\'o}dulo consumidor de servicios}{0}}}
\@writefile{nav}{\headcommand {\beamer@sectionpages {79}{82}}}
\@writefile{nav}{\headcommand {\beamer@subsectionpages {79}{82}}}
\@writefile{nav}{\headcommand {\slideentry {7}{0}{35}{83/83}{}{0}}}
\@writefile{nav}{\headcommand {\beamer@framepages {83}{83}}}
\pgfsyspdfmark {pgfid167}{0}{18646798}
\@writefile{nav}{\headcommand {\slideentry {7}{0}{36}{84/84}{}{0}}}
\@writefile{nav}{\headcommand {\beamer@framepages {84}{84}}}
\pgfsyspdfmark {pgfid169}{0}{18646798}
\pgfsyspdfmark {pgfid171}{0}{18646798}
\pgfsyspdfmark {pgfid173}{0}{18646798}
\pgfsyspdfmark {pgfid175}{0}{18646798}
\@writefile{nav}{\headcommand {\slideentry {7}{0}{37}{85/88}{}{0}}}
\@writefile{nav}{\headcommand {\beamer@framepages {85}{88}}}
\pgfsyspdfmark {pgfid177}{0}{18646798}
\@writefile{toc}{\beamer@sectionintoc {8}{Validaci\IeC {\'o}n y conclusiones}{89}{0}{8}}
\@writefile{nav}{\headcommand {\sectionentry {8}{Validaci\IeC {\'o}n y conclusiones}{89}{Validaci\IeC {\'o}n y conclusiones}{0}}}
\@writefile{nav}{\headcommand {\beamer@sectionpages {83}{88}}}
\@writefile{nav}{\headcommand {\beamer@subsectionpages {83}{88}}}
\@writefile{nav}{\headcommand {\slideentry {8}{0}{38}{89/89}{}{0}}}
\@writefile{nav}{\headcommand {\beamer@framepages {89}{89}}}
\pgfsyspdfmark {pgfid179}{0}{18646798}
\@writefile{nav}{\headcommand {\slideentry {8}{0}{39}{90/90}{}{0}}}
\@writefile{nav}{\headcommand {\beamer@framepages {90}{90}}}
\pgfsyspdfmark {pgfid181}{0}{18646798}
\@writefile{nav}{\headcommand {\slideentry {8}{0}{40}{91/91}{}{0}}}
\@writefile{nav}{\headcommand {\beamer@framepages {91}{91}}}
\pgfsyspdfmark {pgfid183}{0}{18646798}
\pgfsyspdfmark {pgfid185}{0}{18646798}
\pgfsyspdfmark {pgfid187}{0}{18646798}
\pgfsyspdfmark {pgfid189}{0}{18646798}
\pgfsyspdfmark {pgfid191}{0}{18646798}
\pgfsyspdfmark {pgfid193}{0}{18646798}
\@writefile{nav}{\headcommand {\slideentry {8}{0}{41}{92/97}{}{0}}}
\@writefile{nav}{\headcommand {\beamer@framepages {92}{97}}}
\pgfsyspdfmark {pgfid195}{0}{18646798}
\@writefile{toc}{\beamer@sectionintoc {9}{Trabajo Futuro}{98}{0}{9}}
\@writefile{nav}{\headcommand {\sectionentry {9}{Trabajo Futuro}{98}{Trabajo Futuro}{0}}}
\@writefile{nav}{\headcommand {\beamer@sectionpages {89}{97}}}
\@writefile{nav}{\headcommand {\beamer@subsectionpages {89}{97}}}
\@writefile{nav}{\headcommand {\slideentry {9}{0}{42}{98/98}{}{0}}}
\@writefile{nav}{\headcommand {\beamer@framepages {98}{98}}}
\pgfsyspdfmark {pgfid197}{0}{18646798}
\pgfsyspdfmark {pgfid199}{0}{18646798}
\pgfsyspdfmark {pgfid201}{0}{18646798}
\pgfsyspdfmark {pgfid203}{0}{18646798}
\pgfsyspdfmark {pgfid205}{0}{18646798}
\pgfsyspdfmark {pgfid207}{0}{18646798}
\pgfsyspdfmark {pgfid209}{0}{18646798}
\@writefile{nav}{\headcommand {\slideentry {9}{0}{43}{99/105}{}{0}}}
\@writefile{nav}{\headcommand {\beamer@framepages {99}{105}}}
\@writefile{nav}{\headcommand {\slideentry {9}{0}{44}{106/106}{}{0}}}
\@writefile{nav}{\headcommand {\beamer@framepages {106}{106}}}
\@writefile{nav}{\headcommand {\slideentry {9}{0}{45}{107/107}{}{0}}}
\@writefile{nav}{\headcommand {\beamer@framepages {107}{107}}}
\pgfsyspdfmark {pgfid213}{0}{18646798}
\@writefile{nav}{\headcommand {\slideentry {9}{0}{46}{108/108}{}{0}}}
\@writefile{nav}{\headcommand {\beamer@framepages {108}{108}}}
\pgfsyspdfmark {pgfid215}{0}{18646798}
\@writefile{nav}{\headcommand {\slideentry {9}{0}{47}{109/109}{}{0}}}
\@writefile{nav}{\headcommand {\beamer@framepages {109}{109}}}
\pgfsyspdfmark {pgfid217}{0}{18646798}
\@writefile{nav}{\headcommand {\slideentry {9}{0}{48}{110/110}{}{0}}}
\@writefile{nav}{\headcommand {\beamer@framepages {110}{110}}}
\@writefile{nav}{\headcommand {\beamer@partpages {1}{110}}}
\@writefile{nav}{\headcommand {\beamer@subsectionpages {98}{110}}}
\@writefile{nav}{\headcommand {\beamer@sectionpages {98}{110}}}
\@writefile{nav}{\headcommand {\beamer@documentpages {110}}}
\@writefile{nav}{\headcommand {\def \inserttotalframenumber {45}}}
