%!PS-Adobe-3.0 EPSF-3.0
%%BoundingBox: 0 0 361 153
%%Creator: yExport 1.4.0.1
%%Producer: org.freehep.graphicsio.ps.PSGraphics2D Revision: 12753 
%%For: 
%%Title: 
%%CreationDate: Sunday, January 4, 2015 2:28:44 PM CLST
%%LanguageLevel: 3
%%EndComments
%%BeginProlog
100 dict dup begin

%
% File: org/freehep/graphicsio.ps/PSProlog.txt
% Author: Charles Loomis
%

% Redefinitions which save some space in the output file.  These are also
% the same as the PDF operators.
/q {gsave} def
/Q {grestore} def

/n {newpath} def
/m {moveto} def
/l {lineto} def
/c {curveto} def
/h {closepath} def

/re {4 -2 roll moveto
     dup 0 exch rlineto exch 0 rlineto
     neg 0 exch rlineto closepath} def

/f {fill} def
/f* {eofill} def
/F {gsave vg&FC fill grestore} def
/F* {gsave vg&FC eofill grestore} def

/s {closepath stroke} def
/S {stroke} def

/b {closepath gsave vg&FC fill grestore
    gsave stroke grestore newpath} def
/B {gsave vg&FC fill grestore gsave stroke grestore newpath} def
/b* {closepath gsave vg&FC eofill grestore
    gsave stroke grestore newpath} def
/B* {gsave vg&FC eofill grestore gsave stroke grestore newpath} def

/g {1 array astore /vg&fcolor exch def} def
/G {setgray} def
/k {4 array astore /vg&fcolor exch def} def
/K {setcmykcolor} def
/rg {3 array astore /vg&fcolor exch def} def
/RG {setrgbcolor} def

% Initialize the fill color.
0 0 0 rg

/vg&FC {mark vg&fcolor aload pop
        counttomark 1 eq {G} if
        counttomark 3 eq {RG} if
        counttomark 4 eq {K} if
        cleartomark } def

/vg&DFC {/vg&fcolor exch def} def

/vg&C {mark exch aload pop
       counttomark 1 eq {G} if
       counttomark 3 eq {RG} if
       counttomark 4 eq {K} if
       cleartomark } def

/w {setlinewidth} def
/j {setlinejoin} def
/J {setlinecap} def
/M {setmiterlimit} def
/d {setdash} def
/i {setflat} def

/W {clip} def
/W* {eoclip} def

% Setup the default graphics state.
% (black; 1 pt. linewidth; miter join; butt-ends; solid)
/defaultGraphicsState {0 g 1 w 0 j 0 J [] 0 d} def

% Emulation of the rectangle operators for PostScript implementations
% which do not implement all Level 2 features.  This is an INCOMPLETE
% emulation; only the "x y width height rect..." form is emulated.
/*rf {gsave newpath re fill grestore} def
/*rs {gsave newpath re stroke grestore} def
/*rc {newpath re clip} def
/rf  /rectfill where {pop /rectfill}{/*rf} ifelse load def
/rs  /rectstroke where {pop /rectstroke}{/*rs} ifelse load def
/rc  /rectclip where {pop /rectclip}{/*rc} ifelse load def

% Emulation of the selectfont operator.  This includes a 20% increase in
% the fontsize which is necessary to get sizes similar to the Java fonts.
/*sf {exch findfont exch
      dup type /arraytype eq {makefont}{scalefont} ifelse setfont} bind def
/sf /selectfont where {pop {1.2 mul selectfont}}{{1.2 mul *sf}} ifelse def

% Special version of stroke which allows the dash pattern to continue
% across path segments.  (This may be needed for PostScript although
% modern printers seem to do this correctly.)
/vg&stroke {
  currentdash pop length 0 eq
  {stroke}
  {
    currentdash /vg&doffset exch def pop
    flattenpath
    {m vg&resetdash}
    {2 copy
     currentpoint
     3 -1 roll sub dup mul
     3 1 roll sub dup mul
     add sqrt
     3 1 roll l
     currentdash 3 -1 roll add setdash}
     {}
     {h vg&resetdash}
     pathforall
     stroke
     vg&resetdash
  } ifelse
} def
/vg&resetdash {currentdash pop vg&doffset setdash} def

% Initialize variables for safety.
/delta 0 def
/xv 0 def  /yv 0 def  /width 0 def  /height 0 def

% Initialize to portrait INTERNATIONAL (Letter-height, A4-width) page.
/pw 595 def  /ph 791  def  /po true def /ftp false def

% Initialize margins to 20 points.
/ml 20 def  /mr 20 def  /mt 20 def  /mb 20 def

% Temporary matrices.
/smatrix 0 def  /nmatrix 0 def

% set page size (usage: <page width><page height> setpagesize)
/setpagesize {/ph exch def /pw exch def} def

% set page orientation (usage: portrait or landscape)
/portrait {/po true def} def
/landscape {/po false def} def

% force natural size for image (usage: naturalsize)
/naturalsize {/ftp false def} def

% resize image to fill page (usage: fittopage)
/fittopage {/ftp true def} def

% set margins of the page (usage: <left><bottom><top><right> setmargins)
/setmargins {/mr exch def /mt exch def /mb exch def /ml exch def} def

% set the graphic's size (usage: <width><height> setsize)
/setsize {/gh exch def /gw exch def} def

% set the graphic's origin (usage: <x0><y0> setorigin)
/setorigin {/gy exch def /gx exch def} def

% calculate image center
/imagecenter {pw ml sub mr sub 2 div ml add
              ph mt sub mb sub 2 div mb add} def

% calculate the necessary scaling
/imagescale {po {gw}{gh} ifelse pw ml sub mr sub div
             po {gh}{gw} ifelse ph mt sub mb sub div
             2 copy lt {exch} if pop
             ftp not {1 2 copy lt {exch} if pop} if
             1 exch div /sfactor exch def
             /gw gw sfactor mul def /gh gh sfactor mul def} def

% calculate image origin
/imageorigin {pw ml sub mr sub 2 div ml add
              po {gw}{gh} ifelse 2 div sub
              ph mt sub mb sub 2 div mb add
              po {gh}{gw} ifelse 2 div po {add}{sub} ifelse} def

% calculate the clipping origin
/cliporigin  {pw ml sub mr sub 2 div ml add
              po {gw}{gh} ifelse 2 div sub floor
              ph mt sub mb sub 2 div mb add
              po {gh}{gw} ifelse 2 div sub floor} def

% Set the clipping region to the bounding box.
/cliptobounds {cliporigin po {gw}{gh} ifelse 1 add
                          po {gh}{gw} ifelse 1 add rc} def

% set the base transformation matrix (usage: setbasematrix)
/setbasematrix {imageorigin translate
                po {0}{90} ifelse rotate
                sfactor sfactor neg scale
                /defaultmatrix matrix currentmatrix def} def

% The lower-right bias in drawing 1 pt. wide lines.
/bias  {q 0.5 0.5 translate} def
/unbias {Q} def

% Define the composite fonts used to print Unicode strings.
% Undefine particular values in an encoding array.
/vg&undef { {exch dup 3 -1 roll /.notdef put} forall } def
/vg&redef { {3 -1 roll dup 4 2 roll put} forall } def

% usage: key encoding basefontname vg&newbasefont font
/vg&newbasefont {
findfont dup length dict copy
  begin
    currentdict /FID undef
    /Encoding exch def
    dup /FontName exch def
    currentdict
  end
definefont
} def

% usage: key encoding basefontname vg&newskewedbasefont font
/vg&newskewedbasefont {
findfont dup length dict copy
  begin
    currentdict /FID undef
    /Encoding exch def
    dup /FontName exch def
    exch FontMatrix exch matrix concatmatrix /FontMatrix exch def
    currentdict
  end
definefont
} def

% usage: basekey suffix vg&nconcat name
/vg&nconcat {
  2 {dup length string cvs exch} repeat
  dup length 3 -1 roll dup length 3 -1 roll add string
  dup 0 4 -1 roll dup length 5 1 roll putinterval
  dup 4 -2 roll exch putinterval cvn
} def

%usage: fontname vg&skewmatrix matrix
/vg&skewmatrix {
findfont dup /FontInfo known
  {
    /FontInfo get dup /ItalicAngle known
    {
      [ 1 0 4 -1 roll /ItalicAngle get neg dup sin exch cos div 1 0 0 ]
    }
    {pop matrix} ifelse
  }
  {pop matrix} ifelse
} def

% usage: newfontname basefontname vg&newcompositefont --
/vg&newcompositefont {
/vg&fstyle exch def
/vg&bfont exch def
/vg&fname exch def
<<
/FontStyleBits vg&fstyle
/FontType 0
/FontMatrix matrix
/FontName vg&fname
/FMapType 2
/Encoding [ 0 1 255 {pop 6} for ]
          dup 16#00 0 put % Latin
          dup 16#03 1 put % Greek
          dup 16#20 2 put % Punctuation
          dup 16#21 3 put % Arrows
          dup 16#22 4 put % MathOps
          dup 16#27 5 put % Dingbats

/FDepVector [
vg&bfont /-UC-Latin vg&nconcat UCLatinEncoding
vg&bfont vg&newbasefont

vg&bfont vg&skewmatrix
vg&bfont /-UC-Greek vg&nconcat UCGreekEncoding
/Symbol vg&newskewedbasefont

vg&bfont /-UC-Punctuation vg&nconcat UCPunctuationEncoding
vg&bfont vg&newbasefont

/Arrows-UC findfont
/MathOps-UC findfont
/Dingbats-UC findfont
/Undefined-UC findfont ]
>>
vg&fname exch definefont pop
} def

% Null encoding vector (all elements set to .notdef)
/NullEncoding [ 256 {/.notdef} repeat ] def

% Unicode Latin encoding (unicode codes \u0000-\u00ff)
/UCLatinEncoding
  ISOLatin1Encoding dup length array copy
  dup 16#60 /grave put
  [ 16#90 16#91 16#92 16#93 16#94 16#95 16#96
    16#97 16#98 16#9a 16#9b 16#9d 16#9e 16#9f
  ] vg&undef
  def

% Unicode Greek encoding (unicode codes \u0370-\u03ff)
/UCGreekEncoding
  NullEncoding dup length array copy
  << 16#91 /Alpha    16#92 /Beta      16#93 /Gamma    16#94 /Delta
     16#95 /Epsilon  16#96 /Zeta      16#97 /Eta      16#98 /Theta
     16#99 /Iota     16#9a /Kappa     16#9b /Lambda   16#9c /Mu
     16#9d /Nu       16#9e /Xi        16#9f /Omicron  16#a0 /Pi
     16#a1 /Rho      16#a3 /Sigma     16#a4 /Tau      16#a5 /Upsilon
     16#a6 /Phi      16#a7 /Chi       16#a8 /Psi      16#a9 /Omega
     16#b1 /alpha    16#b2 /beta      16#b3 /gamma    16#b4 /delta
     16#b5 /epsilon  16#b6 /zeta      16#b7 /eta      16#b8 /theta
     16#b9 /iota     16#ba /kappa     16#bb /lambda   16#bc /mu
     16#bd /nu       16#be /xi        16#bf /omicron  16#c0 /pi
     16#c1 /rho      16#c2 /sigma1    16#c3 /sigma    16#c4 /tau
     16#c5 /upsilon  16#c6 /phi1      16#c7 /chi      16#c8 /psi
     16#c9 /omega    16#7e /semicolon 16#87 /dotmath  16#d1 /theta1
     16#d2 /Upsilon1 16#d5 /phi       16#d6 /omega1
  >> vg&redef
  def

% Unicode punctuation encoding (unicode codes \u2000-\u206f)
/UCPunctuationEncoding
  NullEncoding dup length array copy
  << 16#10 /hyphen          16#11 /hyphen              16#12 /endash
     16#13 /emdash          16#18 /quoteleft           16#19 /quoteright
     16#1a /quotesinglbase  16#1b /quotesingle         16#1c /quotedblleft
     16#1d /quotedblright   16#1e /quotedblbase        16#1f /quotedbl
     16#20 /dagger          16#21 /daggerdbl           16#22 /bullet
     16#24 /period          16#26 /ellipsis            16#27 /periodcentered
     16#30 /perthousand     16#44 /fraction
     16#70 /zerosuperior    16#74 /foursuperior        16#75 /fivesuperior
     16#76 /sixsuperior     16#77 /sevensuperior       16#78 /eightsuperior
     16#79 /ninesuperior    16#7b /hyphensuperior      16#7d /parenleftsuperior
     16#7e /parenrightsuperior
     16#80 /zeroinferior    16#84 /fourinferior        16#85 /fiveinferior
     16#81 /oneinferior     16#82 /twoinferior         16#83 /threeinferior
     16#86 /sixinferior     16#87 /seveninferior       16#88 /eightinferior
     16#89 /nineinferior    16#8b /hypheninferior      16#8d /parenleftinferior
     16#8e /parenrightinferior
  >> vg&redef
  def

% Unicode mathematical operators encoding (unicode codes \u2200-\u22ff)
/UCMathOpsEncoding
  NullEncoding dup length array copy
  << 16#00 /universal       16#02 /partialdiff         16#03 /existential
     16#05 /emptyset        16#06 /Delta               16#07 /gradient
     16#08 /element         16#09 /notelement          16#0b /suchthat
     16#0f /product         16#11 /summation           16#12 /minus
     16#15 /fraction        16#17 /asteriskmath        16#19 /bullet
     16#1a /radical         16#1d /proportional        16#1e /infinity
     16#20 /angle           16#23 /bar                 16#27 /logicaland
     16#28 /logicalor       16#29 /intersection        16#2a /union
     16#2b /integral        16#34 /therefore           16#36 /colon
     16#3c /similar         16#45 /congruent           16#48 /approxequal
     16#60 /notequal        16#61 /equivalence         16#64 /lessequal
     16#65 /greaterequal    16#82 /propersubset        16#83 /propersuperset
     16#86 /reflexsubset    16#87 /reflexsuperset      16#95 /circleplus
     16#97 /circlemultiply  16#a5 /perpendicular       16#03 /existential
     16#c0 /logicaland      16#c1 /logicalor           16#c2 /intersection
     16#c3 /union           16#c4 /diamond             16#c5 /dotmath
  >> vg&redef
  def

% Unicode arrows encoding (unicode codes \u2190-\u21ff)
% Also includes those "Letterlike" unicode characters
% which are available in the symbol font. (unicode codes \u2100-\u214f)
/UCArrowsEncoding
  NullEncoding dup length array copy
  << 16#11 /Ifraktur        16#1c /Rfraktur            16#22 /trademarkserif
     16#35 /aleph
     16#90 /arrowleft       16#91 /arrowup             16#92 /arrowright
     16#93 /arrowdown       16#94 /arrowboth           16#d0 /arrowdblleft
     16#d1 /arrowdblup      16#d2 /arrowdblright       16#d3 /arrowdbldown
     16#d4 /arrowdblboth
  >> vg&redef
  def

/ZapfDingbats findfont /Encoding get
dup length array copy /UCDingbatsEncoding exch def
16#20 1 16#7f {
  dup 16#20 sub exch
  UCDingbatsEncoding exch get
  UCDingbatsEncoding 3 1 roll put
} for
16#a0 1 16#ff {
  dup 16#40 sub exch
  UCDingbatsEncoding exch get
  UCDingbatsEncoding 3 1 roll put
} for
UCDingbatsEncoding [ 16#c0 1 16#ff {} for ] vg&undef
[ 16#00  16#05 16#0a 16#0b  16#28 16#4c 16#4e  16#53 16#54 16#55  16#57 16#5f
  16#60  16#68 16#69 16#6a  16#6b 16#6c 16#6d  16#6e 16#6f 16#70  16#71 16#72
  16#73  16#74 16#75 16#95  16#96 16#97 16#b0  16#bf
] vg&undef pop

% Define the base fonts which don't change.
/Undefined-UC NullEncoding       /Helvetica    vg&newbasefont pop
/MathOps-UC   UCMathOpsEncoding  /Symbol       vg&newbasefont pop
/Arrows-UC    UCArrowsEncoding   /Symbol       vg&newbasefont pop
/Dingbats-UC  UCDingbatsEncoding /ZapfDingbats vg&newbasefont pop

% Make the SansSerif composite fonts.
/SansSerif /Helvetica 16#00 vg&newcompositefont
/SansSerif-Bold /Helvetica-Bold 16#01 vg&newcompositefont
/SansSerif-Italic /Helvetica-Oblique 16#02 vg&newcompositefont
/SansSerif-BoldItalic /Helvetica-BoldOblique 16#03 vg&newcompositefont

% Make the Serif composite fonts.
/Serif /Times-Roman 16#00 vg&newcompositefont
/Serif-Bold /Times-Bold 16#01 vg&newcompositefont
/Serif-Italic /Times-Italic 16#02 vg&newcompositefont
/Serif-BoldItalic /Times-BoldItalic 16#03 vg&newcompositefont

% Make the Monospaced composite fonts.
/Monospaced /Courier 16#00 vg&newcompositefont
/Monospaced-Bold /Courier-Bold 16#01 vg&newcompositefont
/Monospaced-Italic /Courier-Oblique 16#02 vg&newcompositefont
/Monospaced-BoldItalic /Courier-BoldOblique 16#03 vg&newcompositefont

% Make the Dialog composite fonts.
/Dialog /Helvetica 16#00 vg&newcompositefont
/Dialog-Bold /Helvetica-Bold 16#01 vg&newcompositefont
/Dialog-Italic /Helvetica-Oblique 16#02 vg&newcompositefont
/Dialog-BoldItalic /Helvetica-BoldOblique 16#03 vg&newcompositefont

% Make the DialogInput composite fonts.
/DialogInput /Courier 16#00 vg&newcompositefont
/DialogInput-Bold /Courier-Bold 16#01 vg&newcompositefont
/DialogInput-Italic /Courier-Oblique 16#02 vg&newcompositefont
/DialogInput-BoldItalic /Courier-BoldOblique 16#03 vg&newcompositefont

% Make the Typewriter composite fonts (JDK 1.1 only).
/Typewriter /Courier 16#00 vg&newcompositefont
/Typewriter-Bold /Courier-Bold 16#01 vg&newcompositefont
/Typewriter-Italic /Courier-Oblique 16#02 vg&newcompositefont
/Typewriter-BoldItalic /Courier-BoldOblique 16#03 vg&newcompositefont


/cfontH {
 dup /fontsize exch def /SansSerif exch sf
 /vg&fontstyles [{cfontH} {cfontHB} {cfontHI} {cfontHBI}] def
} def
/cfontHB {
  dup /fontsize exch def /SansSerif-Bold exch sf
 /vg&fontstyles [{cfontH} {cfontHB} {cfontHI} {cfontHBI}] def
} def
/cfontHI {
 dup /fontsize exch def /SansSerif-Italic exch sf
 /vg&fontstyles [{cfontH} {cfontHB} {cfontHI} {cfontHBI}] def
} def
/cfontHBI {
 dup /fontsize exch def /SansSerif-BoldItalic exch sf
 /vg&fontstyles [{cfontH} {cfontHB} {cfontHI} {cfontHBI}] def
} def

/cfontT {
 dup /fontsize exch def /Serif exch sf
 /vg&fontstyles [{cfontT} {cfontTB} {cfontTI} {cfontTBI}] def
} def
/cfontTB {
 dup /fontsize exch def /Serif-Bold exch sf
 /vg&fontstyles [{cfontT} {cfontTB} {cfontTI} {cfontTBI}] def
} def
/cfontTI {
 dup /fontsize exch def /Serif-Italic exch sf
 /vg&fontstyles [{cfontT} {cfontTB} {cfontTI} {cfontTBI}] def
} def
/cfontTBI {
 dup /fontsize exch def /Serif-BoldItalic exch sf
 /vg&fontstyles [{cfontT} {cfontTB} {cfontTI} {cfontTBI}] def
} def

/cfontC {
 dup /fontsize exch def /Typewriter exch sf
 /vg&fontstyles [{cfontC} {cfontCB} {cfontCI} {cfontCBI}] def
} def
/cfontCB {
 dup /fontsize exch def /Typewriter-Bold exch sf
 /vg&fontstyles [{cfontC} {cfontCB} {cfontCI} {cfontCBI}] def
} def
/cfontCI {
 dup /fontsize exch def /Typewriter-Italic exch sf
 /vg&fontstyles [{cfontC} {cfontCB} {cfontCI} {cfontCBI}] def
} def
/cfontCBI {
 dup /fontsize exch def /Typewriter-BoldItalic exch sf
 /vg&fontstyles [{cfontC} {cfontCB} {cfontCI} {cfontCBI}] def
} def

% Darken or lighten the current color.
/darken {0.7 exch exp 3 copy
         q 4 -1 roll vg&C
         currentrgbcolor 3 {4 -2 roll mul} repeat
         3 array astore Q} def

/displayColorMap
<< /Cr   [1.00 0.00 0.00]       /Cg     [0.00 1.00 0.00]
   /Cb   [0.00 0.00 1.00]       /Cc     [1.00 0.00 0.00 0.00]
   /Cm   [0.00 1.00 0.00 0.00]  /Cy     [0.00 0.00 1.00 0.00]
   /Co   [1.00 0.78 0.00]       /Cp     [1.00 0.67 0.67]
   /Cw   [1   ]                 /Cgrl   [0.75]
   /Cgr  [0.50]                 /Cgrd   [0.25]
   /Ck   [0   ]
   /CGr  [1.00 0.00 0.00]       /CGg    [0.00 1.00 0.00]
   /CGb  [0.00 0.00 1.00]       /CGc    [1.00 0.00 0.00 0.00]
   /CGm  [0.00 1.00 0.00 0.00]  /CGy    [0.00 0.00 1.00 0.00]
   /CGo  [1.00 0.78 0.00]       /CGp    [1.00 0.67 0.67]
   /CGw  [1   ]                 /CGgrl  [0.75]
   /CGgr [0.50]                 /CGgrd  [0.25]
   /CGk  [0   ]
   /CIr  [1.00 0.00 0.00]       /CIg    [0.00 1.00 0.00]
   /CIb  [0.00 0.00 1.00]       /CIc    [1.00 0.00 0.00 0.00]
   /CIm  [0.00 1.00 0.00 0.00]  /CIy    [0.00 0.00 1.00 0.00]
   /CIo  [1.00 0.78 0.00]       /CIp    [1.00 0.67 0.67]
   /CIw  [1   ]                 /CIgrl  [0.75]
   /CIgr [0.50]                 /CIgrd  [0.25]
   /CIk  [0   ]
>> def

/printColorMap
<< /Cr   [1.00 0.33 0.33]       /Cg     [0.33 1.00 0.33]
   /Cb   [0.33 0.33 1.00]       /Cc     [1.00 0.00 0.00 0.00]
   /Cm   [0.00 1.00 0.00 0.00]  /Cy     [0.00 0.00 1.00 0.00]
   /Co   [1.00 0.78 0.00]       /Cp     [1.00 0.67 0.67]
   /Cw   [1   ]                 /Cgrl   [0.75]
   /Cgr  [0.50]                 /Cgrd   [0.25]
   /Ck   [0   ]
   /CGr  [1.00 0.33 0.33]       /CGg    [0.33 1.00 0.33]
   /CGb  [0.33 0.33 1.00]       /CGc    [1.00 0.00 0.00 0.00]
   /CGm  [0.00 1.00 0.00 0.00]  /CGy    [0.00 0.00 1.00 0.00]
   /CGo  [1.00 0.78 0.00]       /CGp    [1.00 0.67 0.67]
   /CGw  [1   ]                 /CGgrl  [0.75]
   /CGgr [0.50]                 /CGgrd  [0.25]
   /CGk  [0   ]
   /CIr  [1.00 0.33 0.33]       /CIg    [0.33 1.00 0.33]
   /CIb  [0.33 0.33 1.00]       /CIc    [1.00 0.00 0.00 0.00]
   /CIm  [0.00 1.00 0.00 0.00]  /CIy    [0.00 0.00 1.00 0.00]
   /CIo  [1.00 0.78 0.00]       /CIp    [1.00 0.67 0.67]
   /CIw  [1   ]                 /CIgrl  [0.75]
   /CIgr [0.50]                 /CIgrd  [0.25]
   /CIk  [0   ]
>> def

/grayColorMap
<< /Cr   [0   ]                 /Cg     [0   ]
   /Cb   [0   ]                 /Cc     [0   ]
   /Cm   [0   ]                 /Cy     [0   ]
   /Co   [0   ]                 /Cp     [0   ]
   /Cw   [0   ]                 /Cgrl   [0   ]
   /Cgr  [0   ]                 /Cgrd   [0   ]
   /Ck   [0   ]
   /CGr  [0.75]                 /CGg    [1   ]
   /CGb  [0.50]                 /CGc    [0.75]
   /CGm  [0.50]                 /CGy    [1   ]
   /CGo  [0.75]                 /CGp    [1   ]
   /CGw  [0   ]                 /CGgrl  [0.25]
   /CGgr [0.50]                 /CGgrd  [0.75]
   /CGk  [1   ]
   /CIr  [1   ]                 /CIg    [1   ]
   /CIb  [1   ]                 /CIc    [1   ]
   /CIm  [1   ]                 /CIy    [1   ]
   /CIo  [1   ]                 /CIp    [1   ]
   /CIw  [1   ]                 /CIgrl  [1   ]
   /CIgr [1   ]                 /CIgrd  [1   ]
   /CIk  [1   ]
>> def

/bwColorMap
<< /Cr   [0   ]                 /Cg     [0   ]
   /Cb   [0   ]                 /Cc     [0   ]
   /Cm   [0   ]                 /Cy     [0   ]
   /Co   [0   ]                 /Cp     [0   ]
   /Cw   [0   ]                 /Cgrl   [0   ]
   /Cgr  [0   ]                 /Cgrd   [0   ]
   /Ck   [0   ]
   /CGr  [1   ]                 /CGg    [1   ]
   /CGb  [1   ]                 /CGc    [1   ]
   /CGm  [1   ]                 /CGy    [1   ]
   /CGo  [1   ]                 /CGp    [1   ]
   /CGw  [0   ]                 /CGgrl  [1   ]
   /CGgr [1   ]                 /CGgrd  [1   ]
   /CGk  [1   ]
   /CIr  [1   ]                 /CIg    [1   ]
   /CIb  [1   ]                 /CIc    [1   ]
   /CIm  [1   ]                 /CIy    [1   ]
   /CIo  [1   ]                 /CIp    [1   ]
   /CIw  [1   ]                 /CIgrl  [1   ]
   /CIgr [1   ]                 /CIgrd  [1   ]
   /CIk  [1   ]
>> def

%
% The following routines handle the alignment of and printing of
% tagged strings.
%

% Predefine the bounding box values.
/bbllx 0 def /bblly 0 def /bburx 0 def /bbury 0 def

% This routine pops the first unicode character off of a string and returns
% the remainder of the string, the character code of first character,
% and a "true" if the string was non-zero length.
% <string>      popfirst <remaining string> <true>
% <null string> popfirst <false>
/popfirst {
  dup length 1 gt
    {dup 0 get /vg&fbyte exch def
     dup 1 get /vg&cbyte exch def
     dup length 2 sub 2 exch getinterval true}
    {pop false} ifelse
} def

% This routine shows a single unicode character given the font and
% character codes.
% <font code> <char code> unicharshow --
/unicharshow {
  2 string
  dup 0 5 -1 roll put
  dup 1 4 -1 roll put
  internalshow
} def

% This is an internal routine to alternate between determining the
% bounding box for stringsize and showing the string for recshow.
% <string> internalshow --
/internalshow {show} def

% This is an internal routine to alternate between determining the
% bounding box for stringsize and stroking various ornaments.
% <string> internalstroke --
/internalstroke {S} def

% Sets up internalshow to use the null device to determine string size.
% -- nullinternalshow --
/nullinternalshow {/internalshow {false charpath flattenpath
                                  pathbbox updatebbox} def} def

% Sets up internalstroke to use the null device to determine string size.
% -- nullinternalstroke --
/nullinternalstroke {
 /internalstroke {flattenpath pathbbox updatebbox} def} def

% This routine tests to see if the character code matches the first
% character of a string.
% <char code> <string> testchar <char code> <true or false>
/testchar {exch dup 3 -1 roll 0 get eq} def

% Raise the text baseline for superscripts.
% -- raise --
/raise {
  0 fontsize 2 div rmoveto
  /fontsize fontsize 2 mul 3 div def
  currentfont /FontName get fontsize sf
} def

% Un-raise the text baseline for superscripts.
% -- unraise --
/unraise {
  /fontsize fontsize 1.5 mul def
  0 fontsize 2 div neg rmoveto
} def

% Lower the text baseline for subscripts.
% -- lower --
/lower {
  0 fontsize 3 div neg rmoveto
  /fontsize fontsize 2 mul 3 div def
  currentfont /FontName get fontsize sf
} def

% Un-lower the text baseline for subscripts.
% -- unlower --
/unlower {
  /fontsize fontsize 1.5 mul def
  0 fontsize 3 div rmoveto
} def

% Compare the top two elements on the stack and leave only the
% larger one.
/maxval {2 copy gt {pop} {exch pop} ifelse} def

% Tokenize a string.  Do not use the usual PostScript token because
% parentheses will not be interpreted correctly because of rescanning
% of the string.
/vg&token {/vg&string exch def /vg&index -1 def /vg&level 0 def
0 2 vg&string length 2 sub {
  dup dup 1 add exch vg&string exch get 8 bitshift vg&string 3 -1 roll get or
  dup 16#f0fe eq {pop 1}{16#f0ff eq {-1}{0} ifelse} ifelse
  /vg&level exch vg&level add def
  vg&level 0 eq {/vg&index exch def exit} if pop
} for
vg&index 0 ge {
  vg&string vg&index 2 add dup vg&string length exch sub getinterval
  vg&index 2 gt {vg&string 2 vg&index 2 sub getinterval}{()} ifelse
  true}
{false} ifelse
} bind def

% Recursively show an unicode string.
% <string> recshow --
/recshow {
  popfirst
  {
    % Test to see if this is a string attribute.
    vg&fbyte 16#f0 and 16#e0 eq
    {
      q

      % Font style.
      currentfont dup /FontStyleBits known {/FontStyleBits get}{pop 0} ifelse
      vg&cbyte or vg&fontstyles exch get fontsize exch exec

      vg&token pop recshow currentpoint Q m recshow
    }
    {
      vg&fbyte 16#F8 and 16#F0 eq {

        % Superscript and/or subscript.
        vg&cbyte 16#00 eq {
          vg&token pop exch vg&token pop 3 -1 roll
          q raise recshow unraise currentpoint pop Q exch
          q lower recshow unlower currentpoint pop Q
          maxval currentpoint exch pop m recshow } if

        % Strikeout.
        vg&cbyte 16#01 eq {
          vg&token pop currentpoint 3 -1 roll recshow
          q 0 J vg&underline vg&uthick w
          currentpoint 4 -2 roll fontsize 3 div add moveto
          fontsize 3 div add lineto internalstroke Q
          recshow} if

        % Underline.
        vg&cbyte 16#02 eq {
          vg&token pop currentpoint 3 -1 roll recshow
          q 0 J vg&underline vg&uthick w
          currentpoint 4 -2 roll vg&uoffset add moveto
          vg&uoffset add lineto internalstroke Q
          recshow} if

        % Dashed underline.
        vg&cbyte 16#03 eq {
          vg&token pop currentpoint 3 -1 roll recshow
          q 0 J [ vg&uthick 5 mul vg&uthick 2 mul] 0 d
          vg&underline vg&uthick w
          currentpoint 4 -2 roll vg&uoffset add moveto
          vg&uoffset add lineto internalstroke Q
          recshow} if

        % Dotted underline.
        vg&cbyte 16#04 eq {
          vg&token pop currentpoint 3 -1 roll recshow
          q 1 J [ 0 vg&uthick 3 mul] 0 d
          vg&underline vg&uthick w
          currentpoint 4 -2 roll vg&uoffset add moveto
          vg&uoffset add lineto internalstroke Q
          recshow} if

        % Thick underline.
        vg&cbyte 16#05 eq {
          vg&token pop currentpoint 3 -1 roll recshow
          q 0 J vg&underline vg&uthick 2 mul w
          currentpoint 4 -2 roll vg&uoffset vg&uthick 2 div sub add moveto
          vg&uoffset vg&uthick 2 div sub add lineto internalstroke Q
          recshow} if

        % Gray thick underline.
        vg&cbyte 16#06 eq {
          vg&token pop currentpoint 3 -1 roll recshow
          q 0 J vg&underline vg&uthick 2 mul w 0.5 setgray
          currentpoint 4 -2 roll vg&uoffset vg&uthick 2 div sub add moveto
          vg&uoffset vg&uthick 2 div sub add lineto internalstroke Q
          recshow} if

        % Overbar.
        vg&cbyte 16#07 eq {
          vg&token pop dup stringsize relative 4 1 roll pop pop exch
          3 -1 roll recshow
          q 0 J vg&underline vg&uthick w
          vg&uoffset neg add dup currentpoint pop exch m l internalstroke Q
          recshow} if
      }
      {
        vg&fbyte vg&cbyte unicharshow recshow
      } ifelse
    } ifelse
  } if
} def

% Get the underline position and thickness from the current font.
/vg&underline {

currentfont dup /FontType get 0 eq {/FDepVector get 0 get} if
dup dup /FontInfo known {
  /FontInfo get dup
  dup /UnderlinePosition known {
    /UnderlinePosition get /vg&uoffset exch def
  }
  {
    pop /vg&uoffset 0 def
  } ifelse
  dup /UnderlineThickness known {
    /UnderlineThickness get /vg&uthick exch def
  }
  {
    pop /vg&uthick 0 def
  } ifelse
}
{
  pop /vg&uoffset 0 def /vg&uthick 0 def
} ifelse
/FontMatrix get
currentfont dup /FontType get 0 eq
{/FontMatrix get matrix concatmatrix}{pop} ifelse
dup 0 vg&uoffset 3 -1 roll transform /vg&uoffset exch def pop
0 vg&uthick 3 -1 roll transform /vg&uthick exch def pop
} def

% Make a frame with the coordinates on the stack.
% <llx> <lly> <urx> <ury> frame --
/frame {4 copy m 3 1 roll exch l 4 -2 roll l l h} def

% Resets the accumulated bounding box to a degenerate box at the
% current point.
% -- resetbbox --
/resetbbox {
  currentpoint 2 copy
  /bbury exch def
  /bburx exch def
  /bblly exch def
  /bbllx exch def
} def

% Update the accumulated bounding box.
% <llx'> <lly'> <urx'> <ury'> updatebbox --
/updatebbox {
  dup bbury gt {/bbury exch def} {pop} ifelse
  dup bburx gt {/bburx exch def} {pop} ifelse
  dup bblly lt {/bblly exch def} {pop} ifelse
  dup bbllx lt {/bbllx exch def} {pop} ifelse
} def

% Set the bounding box to the values on the stack.
% <llx'> <lly'> <urx'> <ury'> updatebbox --
/restorebbox {
  /bbury exch def /bburx exch def /bblly exch def /bbllx exch def
} def

% Push the accumulated bounding box onto the stack.
% -- pushbbox <llx> <lly> <urx> <ury>
/pushbbox {bbllx bblly bburx bbury} def

% Make the relative bounding box relative to the currentpoint.
% <llx'> <lly'> <urx'> <ury'> inflate <llx> <lly> <urx> <ury>
/inflate {
  2 {fontsize 0.2 mul add 4 1 roll} repeat
  2 {fontsize 0.2 mul sub 4 1 roll} repeat
} def

% Make the relative bounding box relative to the currentpoint.
% <llx'> <lly'> <urx'> <ury'> relative <llx> <lly> <urx> <ury>
/relative {
  currentpoint 3 -1 roll add 3 1 roll add exch 4 2 roll
  currentpoint 3 -1 roll add 3 1 roll add exch 4 2 roll
} def

% Returns the size of a string appropriate for recshow.
% <string> stringsize <llx> <lly> <urx> <ury>
/stringsize {
  pushbbox /internalshow load /internalstroke load 7 -1 roll
  q
  nulldevice 0 0 m
  nullinternalshow nullinternalstroke
  resetbbox
  recshow
  /internalstroke exch def /internalshow exch def
  pushbbox 8 -4 roll restorebbox
  Q
} def

% Calculate values for string positioning.
/calcval {4 copy
  3 -1 roll sub /widy exch def sub neg /widx exch def
  pop pop /dy exch def /dx exch def} def

% Utilities to position a string.
% First letter (U=upper, C=center, B=baseline, L=lower)
% Second letter (L=left, C=center, R=right)
/align [
{calcval dx neg widy dy add neg rmoveto} % UL
{calcval dx neg widy 2 div dy add neg rmoveto} % CL
{calcval dx neg 0 rmoveto} % BL
{calcval dx neg dy neg rmoveto} % LL
{calcval widx dx add neg widy dy add neg rmoveto} % UR
{calcval widx dx add neg widy 2 div dy add neg rmoveto} % CR
{calcval widx dx add neg 0 rmoveto} % BR
{calcval widx dx add neg dy neg rmoveto} % LR
{calcval widx 2 div dx add neg widy dy add neg rmoveto} % UC
{calcval widx 2 div dx add neg widy 2 div dy add neg rmoveto} % CC
{calcval widx 2 div dx add neg 0 rmoveto} % BC
{calcval widx 2 div dx add neg dy neg rmoveto} % LC
] def

/vg&str {m q 1 -1 scale dup stringsize 4 copy align 11 -1 roll get exec
         q inflate relative frame exch exec Q recshow Q} def

end /procDict exch def
%%EndProlog

%%BeginSetup
save
procDict begin
printColorMap begin
361 153 setpagesize
0 0 0 0 setmargins
0 0 setorigin
361 153 setsize
naturalsize
portrait
imagescale
cliptobounds
setbasematrix
/Helvetica 10 sf
defaultGraphicsState
%%EndSetup

0.00000 0.00000 0.00000 RG
[ 1.00000 0.00000 0.00000 1.00000 0.00000 0.00000 ] defaultmatrix matrix concatmatrix setmatrix
cliprestore
1.00000 1.00000 1.00000 RG
newpath
0.00000 0.00000 m
361.000 0.00000 l
361.000 153.000 l
0.00000 153.000 l
0.00000 0.00000 l
h
f
0.00000 0.00000 0.00000 RG
0 0 361 153 rc
q
[ 1.00000 0.00000 0.00000 1.00000 0.00000 0.00000 ] concat
[ 1.00000 0.00000 0.00000 1.00000 -44.0000 167.000 ] concat
1.00000 1.00000 1.00000 RG
newpath
44.0000 -167.000 m
405.000 -167.000 l
405.000 -14.0000 l
44.0000 -14.0000 l
44.0000 -167.000 l
h
f
0.00000 0.00000 0.00000 RG
[ 1.00000 0.00000 0.00000 1.00000 -44.0000 167.000 ] defaultmatrix matrix concatmatrix setmatrix
[ 1.00000 0.00000 0.00000 1.00000 -44.0000 167.000 ] defaultmatrix matrix concatmatrix setmatrix
[ 1.00000 0.00000 0.00000 1.00000 0.00000 0.00000 ] defaultmatrix matrix concatmatrix setmatrix
[ 1.00000 0.00000 0.00000 1.00000 -44.0000 167.000 ] defaultmatrix matrix concatmatrix setmatrix
1.00000 .800000 0.00000 RG
newpath
284.550 -147.172 m
284.550 -37.7948 l
284.550 -35.5857 286.340 -33.7948 288.550 -33.7948  c
385.738 -33.7948 l
387.947 -33.7948 389.738 -35.5857 389.738 -37.7948  c
389.738 -147.172 l
389.738 -149.382 387.947 -151.172 385.738 -151.172  c
288.550 -151.172 l
286.340 -151.172 284.550 -149.382 284.550 -147.172  c
h
f
0.00000 0.00000 0.00000 RG
0 J
1.45000 M
newpath
308.684 -136.019 m
307.075 -131.675 l
310.293 -131.675 l
308.684 -136.019 l
h
308.012 -137.190 m
309.356 -137.190 l
312.684 -128.440 l
311.450 -128.440 l
310.653 -130.690 l
306.715 -130.690 l
305.918 -128.440 l
304.668 -128.440 l
308.012 -137.190 l
h
314.955 -129.425 m
314.955 -125.940 l
313.877 -125.940 l
313.877 -135.003 l
314.955 -135.003 l
314.955 -134.003 l
315.185 -134.399 315.471 -134.690 315.815 -134.878  c
316.159 -135.065 316.570 -135.159 317.049 -135.159  c
317.851 -135.159 318.502 -134.844 319.002 -134.214  c
319.502 -133.584 319.752 -132.753 319.752 -131.722  c
319.752 -130.690 319.502 -129.857 319.002 -129.222  c
318.502 -128.586 317.851 -128.269 317.049 -128.269  c
316.570 -128.269 316.159 -128.365 315.815 -128.558  c
315.471 -128.750 315.185 -129.039 314.955 -129.425  c
h
318.627 -131.722 m
318.627 -132.513 318.463 -133.133 318.135 -133.581  c
317.807 -134.029 317.362 -134.253 316.799 -134.253  c
316.226 -134.253 315.776 -134.029 315.448 -133.581  c
315.120 -133.133 314.955 -132.513 314.955 -131.722  c
314.955 -130.930 315.120 -130.308 315.448 -129.855  c
315.776 -129.401 316.226 -129.175 316.799 -129.175  c
317.362 -129.175 317.807 -129.401 318.135 -129.855  c
318.463 -130.308 318.627 -130.930 318.627 -131.722  c
h
321.526 -137.565 m
322.604 -137.565 l
322.604 -128.440 l
321.526 -128.440 l
321.526 -137.565 l
h
324.860 -135.003 m
325.938 -135.003 l
325.938 -128.440 l
324.860 -128.440 l
324.860 -135.003 l
h
324.860 -137.565 m
325.938 -137.565 l
325.938 -136.190 l
324.860 -136.190 l
324.860 -137.565 l
h
332.928 -134.753 m
332.928 -133.737 l
332.616 -133.914 332.308 -134.045 332.006 -134.128  c
331.704 -134.211 331.397 -134.253 331.084 -134.253  c
330.376 -134.253 329.829 -134.032 329.444 -133.589  c
329.058 -133.146 328.866 -132.524 328.866 -131.722  c
328.866 -130.920 329.058 -130.297 329.444 -129.855  c
329.829 -129.412 330.376 -129.190 331.084 -129.190  c
331.397 -129.190 331.704 -129.232 332.006 -129.315  c
332.308 -129.399 332.616 -129.524 332.928 -129.690  c
332.928 -128.690 l
332.626 -128.555 332.314 -128.451 331.991 -128.378  c
331.668 -128.305 331.324 -128.269 330.959 -128.269  c
329.970 -128.269 329.183 -128.578 328.600 -129.198  c
328.017 -129.818 327.725 -130.659 327.725 -131.722  c
327.725 -132.784 328.019 -133.623 328.608 -134.237  c
329.196 -134.852 330.006 -135.159 331.037 -135.159  c
331.360 -135.159 331.681 -135.125 331.998 -135.058  c
332.316 -134.990 332.626 -134.888 332.928 -134.753  c
h
337.776 -131.737 m
336.911 -131.737 336.310 -131.638 335.971 -131.440  c
335.633 -131.243 335.463 -130.904 335.463 -130.425  c
335.463 -130.039 335.591 -129.735 335.846 -129.511  c
336.101 -129.287 336.442 -129.175 336.870 -129.175  c
337.474 -129.175 337.955 -129.386 338.315 -129.808  c
338.674 -130.230 338.854 -130.795 338.854 -131.503  c
338.854 -131.737 l
337.776 -131.737 l
h
339.932 -132.190 m
339.932 -128.440 l
338.854 -128.440 l
338.854 -129.440 l
338.604 -129.045 338.297 -128.750 337.932 -128.558  c
337.567 -128.365 337.120 -128.269 336.588 -128.269  c
335.911 -128.269 335.375 -128.459 334.979 -128.839  c
334.583 -129.219 334.385 -129.722 334.385 -130.347  c
334.385 -131.086 334.633 -131.644 335.127 -132.019  c
335.622 -132.394 336.359 -132.581 337.338 -132.581  c
338.854 -132.581 l
338.854 -132.690 l
338.854 -133.190 338.690 -133.576 338.362 -133.847  c
338.034 -134.118 337.578 -134.253 336.995 -134.253  c
336.620 -134.253 336.252 -134.206 335.893 -134.112  c
335.534 -134.019 335.192 -133.883 334.870 -133.706  c
334.870 -134.706 l
335.265 -134.862 335.648 -134.977 336.018 -135.050  c
336.388 -135.123 336.750 -135.159 337.104 -135.159  c
338.052 -135.159 338.760 -134.914 339.229 -134.425  c
339.698 -133.935 339.932 -133.190 339.932 -132.190  c
h
346.879 -134.753 m
346.879 -133.737 l
346.567 -133.914 346.259 -134.045 345.957 -134.128  c
345.655 -134.211 345.348 -134.253 345.036 -134.253  c
344.327 -134.253 343.780 -134.032 343.395 -133.589  c
343.009 -133.146 342.817 -132.524 342.817 -131.722  c
342.817 -130.920 343.009 -130.297 343.395 -129.855  c
343.780 -129.412 344.327 -129.190 345.036 -129.190  c
345.348 -129.190 345.655 -129.232 345.957 -129.315  c
346.259 -129.399 346.567 -129.524 346.879 -129.690  c
346.879 -128.690 l
346.577 -128.555 346.265 -128.451 345.942 -128.378  c
345.619 -128.305 345.275 -128.269 344.911 -128.269  c
343.921 -128.269 343.134 -128.578 342.551 -129.198  c
341.968 -129.818 341.676 -130.659 341.676 -131.722  c
341.676 -132.784 341.970 -133.623 342.559 -134.237  c
343.148 -134.852 343.957 -135.159 344.989 -135.159  c
345.312 -135.159 345.632 -135.125 345.950 -135.058  c
346.267 -134.990 346.577 -134.888 346.879 -134.753  c
h
348.743 -135.003 m
349.821 -135.003 l
349.821 -128.440 l
348.743 -128.440 l
348.743 -135.003 l
h
348.743 -137.565 m
349.821 -137.565 l
349.821 -136.190 l
348.743 -136.190 l
348.743 -137.565 l
h
354.623 -134.253 m
354.050 -134.253 353.595 -134.026 353.256 -133.573  c
352.918 -133.120 352.748 -132.503 352.748 -131.722  c
352.748 -130.930 352.915 -130.310 353.248 -129.862  c
353.582 -129.414 354.040 -129.190 354.623 -129.190  c
355.196 -129.190 355.652 -129.417 355.991 -129.870  c
356.329 -130.323 356.498 -130.940 356.498 -131.722  c
356.498 -132.493 356.329 -133.107 355.991 -133.565  c
355.652 -134.024 355.196 -134.253 354.623 -134.253  c
h
354.623 -135.159 m
355.561 -135.159 356.298 -134.855 356.834 -134.245  c
357.371 -133.636 357.639 -132.795 357.639 -131.722  c
357.639 -130.649 357.371 -129.805 356.834 -129.190  c
356.298 -128.576 355.561 -128.269 354.623 -128.269  c
353.686 -128.269 352.949 -128.576 352.412 -129.190  c
351.876 -129.805 351.608 -130.649 351.608 -131.722  c
351.608 -132.795 351.876 -133.636 352.412 -134.245  c
352.949 -134.855 353.686 -135.159 354.623 -135.159  c
h
355.764 -138.034 m
356.936 -138.034 l
355.030 -135.831 l
354.123 -135.831 l
355.764 -138.034 l
h
364.887 -132.409 m
364.887 -128.440 l
363.809 -128.440 l
363.809 -132.362 l
363.809 -132.987 363.687 -133.453 363.442 -133.761  c
363.197 -134.068 362.835 -134.222 362.356 -134.222  c
361.773 -134.222 361.312 -134.037 360.973 -133.667  c
360.634 -133.297 360.465 -132.789 360.465 -132.144  c
360.465 -128.440 l
359.387 -128.440 l
359.387 -135.003 l
360.465 -135.003 l
360.465 -133.987 l
360.726 -134.383 361.030 -134.677 361.379 -134.870  c
361.728 -135.063 362.132 -135.159 362.590 -135.159  c
363.340 -135.159 363.911 -134.927 364.301 -134.464  c
364.692 -134.000 364.887 -133.315 364.887 -132.409  c
h
f
newpath
318.008 -120.847 m
318.008 -119.815 l
317.706 -119.972 317.391 -120.089 317.063 -120.167  c
316.735 -120.245 316.394 -120.284 316.039 -120.284  c
315.508 -120.284 315.107 -120.203 314.836 -120.042  c
314.565 -119.881 314.430 -119.633 314.430 -119.300  c
314.430 -119.050 314.526 -118.854 314.719 -118.714  c
314.912 -118.573 315.300 -118.440 315.883 -118.315  c
316.243 -118.222 l
317.013 -118.065 317.560 -117.836 317.883 -117.534  c
318.206 -117.232 318.368 -116.815 318.368 -116.284  c
318.368 -115.670 318.125 -115.185 317.641 -114.831  c
317.157 -114.477 316.493 -114.300 315.649 -114.300  c
315.295 -114.300 314.927 -114.334 314.547 -114.401  c
314.167 -114.469 313.769 -114.571 313.352 -114.706  c
313.352 -115.831 l
313.748 -115.623 314.138 -115.466 314.524 -115.362  c
314.909 -115.258 315.295 -115.206 315.680 -115.206  c
316.180 -115.206 316.568 -115.292 316.844 -115.464  c
317.120 -115.636 317.258 -115.883 317.258 -116.206  c
317.258 -116.498 317.159 -116.722 316.961 -116.878  c
316.763 -117.034 316.331 -117.185 315.664 -117.331  c
315.289 -117.409 l
314.623 -117.555 314.141 -117.774 313.844 -118.065  c
313.547 -118.357 313.399 -118.753 313.399 -119.253  c
313.399 -119.878 313.618 -120.357 314.055 -120.690  c
314.493 -121.024 315.112 -121.190 315.914 -121.190  c
316.310 -121.190 316.685 -121.162 317.039 -121.104  c
317.394 -121.047 317.717 -120.961 318.008 -120.847  c
h
325.698 -118.019 m
325.698 -117.503 l
320.729 -117.503 l
320.781 -116.753 321.008 -116.185 321.409 -115.800  c
321.810 -115.414 322.364 -115.222 323.073 -115.222  c
323.489 -115.222 323.893 -115.271 324.284 -115.370  c
324.674 -115.469 325.062 -115.623 325.448 -115.831  c
325.448 -114.800 l
325.052 -114.644 324.651 -114.521 324.245 -114.433  c
323.838 -114.344 323.427 -114.300 323.010 -114.300  c
321.968 -114.300 321.140 -114.604 320.526 -115.214  c
319.911 -115.823 319.604 -116.649 319.604 -117.690  c
319.604 -118.763 319.896 -119.615 320.479 -120.245  c
321.062 -120.875 321.843 -121.190 322.823 -121.190  c
323.708 -121.190 324.409 -120.907 324.924 -120.339  c
325.440 -119.771 325.698 -118.998 325.698 -118.019  c
h
324.620 -118.347 m
324.609 -118.930 324.442 -119.399 324.120 -119.753  c
323.797 -120.107 323.370 -120.284 322.838 -120.284  c
322.234 -120.284 321.752 -120.112 321.393 -119.769  c
321.034 -119.425 320.828 -118.946 320.776 -118.331  c
324.620 -118.347 l
h
331.268 -120.034 m
331.143 -120.097 331.010 -120.146 330.870 -120.183  c
330.729 -120.219 330.570 -120.237 330.393 -120.237  c
329.789 -120.237 329.323 -120.039 328.995 -119.644  c
328.666 -119.248 328.502 -118.675 328.502 -117.925  c
328.502 -114.472 l
327.424 -114.472 l
327.424 -121.034 l
328.502 -121.034 l
328.502 -120.019 l
328.731 -120.414 329.028 -120.709 329.393 -120.901  c
329.758 -121.094 330.200 -121.190 330.721 -121.190  c
330.794 -121.190 330.875 -121.185 330.963 -121.175  c
331.052 -121.164 331.148 -121.149 331.252 -121.128  c
331.268 -120.034 l
h
331.623 -121.034 m
332.764 -121.034 l
334.811 -115.534 l
336.873 -121.034 l
338.014 -121.034 l
335.545 -114.472 l
334.077 -114.472 l
331.623 -121.034 l
h
339.491 -121.034 m
340.569 -121.034 l
340.569 -114.472 l
339.491 -114.472 l
339.491 -121.034 l
h
339.491 -123.597 m
340.569 -123.597 l
340.569 -122.222 l
339.491 -122.222 l
339.491 -123.597 l
h
347.153 -120.034 m
347.153 -123.597 l
348.231 -123.597 l
348.231 -114.472 l
347.153 -114.472 l
347.153 -115.456 l
346.924 -115.071 346.637 -114.782 346.293 -114.589  c
345.950 -114.396 345.533 -114.300 345.043 -114.300  c
344.252 -114.300 343.606 -114.618 343.106 -115.253  c
342.606 -115.888 342.356 -116.722 342.356 -117.753  c
342.356 -118.784 342.606 -119.615 343.106 -120.245  c
343.606 -120.875 344.252 -121.190 345.043 -121.190  c
345.533 -121.190 345.950 -121.097 346.293 -120.909  c
346.637 -120.722 346.924 -120.430 347.153 -120.034  c
h
343.481 -117.753 m
343.481 -116.961 343.642 -116.339 343.965 -115.886  c
344.288 -115.433 344.736 -115.206 345.309 -115.206  c
345.882 -115.206 346.332 -115.433 346.661 -115.886  c
346.989 -116.339 347.153 -116.961 347.153 -117.753  c
347.153 -118.545 346.989 -119.164 346.661 -119.612  c
346.332 -120.060 345.882 -120.284 345.309 -120.284  c
344.736 -120.284 344.288 -120.060 343.965 -119.612  c
343.642 -119.164 343.481 -118.545 343.481 -117.753  c
h
352.989 -120.284 m
352.416 -120.284 351.960 -120.058 351.621 -119.604  c
351.283 -119.151 351.114 -118.534 351.114 -117.753  c
351.114 -116.961 351.280 -116.341 351.614 -115.894  c
351.947 -115.446 352.405 -115.222 352.989 -115.222  c
353.562 -115.222 354.017 -115.448 354.356 -115.901  c
354.694 -116.354 354.864 -116.972 354.864 -117.753  c
354.864 -118.524 354.694 -119.138 354.356 -119.597  c
354.017 -120.055 353.562 -120.284 352.989 -120.284  c
h
352.989 -121.190 m
353.926 -121.190 354.663 -120.886 355.200 -120.276  c
355.736 -119.667 356.004 -118.826 356.004 -117.753  c
356.004 -116.680 355.736 -115.836 355.200 -115.222  c
354.663 -114.607 353.926 -114.300 352.989 -114.300  c
352.051 -114.300 351.314 -114.607 350.778 -115.222  c
350.241 -115.836 349.973 -116.680 349.973 -117.753  c
349.973 -118.826 350.241 -119.667 350.778 -120.276  c
351.314 -120.886 352.051 -121.190 352.989 -121.190  c
h
361.596 -120.034 m
361.471 -120.097 361.338 -120.146 361.198 -120.183  c
361.057 -120.219 360.898 -120.237 360.721 -120.237  c
360.117 -120.237 359.651 -120.039 359.323 -119.644  c
358.995 -119.248 358.830 -118.675 358.830 -117.925  c
358.830 -114.472 l
357.752 -114.472 l
357.752 -121.034 l
358.830 -121.034 l
358.830 -120.019 l
359.060 -120.414 359.356 -120.709 359.721 -120.901  c
360.086 -121.094 360.528 -121.190 361.049 -121.190  c
361.122 -121.190 361.203 -121.185 361.291 -121.175  c
361.380 -121.164 361.476 -121.149 361.580 -121.128  c
361.596 -120.034 l
h
f
2 J
10.0000 M
1.00000 .800000 0.00000 RG
0 J
1.45000 M
0.00000 0.00000 0.00000 RG
newpath
284.550 -147.172 m
284.550 -37.7948 l
284.550 -35.5857 286.340 -33.7948 288.550 -33.7948  c
385.738 -33.7948 l
387.947 -33.7948 389.738 -35.5857 389.738 -37.7948  c
389.738 -147.172 l
389.738 -149.382 387.947 -151.172 385.738 -151.172  c
288.550 -151.172 l
286.340 -151.172 284.550 -149.382 284.550 -147.172  c
h
S
2 J
10.0000 M
1.00000 .800000 0.00000 RG
newpath
59.1649 -115.126 m
59.1649 -38.4135 l
59.1649 -36.2044 60.9558 -34.4135 63.1649 -34.4135  c
139.797 -34.4135 l
142.006 -34.4135 143.797 -36.2044 143.797 -38.4135  c
143.797 -115.126 l
143.797 -117.335 142.006 -119.126 139.797 -119.126  c
63.1649 -119.126 l
60.9558 -119.126 59.1649 -117.335 59.1649 -115.126  c
h
f
0.00000 0.00000 0.00000 RG
0 J
1.45000 M
newpath
74.9282 -105.872 m
73.3188 -101.528 l
76.5376 -101.528 l
74.9282 -105.872 l
h
74.2563 -107.044 m
75.6001 -107.044 l
78.9282 -98.2940 l
77.6938 -98.2940 l
76.8970 -100.544 l
72.9595 -100.544 l
72.1626 -98.2940 l
70.9126 -98.2940 l
74.2563 -107.044 l
h
81.1997 -99.2784 m
81.1997 -95.7940 l
80.1216 -95.7940 l
80.1216 -104.857 l
81.1997 -104.857 l
81.1997 -103.857 l
81.4289 -104.252 81.7153 -104.544 82.0591 -104.732  c
82.4028 -104.919 82.8143 -105.013 83.2934 -105.013  c
84.0955 -105.013 84.7466 -104.698 85.2466 -104.067  c
85.7466 -103.437 85.9966 -102.607 85.9966 -101.575  c
85.9966 -100.544 85.7466 -99.7107 85.2466 -99.0753  c
84.7466 -98.4399 84.0955 -98.1222 83.2934 -98.1222  c
82.8143 -98.1222 82.4028 -98.2185 82.0591 -98.4112  c
81.7153 -98.6039 81.4289 -98.8930 81.1997 -99.2784  c
h
84.8716 -101.575 m
84.8716 -102.367 84.7075 -102.987 84.3794 -103.435  c
84.0513 -103.883 83.6059 -104.107 83.0434 -104.107  c
82.4705 -104.107 82.0200 -103.883 81.6919 -103.435  c
81.3638 -102.987 81.1997 -102.367 81.1997 -101.575  c
81.1997 -100.784 81.3638 -100.161 81.6919 -99.7081  c
82.0200 -99.2550 82.4705 -99.0284 83.0434 -99.0284  c
83.6059 -99.0284 84.0513 -99.2550 84.3794 -99.7081  c
84.7075 -100.161 84.8716 -100.784 84.8716 -101.575  c
h
87.7700 -107.419 m
88.8481 -107.419 l
88.8481 -98.2940 l
87.7700 -98.2940 l
87.7700 -107.419 l
h
91.1040 -104.857 m
92.1821 -104.857 l
92.1821 -98.2940 l
91.1040 -98.2940 l
91.1040 -104.857 l
h
91.1040 -107.419 m
92.1821 -107.419 l
92.1821 -106.044 l
91.1040 -106.044 l
91.1040 -107.419 l
h
99.1724 -104.607 m
99.1724 -103.591 l
98.8599 -103.768 98.5526 -103.898 98.2505 -103.982  c
97.9484 -104.065 97.6411 -104.107 97.3286 -104.107  c
96.6203 -104.107 96.0734 -103.885 95.6880 -103.442  c
95.3026 -103.000 95.1099 -102.377 95.1099 -101.575  c
95.1099 -100.773 95.3026 -100.151 95.6880 -99.7081  c
96.0734 -99.2654 96.6203 -99.0440 97.3286 -99.0440  c
97.6411 -99.0440 97.9484 -99.0857 98.2505 -99.1690  c
98.5526 -99.2524 98.8599 -99.3774 99.1724 -99.5440  c
99.1724 -98.5440 l
98.8703 -98.4086 98.5578 -98.3045 98.2349 -98.2315  c
97.9119 -98.1586 97.5682 -98.1222 97.2036 -98.1222  c
96.2140 -98.1222 95.4276 -98.4321 94.8442 -99.0519  c
94.2609 -99.6716 93.9692 -100.513 93.9692 -101.575  c
93.9692 -102.638 94.2635 -103.476 94.8520 -104.091  c
95.4406 -104.706 96.2505 -105.013 97.2817 -105.013  c
97.6046 -105.013 97.9250 -104.979 98.2427 -104.911  c
98.5604 -104.844 98.8703 -104.742 99.1724 -104.607  c
h
104.020 -101.591 m
103.155 -101.591 102.554 -101.492 102.215 -101.294  c
101.877 -101.096 101.708 -100.758 101.708 -100.278  c
101.708 -99.8930 101.835 -99.5883 102.090 -99.3644  c
102.346 -99.1404 102.687 -99.0284 103.114 -99.0284  c
103.718 -99.0284 104.200 -99.2394 104.559 -99.6612  c
104.918 -100.083 105.098 -100.648 105.098 -101.357  c
105.098 -101.591 l
104.020 -101.591 l
h
106.176 -102.044 m
106.176 -98.2940 l
105.098 -98.2940 l
105.098 -99.2940 l
104.848 -98.8982 104.541 -98.6039 104.176 -98.4112  c
103.812 -98.2185 103.364 -98.1222 102.833 -98.1222  c
102.155 -98.1222 101.619 -98.3123 101.223 -98.6925  c
100.827 -99.0727 100.629 -99.5753 100.629 -100.200  c
100.629 -100.940 100.877 -101.497 101.372 -101.872  c
101.866 -102.247 102.603 -102.435 103.583 -102.435  c
105.098 -102.435 l
105.098 -102.544 l
105.098 -103.044 104.934 -103.429 104.606 -103.700  c
104.278 -103.971 103.822 -104.107 103.239 -104.107  c
102.864 -104.107 102.497 -104.060 102.137 -103.966  c
101.778 -103.872 101.437 -103.737 101.114 -103.560  c
101.114 -104.560 l
101.510 -104.716 101.892 -104.831 102.262 -104.903  c
102.632 -104.976 102.994 -105.013 103.348 -105.013  c
104.296 -105.013 105.004 -104.768 105.473 -104.278  c
105.942 -103.789 106.176 -103.044 106.176 -102.044  c
h
113.124 -104.607 m
113.124 -103.591 l
112.811 -103.768 112.504 -103.898 112.202 -103.982  c
111.900 -104.065 111.592 -104.107 111.280 -104.107  c
110.571 -104.107 110.025 -103.885 109.639 -103.442  c
109.254 -103.000 109.061 -102.377 109.061 -101.575  c
109.061 -100.773 109.254 -100.151 109.639 -99.7081  c
110.025 -99.2654 110.571 -99.0440 111.280 -99.0440  c
111.592 -99.0440 111.900 -99.0857 112.202 -99.1690  c
112.504 -99.2524 112.811 -99.3774 113.124 -99.5440  c
113.124 -98.5440 l
112.821 -98.4086 112.509 -98.3045 112.186 -98.2315  c
111.863 -98.1586 111.519 -98.1222 111.155 -98.1222  c
110.165 -98.1222 109.379 -98.4321 108.795 -99.0519  c
108.212 -99.6716 107.920 -100.513 107.920 -101.575  c
107.920 -102.638 108.215 -103.476 108.803 -104.091  c
109.392 -104.706 110.202 -105.013 111.233 -105.013  c
111.556 -105.013 111.876 -104.979 112.194 -104.911  c
112.512 -104.844 112.821 -104.742 113.124 -104.607  c
h
114.987 -104.857 m
116.065 -104.857 l
116.065 -98.2940 l
114.987 -98.2940 l
114.987 -104.857 l
h
114.987 -107.419 m
116.065 -107.419 l
116.065 -106.044 l
114.987 -106.044 l
114.987 -107.419 l
h
120.868 -104.107 m
120.295 -104.107 119.839 -103.880 119.500 -103.427  c
119.162 -102.974 118.993 -102.357 118.993 -101.575  c
118.993 -100.784 119.159 -100.164 119.493 -99.7159  c
119.826 -99.2680 120.284 -99.0440 120.868 -99.0440  c
121.441 -99.0440 121.896 -99.2706 122.235 -99.7237  c
122.573 -100.177 122.743 -100.794 122.743 -101.575  c
122.743 -102.346 122.573 -102.961 122.235 -103.419  c
121.896 -103.877 121.441 -104.107 120.868 -104.107  c
h
120.868 -105.013 m
121.805 -105.013 122.542 -104.708 123.079 -104.099  c
123.615 -103.489 123.883 -102.648 123.883 -101.575  c
123.883 -100.502 123.615 -99.6586 123.079 -99.0440  c
122.542 -98.4295 121.805 -98.1222 120.868 -98.1222  c
119.930 -98.1222 119.193 -98.4295 118.657 -99.0440  c
118.120 -99.6586 117.852 -100.502 117.852 -101.575  c
117.852 -102.648 118.120 -103.489 118.657 -104.099  c
119.193 -104.708 119.930 -105.013 120.868 -105.013  c
h
122.008 -107.888 m
123.180 -107.888 l
121.274 -105.685 l
120.368 -105.685 l
122.008 -107.888 l
h
131.131 -102.263 m
131.131 -98.2940 l
130.053 -98.2940 l
130.053 -102.216 l
130.053 -102.841 129.931 -103.307 129.686 -103.614  c
129.441 -103.922 129.079 -104.075 128.600 -104.075  c
128.017 -104.075 127.556 -103.890 127.217 -103.521  c
126.879 -103.151 126.709 -102.643 126.709 -101.997  c
126.709 -98.2940 l
125.631 -98.2940 l
125.631 -104.857 l
126.709 -104.857 l
126.709 -103.841 l
126.970 -104.237 127.275 -104.531 127.624 -104.724  c
127.972 -104.916 128.376 -105.013 128.834 -105.013  c
129.584 -105.013 130.155 -104.781 130.545 -104.317  c
130.936 -103.854 131.131 -103.169 131.131 -102.263  c
h
f
newpath
87.1694 -90.6378 m
87.1694 -89.6222 l
86.8569 -89.7993 86.5496 -89.9295 86.2476 -90.0128  c
85.9455 -90.0961 85.6382 -90.1378 85.3257 -90.1378  c
84.6173 -90.1378 84.0705 -89.9164 83.6851 -89.4737  c
83.2996 -89.0310 83.1069 -88.4086 83.1069 -87.6065  c
83.1069 -86.8045 83.2996 -86.1821 83.6851 -85.7394  c
84.0705 -85.2966 84.6173 -85.0753 85.3257 -85.0753  c
85.6382 -85.0753 85.9455 -85.1170 86.2476 -85.2003  c
86.5496 -85.2836 86.8569 -85.4086 87.1694 -85.5753  c
87.1694 -84.5753 l
86.8673 -84.4399 86.5548 -84.3357 86.2319 -84.2628  c
85.9090 -84.1899 85.5653 -84.1534 85.2007 -84.1534  c
84.2111 -84.1534 83.4246 -84.4633 82.8413 -85.0831  c
82.2580 -85.7029 81.9663 -86.5440 81.9663 -87.6065  c
81.9663 -88.6690 82.2606 -89.5076 82.8491 -90.1222  c
83.4377 -90.7368 84.2476 -91.0440 85.2788 -91.0440  c
85.6017 -91.0440 85.9220 -91.0102 86.2397 -90.9425  c
86.5574 -90.8748 86.8673 -90.7732 87.1694 -90.6378  c
h
89.0327 -93.4503 m
90.1108 -93.4503 l
90.1108 -84.3253 l
89.0327 -84.3253 l
89.0327 -93.4503 l
h
92.3667 -90.8878 m
93.4448 -90.8878 l
93.4448 -84.3253 l
92.3667 -84.3253 l
92.3667 -90.8878 l
h
92.3667 -93.4503 m
93.4448 -93.4503 l
93.4448 -92.0753 l
92.3667 -92.0753 l
92.3667 -93.4503 l
h
101.326 -87.8722 m
101.326 -87.3565 l
96.3569 -87.3565 l
96.4090 -86.6065 96.6356 -86.0388 97.0366 -85.6534  c
97.4377 -85.2680 97.9923 -85.0753 98.7007 -85.0753  c
99.1173 -85.0753 99.5210 -85.1248 99.9116 -85.2237  c
100.302 -85.3227 100.690 -85.4763 101.076 -85.6847  c
101.076 -84.6534 l
100.680 -84.4972 100.279 -84.3748 99.8726 -84.2862  c
99.4663 -84.1977 99.0548 -84.1534 98.6382 -84.1534  c
97.5965 -84.1534 96.7684 -84.4581 96.1538 -85.0675  c
95.5392 -85.6769 95.2319 -86.5024 95.2319 -87.5440  c
95.2319 -88.6170 95.5236 -89.4685 96.1069 -90.0987  c
96.6903 -90.7289 97.4715 -91.0440 98.4507 -91.0440  c
99.3361 -91.0440 100.037 -90.7602 100.552 -90.1925  c
101.068 -89.6248 101.326 -88.8513 101.326 -87.8722  c
h
100.248 -88.2003 m
100.237 -88.7836 100.070 -89.2524 99.7476 -89.6065  c
99.4246 -89.9607 98.9976 -90.1378 98.4663 -90.1378  c
97.8621 -90.1378 97.3804 -89.9659 97.0210 -89.6222  c
96.6616 -89.2784 96.4559 -88.7993 96.4038 -88.1847  c
100.248 -88.2003 l
h
108.552 -88.2940 m
108.552 -84.3253 l
107.474 -84.3253 l
107.474 -88.2472 l
107.474 -88.8722 107.352 -89.3383 107.107 -89.6456  c
106.862 -89.9529 106.500 -90.1065 106.021 -90.1065  c
105.438 -90.1065 104.977 -89.9216 104.638 -89.5519  c
104.300 -89.1821 104.130 -88.6743 104.130 -88.0284  c
104.130 -84.3253 l
103.052 -84.3253 l
103.052 -90.8878 l
104.130 -90.8878 l
104.130 -89.8722 l
104.391 -90.2680 104.695 -90.5623 105.044 -90.7550  c
105.393 -90.9477 105.797 -91.0440 106.255 -91.0440  c
107.005 -91.0440 107.576 -90.8123 107.966 -90.3487  c
108.357 -89.8852 108.552 -89.2003 108.552 -88.2940  c
h
111.767 -92.7472 m
111.767 -90.8878 l
113.986 -90.8878 l
113.986 -90.0440 l
111.767 -90.0440 l
111.767 -86.4815 l
111.767 -85.9503 111.840 -85.6091 111.986 -85.4581  c
112.132 -85.3071 112.429 -85.2315 112.876 -85.2315  c
113.986 -85.2315 l
113.986 -84.3253 l
112.876 -84.3253 l
112.043 -84.3253 111.468 -84.4815 111.150 -84.7940  c
110.832 -85.1065 110.673 -85.6690 110.673 -86.4815  c
110.673 -90.0440 l
109.892 -90.0440 l
109.892 -90.8878 l
110.673 -90.8878 l
110.673 -92.7472 l
111.767 -92.7472 l
h
121.019 -87.8722 m
121.019 -87.3565 l
116.050 -87.3565 l
116.102 -86.6065 116.329 -86.0388 116.730 -85.6534  c
117.131 -85.2680 117.686 -85.0753 118.394 -85.0753  c
118.811 -85.0753 119.214 -85.1248 119.605 -85.2237  c
119.996 -85.3227 120.384 -85.4763 120.769 -85.6847  c
120.769 -84.6534 l
120.373 -84.4972 119.972 -84.3748 119.566 -84.2862  c
119.160 -84.1977 118.748 -84.1534 118.332 -84.1534  c
117.290 -84.1534 116.462 -84.4581 115.847 -85.0675  c
115.233 -85.6769 114.925 -86.5024 114.925 -87.5440  c
114.925 -88.6170 115.217 -89.4685 115.800 -90.0987  c
116.384 -90.7289 117.165 -91.0440 118.144 -91.0440  c
119.029 -91.0440 119.730 -90.7602 120.246 -90.1925  c
120.761 -89.6248 121.019 -88.8513 121.019 -87.8722  c
h
119.941 -88.2003 m
119.930 -88.7836 119.764 -89.2524 119.441 -89.6065  c
119.118 -89.9607 118.691 -90.1378 118.160 -90.1378  c
117.555 -90.1378 117.074 -89.9659 116.714 -89.6222  c
116.355 -89.2784 116.149 -88.7993 116.097 -88.1847  c
119.941 -88.2003 l
h
f
2 J
10.0000 M
1.00000 .800000 0.00000 RG
0 J
1.45000 M
0.00000 0.00000 0.00000 RG
newpath
59.1649 -115.126 m
59.1649 -38.4135 l
59.1649 -36.2044 60.9558 -34.4135 63.1649 -34.4135  c
139.797 -34.4135 l
142.006 -34.4135 143.797 -36.2044 143.797 -38.4135  c
143.797 -115.126 l
143.797 -117.335 142.006 -119.126 139.797 -119.126  c
63.1649 -119.126 l
60.9558 -119.126 59.1649 -117.335 59.1649 -115.126  c
h
S
2 J
10.0000 M
q
<< /PatternType 2
   /Shading
   << /ShadingType 2
      /ColorSpace /DeviceRGB
      /Coords [264.7677001953125 -106.17239379882812 344.7677001953125 -77.28729248046875]
      /Function
      << /FunctionType 2
         /Domain [0 1]
         /Range [0 1 0 1 0 1]
         /C0 [0.9098039 0.93333334 0.96862745]
         /C1 [0.7176471 0.7882353 0.8901961]
         /N 1
      >>
      /Extend [true true]
   >>
>>
matrix makepattern setpattern
newpath
264.768 -106.172 m
344.768 -106.172 l
344.768 -77.2873 l
264.768 -77.2873 l
264.768 -106.172 l
h
f
0 J
1.45000 M
0.00000 0.00000 0.00000 RG
newpath
264.768 -106.172 m
344.768 -106.172 l
344.768 -77.2873 l
264.768 -77.2873 l
264.768 -106.172 l
h
S
newpath
274.768 -106.172 m
274.768 -77.2873 l
334.768 -106.172 m
334.768 -77.2873 l
274.768 -106.172 m
h
S
2 J
10.0000 M
0 J
1.45000 M
newpath
286.942 -93.9505 m
286.942 -92.9193 l
286.639 -93.0755 286.324 -93.1927 285.996 -93.2709  c
285.668 -93.3490 285.327 -93.3880 284.973 -93.3880  c
284.442 -93.3880 284.040 -93.3073 283.770 -93.1459  c
283.499 -92.9844 283.363 -92.7370 283.363 -92.4037  c
283.363 -92.1537 283.460 -91.9584 283.652 -91.8177  c
283.845 -91.6771 284.233 -91.5443 284.817 -91.4193  c
285.176 -91.3255 l
285.947 -91.1693 286.494 -90.9401 286.817 -90.6380  c
287.139 -90.3360 287.301 -89.9193 287.301 -89.3880  c
287.301 -88.7735 287.059 -88.2891 286.574 -87.9349  c
286.090 -87.5808 285.426 -87.4037 284.582 -87.4037  c
284.228 -87.4037 283.861 -87.4375 283.481 -87.5052  c
283.100 -87.5729 282.702 -87.6745 282.285 -87.8099  c
282.285 -88.9349 l
282.681 -88.7266 283.072 -88.5703 283.457 -88.4662  c
283.843 -88.3620 284.228 -88.3099 284.613 -88.3099  c
285.113 -88.3099 285.501 -88.3959 285.777 -88.5677  c
286.054 -88.7396 286.192 -88.9870 286.192 -89.3099  c
286.192 -89.6016 286.093 -89.8255 285.895 -89.9818  c
285.697 -90.1380 285.264 -90.2891 284.598 -90.4349  c
284.223 -90.5130 l
283.556 -90.6589 283.074 -90.8776 282.777 -91.1693  c
282.481 -91.4610 282.332 -91.8568 282.332 -92.3568  c
282.332 -92.9818 282.551 -93.4610 282.988 -93.7943  c
283.426 -94.1276 284.046 -94.2943 284.848 -94.2943  c
285.244 -94.2943 285.619 -94.2657 285.973 -94.2084  c
286.327 -94.1511 286.650 -94.0651 286.942 -93.9505  c
h
294.631 -91.1224 m
294.631 -90.6068 l
289.662 -90.6068 l
289.714 -89.8568 289.941 -89.2891 290.342 -88.9037  c
290.743 -88.5183 291.298 -88.3255 292.006 -88.3255  c
292.423 -88.3255 292.826 -88.3750 293.217 -88.4740  c
293.608 -88.5729 293.996 -88.7266 294.381 -88.9349  c
294.381 -87.9037 l
293.985 -87.7474 293.584 -87.6250 293.178 -87.5365  c
292.772 -87.4479 292.360 -87.4037 291.943 -87.4037  c
290.902 -87.4037 290.074 -87.7084 289.459 -88.3177  c
288.845 -88.9271 288.537 -89.7526 288.537 -90.7943  c
288.537 -91.8672 288.829 -92.7188 289.412 -93.3490  c
289.996 -93.9792 290.777 -94.2943 291.756 -94.2943  c
292.641 -94.2943 293.342 -94.0104 293.858 -93.4427  c
294.373 -92.8750 294.631 -92.1016 294.631 -91.1224  c
h
293.553 -91.4505 m
293.542 -92.0339 293.376 -92.5026 293.053 -92.8568  c
292.730 -93.2110 292.303 -93.3880 291.772 -93.3880  c
291.167 -93.3880 290.686 -93.2162 290.326 -92.8724  c
289.967 -92.5287 289.761 -92.0495 289.709 -91.4349  c
293.553 -91.4505 l
h
300.201 -93.1380 m
300.076 -93.2005 299.943 -93.2500 299.803 -93.2865  c
299.662 -93.3229 299.503 -93.3412 299.326 -93.3412  c
298.722 -93.3412 298.256 -93.1433 297.928 -92.7474  c
297.600 -92.3516 297.436 -91.7787 297.436 -91.0287  c
297.436 -87.5755 l
296.358 -87.5755 l
296.358 -94.1380 l
297.436 -94.1380 l
297.436 -93.1224 l
297.665 -93.5183 297.962 -93.8125 298.326 -94.0052  c
298.691 -94.1979 299.134 -94.2943 299.654 -94.2943  c
299.727 -94.2943 299.808 -94.2891 299.897 -94.2787  c
299.985 -94.2683 300.082 -94.2526 300.186 -94.2318  c
300.201 -93.1380 l
h
300.557 -94.1380 m
301.697 -94.1380 l
303.744 -88.6380 l
305.807 -94.1380 l
306.947 -94.1380 l
304.479 -87.5755 l
303.010 -87.5755 l
300.557 -94.1380 l
h
308.424 -94.1380 m
309.502 -94.1380 l
309.502 -87.5755 l
308.424 -87.5755 l
308.424 -94.1380 l
h
308.424 -96.7005 m
309.502 -96.7005 l
309.502 -95.3255 l
308.424 -95.3255 l
308.424 -96.7005 l
h
316.492 -93.8880 m
316.492 -92.8724 l
316.180 -93.0495 315.873 -93.1797 315.570 -93.2630  c
315.268 -93.3464 314.961 -93.3880 314.649 -93.3880  c
313.940 -93.3880 313.393 -93.1667 313.008 -92.7240  c
312.623 -92.2813 312.430 -91.6589 312.430 -90.8568  c
312.430 -90.0547 312.623 -89.4323 313.008 -88.9896  c
313.393 -88.5469 313.940 -88.3255 314.649 -88.3255  c
314.961 -88.3255 315.268 -88.3672 315.570 -88.4505  c
315.873 -88.5339 316.180 -88.6589 316.492 -88.8255  c
316.492 -87.8255 l
316.190 -87.6901 315.878 -87.5860 315.555 -87.5130  c
315.232 -87.4401 314.888 -87.4037 314.524 -87.4037  c
313.534 -87.4037 312.748 -87.7136 312.164 -88.3334  c
311.581 -88.9532 311.289 -89.7943 311.289 -90.8568  c
311.289 -91.9193 311.583 -92.7578 312.172 -93.3724  c
312.761 -93.9870 313.570 -94.2943 314.602 -94.2943  c
314.925 -94.2943 315.245 -94.2604 315.563 -94.1927  c
315.880 -94.1250 316.190 -94.0235 316.492 -93.8880  c
h
318.356 -94.1380 m
319.434 -94.1380 l
319.434 -87.5755 l
318.356 -87.5755 l
318.356 -94.1380 l
h
318.356 -96.7005 m
319.434 -96.7005 l
319.434 -95.3255 l
318.356 -95.3255 l
318.356 -96.7005 l
h
324.236 -93.3880 m
323.664 -93.3880 323.208 -93.1615 322.869 -92.7084  c
322.531 -92.2552 322.361 -91.6380 322.361 -90.8568  c
322.361 -90.0651 322.528 -89.4453 322.861 -88.9974  c
323.195 -88.5495 323.653 -88.3255 324.236 -88.3255  c
324.809 -88.3255 325.265 -88.5521 325.604 -89.0052  c
325.942 -89.4584 326.111 -90.0755 326.111 -90.8568  c
326.111 -91.6276 325.942 -92.2422 325.604 -92.7005  c
325.265 -93.1589 324.809 -93.3880 324.236 -93.3880  c
h
324.236 -94.2943 m
325.174 -94.2943 325.911 -93.9896 326.447 -93.3802  c
326.984 -92.7709 327.252 -91.9297 327.252 -90.8568  c
327.252 -89.7839 326.984 -88.9401 326.447 -88.3255  c
325.911 -87.7110 325.174 -87.4037 324.236 -87.4037  c
323.299 -87.4037 322.562 -87.7110 322.026 -88.3255  c
321.489 -88.9401 321.221 -89.7839 321.221 -90.8568  c
321.221 -91.9297 321.489 -92.7709 322.026 -93.3802  c
322.562 -93.9896 323.299 -94.2943 324.236 -94.2943  c
h
f
2 J
10.0000 M
Q
q
<< /PatternType 2
   /Shading
   << /ShadingType 2
      /ColorSpace /DeviceRGB
      /Coords [264.77777099609375 -75.25296020507812 344.77777099609375 -46.36786651611328]
      /Function
      << /FunctionType 2
         /Domain [0 1]
         /Range [0 1 0 1 0 1]
         /C0 [0.9098039 0.93333334 0.96862745]
         /C1 [0.7176471 0.7882353 0.8901961]
         /N 1
      >>
      /Extend [true true]
   >>
>>
matrix makepattern setpattern
newpath
264.778 -75.2530 m
344.778 -75.2530 l
344.778 -46.3679 l
264.778 -46.3679 l
264.778 -75.2530 l
h
f
0 J
1.45000 M
0.00000 0.00000 0.00000 RG
newpath
264.778 -75.2530 m
344.778 -75.2530 l
344.778 -46.3679 l
264.778 -46.3679 l
264.778 -75.2530 l
h
S
newpath
274.778 -75.2530 m
274.778 -46.3679 l
334.778 -75.2530 m
334.778 -46.3679 l
274.778 -75.2530 m
h
S
2 J
10.0000 M
0 J
1.45000 M
newpath
286.952 -63.0311 m
286.952 -61.9999 l
286.650 -62.1561 286.334 -62.2733 286.006 -62.3514  c
285.678 -62.4296 285.337 -62.4686 284.983 -62.4686  c
284.452 -62.4686 284.051 -62.3879 283.780 -62.2264  c
283.509 -62.0650 283.373 -61.8176 283.373 -61.4842  c
283.373 -61.2342 283.470 -61.0389 283.663 -60.8983  c
283.855 -60.7577 284.243 -60.6249 284.827 -60.4999  c
285.186 -60.4061 l
285.957 -60.2499 286.504 -60.0207 286.827 -59.7186  c
287.150 -59.4165 287.311 -58.9999 287.311 -58.4686  c
287.311 -57.8540 287.069 -57.3697 286.584 -57.0155  c
286.100 -56.6613 285.436 -56.4842 284.592 -56.4842  c
284.238 -56.4842 283.871 -56.5181 283.491 -56.5858  c
283.110 -56.6535 282.712 -56.7551 282.295 -56.8905  c
282.295 -58.0155 l
282.691 -57.8072 283.082 -57.6509 283.467 -57.5467  c
283.853 -57.4426 284.238 -57.3905 284.623 -57.3905  c
285.123 -57.3905 285.511 -57.4764 285.788 -57.6483  c
286.064 -57.8202 286.202 -58.0676 286.202 -58.3905  c
286.202 -58.6822 286.103 -58.9061 285.905 -59.0624  c
285.707 -59.2186 285.275 -59.3697 284.608 -59.5155  c
284.233 -59.5936 l
283.566 -59.7394 283.084 -59.9582 282.788 -60.2499  c
282.491 -60.5415 282.342 -60.9374 282.342 -61.4374  c
282.342 -62.0624 282.561 -62.5415 282.998 -62.8749  c
283.436 -63.2082 284.056 -63.3749 284.858 -63.3749  c
285.254 -63.3749 285.629 -63.3462 285.983 -63.2889  c
286.337 -63.2316 286.660 -63.1457 286.952 -63.0311  c
h
294.641 -60.2030 m
294.641 -59.6874 l
289.672 -59.6874 l
289.724 -58.9374 289.951 -58.3697 290.352 -57.9842  c
290.753 -57.5988 291.308 -57.4061 292.016 -57.4061  c
292.433 -57.4061 292.836 -57.4556 293.227 -57.5546  c
293.618 -57.6535 294.006 -57.8072 294.391 -58.0155  c
294.391 -56.9842 l
293.995 -56.8280 293.594 -56.7056 293.188 -56.6171  c
292.782 -56.5285 292.370 -56.4842 291.954 -56.4842  c
290.912 -56.4842 290.084 -56.7889 289.469 -57.3983  c
288.855 -58.0077 288.547 -58.8332 288.547 -59.8749  c
288.547 -60.9478 288.839 -61.7993 289.422 -62.4296  c
290.006 -63.0598 290.787 -63.3749 291.766 -63.3749  c
292.651 -63.3749 293.352 -63.0910 293.868 -62.5233  c
294.383 -61.9556 294.641 -61.1822 294.641 -60.2030  c
h
293.563 -60.5311 m
293.553 -61.1144 293.386 -61.5832 293.063 -61.9374  c
292.740 -62.2915 292.313 -62.4686 291.782 -62.4686  c
291.178 -62.4686 290.696 -62.2967 290.336 -61.9530  c
289.977 -61.6092 289.771 -61.1301 289.719 -60.5155  c
293.563 -60.5311 l
h
300.211 -62.2186 m
300.086 -62.2811 299.954 -62.3306 299.813 -62.3671  c
299.672 -62.4035 299.513 -62.4217 299.336 -62.4217  c
298.732 -62.4217 298.266 -62.2238 297.938 -61.8280  c
297.610 -61.4322 297.446 -60.8592 297.446 -60.1092  c
297.446 -56.6561 l
296.368 -56.6561 l
296.368 -63.2186 l
297.446 -63.2186 l
297.446 -62.2030 l
297.675 -62.5988 297.972 -62.8931 298.336 -63.0858  c
298.701 -63.2785 299.144 -63.3749 299.664 -63.3749  c
299.737 -63.3749 299.818 -63.3697 299.907 -63.3592  c
299.995 -63.3488 300.092 -63.3332 300.196 -63.3124  c
300.211 -62.2186 l
h
300.567 -63.2186 m
301.707 -63.2186 l
303.754 -57.7186 l
305.817 -63.2186 l
306.957 -63.2186 l
304.489 -56.6561 l
303.020 -56.6561 l
300.567 -63.2186 l
h
308.434 -63.2186 m
309.512 -63.2186 l
309.512 -56.6561 l
308.434 -56.6561 l
308.434 -63.2186 l
h
308.434 -65.7811 m
309.512 -65.7811 l
309.512 -64.4061 l
308.434 -64.4061 l
308.434 -65.7811 l
h
316.502 -62.9686 m
316.502 -61.9530 l
316.190 -62.1301 315.883 -62.2603 315.581 -62.3436  c
315.278 -62.4269 314.971 -62.4686 314.659 -62.4686  c
313.950 -62.4686 313.403 -62.2473 313.018 -61.8046  c
312.633 -61.3618 312.440 -60.7394 312.440 -59.9374  c
312.440 -59.1353 312.633 -58.5129 313.018 -58.0702  c
313.403 -57.6275 313.950 -57.4061 314.659 -57.4061  c
314.971 -57.4061 315.278 -57.4478 315.581 -57.5311  c
315.883 -57.6144 316.190 -57.7394 316.502 -57.9061  c
316.502 -56.9061 l
316.200 -56.7707 315.888 -56.6665 315.565 -56.5936  c
315.242 -56.5207 314.898 -56.4842 314.534 -56.4842  c
313.544 -56.4842 312.758 -56.7941 312.174 -57.4139  c
311.591 -58.0337 311.299 -58.8749 311.299 -59.9374  c
311.299 -60.9999 311.594 -61.8384 312.182 -62.4530  c
312.771 -63.0676 313.581 -63.3749 314.612 -63.3749  c
314.935 -63.3749 315.255 -63.3410 315.573 -63.2733  c
315.890 -63.2056 316.200 -63.1040 316.502 -62.9686  c
h
318.366 -63.2186 m
319.444 -63.2186 l
319.444 -56.6561 l
318.366 -56.6561 l
318.366 -63.2186 l
h
318.366 -65.7811 m
319.444 -65.7811 l
319.444 -64.4061 l
318.366 -64.4061 l
318.366 -65.7811 l
h
324.247 -62.4686 m
323.674 -62.4686 323.218 -62.2421 322.879 -61.7889  c
322.541 -61.3358 322.372 -60.7186 322.372 -59.9374  c
322.372 -59.1457 322.538 -58.5259 322.872 -58.0780  c
323.205 -57.6301 323.663 -57.4061 324.247 -57.4061  c
324.819 -57.4061 325.275 -57.6327 325.614 -58.0858  c
325.952 -58.5389 326.122 -59.1561 326.122 -59.9374  c
326.122 -60.7082 325.952 -61.3228 325.614 -61.7811  c
325.275 -62.2394 324.819 -62.4686 324.247 -62.4686  c
h
324.247 -63.3749 m
325.184 -63.3749 325.921 -63.0702 326.457 -62.4608  c
326.994 -61.8514 327.262 -61.0103 327.262 -59.9374  c
327.262 -58.8644 326.994 -58.0207 326.457 -57.4061  c
325.921 -56.7915 325.184 -56.4842 324.247 -56.4842  c
323.309 -56.4842 322.572 -56.7915 322.036 -57.4061  c
321.499 -58.0207 321.231 -58.8644 321.231 -59.9374  c
321.231 -61.0103 321.499 -61.8514 322.036 -62.4608  c
322.572 -63.0702 323.309 -63.3749 324.247 -63.3749  c
h
f
2 J
10.0000 M
Q
q
<< /PatternType 2
   /Shading
   << /ShadingType 2
      /ColorSpace /DeviceRGB
      /Coords [145.52479553222656 -104.4980239868164 154.35679626464844 -76.06873321533203]
      /Function
      << /FunctionType 2
         /Domain [0 1]
         /Range [0 1 0 1 0 1]
         /C0 [0.9098039 0.93333334 0.96862745]
         /C1 [0.7176471 0.7882353 0.8901961]
         /N 1
      >>
      /Extend [true true]
   >>
>>
matrix makepattern setpattern
newpath
145.525 -104.498 m
154.357 -104.498 l
154.357 -76.0687 l
145.525 -76.0687 l
h
f
0 J
1.45000 M
0.00000 0.00000 0.00000 RG
newpath
145.525 -104.498 m
154.357 -104.498 l
154.357 -76.0687 l
145.525 -76.0687 l
h
S
2 J
10.0000 M
Q
q
<< /PatternType 2
   /Shading
   << /ShadingType 2
      /ColorSpace /DeviceRGB
      /Coords [145.58399963378906 -74.21464538574219 154.41600036621094 -45.78535461425781]
      /Function
      << /FunctionType 2
         /Domain [0 1]
         /Range [0 1 0 1 0 1]
         /C0 [0.9098039 0.93333334 0.96862745]
         /C1 [0.7176471 0.7882353 0.8901961]
         /N 1
      >>
      /Extend [true true]
   >>
>>
matrix makepattern setpattern
newpath
145.584 -74.2146 m
154.416 -74.2146 l
154.416 -45.7854 l
145.584 -45.7854 l
h
f
0 J
1.45000 M
0.00000 0.00000 0.00000 RG
newpath
145.584 -74.2146 m
154.416 -74.2146 l
154.416 -45.7854 l
145.584 -45.7854 l
h
S
2 J
10.0000 M
Q
q
<< /PatternType 2
   /Shading
   << /ShadingType 2
      /ColorSpace /DeviceRGB
      /Coords [165.16285705566406 -105.57063293457031 252.53565979003906 -48.03398895263672]
      /Function
      << /FunctionType 2
         /Domain [0 1]
         /Range [0 1 0 1 0 1]
         /C0 [0.9098039 0.93333334 0.96862745]
         /C1 [0.7176471 0.7882353 0.8901961]
         /N 1
      >>
      /Extend [true true]
   >>
>>
matrix makepattern setpattern
newpath
176.084 -75.0762 m
165.163 -91.1865 176.084 -105.571 193.996 -95.2140  c
193.996 -105.571 223.703 -105.571 223.703 -95.2140  c
241.614 -105.571 252.536 -91.1865 241.614 -78.5284  c
252.536 -62.4182 241.614 -48.0340 228.071 -58.3906  c
223.703 -48.0340 193.996 -48.0340 198.365 -58.3906  c
176.084 -48.0340 165.163 -62.4182 176.084 -75.0762  c
h
f
0 J
1.45000 M
0.00000 0.00000 0.00000 RG
newpath
176.084 -75.0762 m
165.163 -91.1865 176.084 -105.571 193.996 -95.2140  c
193.996 -105.571 223.703 -105.571 223.703 -95.2140  c
241.614 -105.571 252.536 -91.1865 241.614 -78.5284  c
252.536 -62.4182 241.614 -48.0340 228.071 -58.3906  c
223.703 -48.0340 193.996 -48.0340 198.365 -58.3906  c
176.084 -48.0340 165.163 -62.4182 176.084 -75.0762  c
h
S
2 J
10.0000 M
0 J
1.45000 M
newpath
186.091 -81.3980 m
187.279 -81.3980 l
187.279 -72.6480 l
186.091 -72.6480 l
186.091 -81.3980 l
h
195.052 -76.6168 m
195.052 -72.6480 l
193.974 -72.6480 l
193.974 -76.5699 l
193.974 -77.1949 193.852 -77.6610 193.607 -77.9683  c
193.362 -78.2756 193.000 -78.4293 192.521 -78.4293  c
191.938 -78.4293 191.477 -78.2444 191.138 -77.8746  c
190.800 -77.5048 190.631 -76.9970 190.631 -76.3511  c
190.631 -72.6480 l
189.552 -72.6480 l
189.552 -79.2105 l
190.631 -79.2105 l
190.631 -78.1949 l
190.891 -78.5907 191.196 -78.8850 191.545 -79.0777  c
191.894 -79.2704 192.297 -79.3668 192.756 -79.3668  c
193.506 -79.3668 194.076 -79.1350 194.466 -78.6714  c
194.857 -78.2079 195.052 -77.5230 195.052 -76.6168  c
h
198.267 -81.0699 m
198.267 -79.2105 l
200.486 -79.2105 l
200.486 -78.3668 l
198.267 -78.3668 l
198.267 -74.8043 l
198.267 -74.2730 198.340 -73.9319 198.486 -73.7808  c
198.632 -73.6298 198.929 -73.5543 199.377 -73.5543  c
200.486 -73.5543 l
200.486 -72.6480 l
199.377 -72.6480 l
198.543 -72.6480 197.968 -72.8043 197.650 -73.1168  c
197.332 -73.4293 197.173 -73.9918 197.173 -74.8043  c
197.173 -78.3668 l
196.392 -78.3668 l
196.392 -79.2105 l
197.173 -79.2105 l
197.173 -81.0699 l
198.267 -81.0699 l
h
207.519 -76.1949 m
207.519 -75.6793 l
202.550 -75.6793 l
202.603 -74.9293 202.829 -74.3616 203.230 -73.9761  c
203.631 -73.5907 204.186 -73.3980 204.894 -73.3980  c
205.311 -73.3980 205.714 -73.4475 206.105 -73.5464  c
206.496 -73.6454 206.884 -73.7991 207.269 -74.0074  c
207.269 -72.9761 l
206.873 -72.8199 206.472 -72.6975 206.066 -72.6089  c
205.660 -72.5204 205.248 -72.4761 204.832 -72.4761  c
203.790 -72.4761 202.962 -72.7808 202.347 -73.3902  c
201.733 -73.9996 201.425 -74.8251 201.425 -75.8668  c
201.425 -76.9397 201.717 -77.7912 202.300 -78.4214  c
202.884 -79.0517 203.665 -79.3668 204.644 -79.3668  c
205.530 -79.3668 206.230 -79.0829 206.746 -78.5152  c
207.261 -77.9475 207.519 -77.1741 207.519 -76.1949  c
h
206.441 -76.5230 m
206.431 -77.1063 206.264 -77.5751 205.941 -77.9293  c
205.618 -78.2834 205.191 -78.4605 204.660 -78.4605  c
204.056 -78.4605 203.574 -78.2886 203.214 -77.9449  c
202.855 -77.6011 202.649 -77.1220 202.597 -76.5074  c
206.441 -76.5230 l
h
213.089 -78.2105 m
212.964 -78.2730 212.832 -78.3225 212.691 -78.3589  c
212.550 -78.3954 212.392 -78.4136 212.214 -78.4136  c
211.610 -78.4136 211.144 -78.2157 210.816 -77.8199  c
210.488 -77.4241 210.324 -76.8511 210.324 -76.1011  c
210.324 -72.6480 l
209.246 -72.6480 l
209.246 -79.2105 l
210.324 -79.2105 l
210.324 -78.1949 l
210.553 -78.5907 210.850 -78.8850 211.214 -79.0777  c
211.579 -79.2704 212.022 -79.3668 212.543 -79.3668  c
212.616 -79.3668 212.696 -79.3616 212.785 -79.3511  c
212.873 -79.3407 212.970 -79.3251 213.074 -79.3043  c
213.089 -78.2105 l
h
219.679 -76.6168 m
219.679 -72.6480 l
218.601 -72.6480 l
218.601 -76.5699 l
218.601 -77.1949 218.479 -77.6610 218.234 -77.9683  c
217.989 -78.2756 217.627 -78.4293 217.148 -78.4293  c
216.565 -78.4293 216.104 -78.2444 215.765 -77.8746  c
215.427 -77.5048 215.257 -76.9970 215.257 -76.3511  c
215.257 -72.6480 l
214.179 -72.6480 l
214.179 -79.2105 l
215.257 -79.2105 l
215.257 -78.1949 l
215.518 -78.5907 215.823 -78.8850 216.172 -79.0777  c
216.520 -79.2704 216.924 -79.3668 217.382 -79.3668  c
218.132 -79.3668 218.703 -79.1350 219.093 -78.6714  c
219.484 -78.2079 219.679 -77.5230 219.679 -76.6168  c
h
227.441 -76.1949 m
227.441 -75.6793 l
222.472 -75.6793 l
222.524 -74.9293 222.751 -74.3616 223.152 -73.9761  c
223.553 -73.5907 224.108 -73.3980 224.816 -73.3980  c
225.233 -73.3980 225.636 -73.4475 226.027 -73.5464  c
226.418 -73.6454 226.806 -73.7991 227.191 -74.0074  c
227.191 -72.9761 l
226.795 -72.8199 226.394 -72.6975 225.988 -72.6089  c
225.582 -72.5204 225.170 -72.4761 224.754 -72.4761  c
223.712 -72.4761 222.884 -72.7808 222.269 -73.3902  c
221.655 -73.9996 221.347 -74.8251 221.347 -75.8668  c
221.347 -76.9397 221.639 -77.7912 222.222 -78.4214  c
222.806 -79.0517 223.587 -79.3668 224.566 -79.3668  c
225.451 -79.3668 226.152 -79.0829 226.668 -78.5152  c
227.183 -77.9475 227.441 -77.1741 227.441 -76.1949  c
h
226.363 -76.5230 m
226.353 -77.1063 226.186 -77.5751 225.863 -77.9293  c
225.540 -78.2834 225.113 -78.4605 224.582 -78.4605  c
223.978 -78.4605 223.496 -78.2886 223.136 -77.9449  c
222.777 -77.6011 222.571 -77.1220 222.519 -76.5074  c
226.363 -76.5230 l
h
230.277 -81.0699 m
230.277 -79.2105 l
232.496 -79.2105 l
232.496 -78.3668 l
230.277 -78.3668 l
230.277 -74.8043 l
230.277 -74.2730 230.350 -73.9319 230.496 -73.7808  c
230.642 -73.6298 230.938 -73.5543 231.386 -73.5543  c
232.496 -73.5543 l
232.496 -72.6480 l
231.386 -72.6480 l
230.553 -72.6480 229.978 -72.8043 229.660 -73.1168  c
229.342 -73.4293 229.183 -73.9918 229.183 -74.8043  c
229.183 -78.3668 l
228.402 -78.3668 l
228.402 -79.2105 l
229.183 -79.2105 l
229.183 -81.0699 l
230.277 -81.0699 l
h
f
2 J
10.0000 M
Q
0 J
1.45000 M
newpath
264.782 -91.5803 m
158.665 -91.1836 l
154.337 -90.7370 l
S
newpath
154.337 -90.7370 m
166.787 -86.9951 l
163.289 -91.6608 l
165.760 -96.9423 l
h
f
newpath
185.615 -112.781 m
185.615 -114.547 l
184.162 -114.547 l
184.162 -115.266 l
186.490 -115.266 l
186.490 -112.453 l
186.147 -112.213 185.769 -112.031 185.357 -111.906  c
184.946 -111.781 184.506 -111.719 184.037 -111.719  c
183.006 -111.719 182.201 -112.018 181.623 -112.617  c
181.045 -113.216 180.756 -114.052 180.756 -115.125  c
180.756 -116.187 181.045 -117.021 181.623 -117.625  c
182.201 -118.229 183.006 -118.531 184.037 -118.531  c
184.464 -118.531 184.871 -118.476 185.256 -118.367  c
185.641 -118.258 185.996 -118.104 186.318 -117.906  c
186.318 -116.953 l
185.996 -117.234 185.649 -117.445 185.279 -117.586  c
184.910 -117.726 184.522 -117.797 184.115 -117.797  c
183.313 -117.797 182.709 -117.573 182.303 -117.125  c
181.897 -116.677 181.693 -116.010 181.693 -115.125  c
181.693 -114.239 181.897 -113.573 182.303 -113.125  c
182.709 -112.677 183.313 -112.453 184.115 -112.453  c
184.428 -112.453 184.706 -112.479 184.951 -112.531  c
185.196 -112.583 185.417 -112.667 185.615 -112.781  c
h
192.293 -114.500 m
192.293 -114.109 l
188.574 -114.109 l
188.605 -113.557 188.772 -113.135 189.074 -112.844  c
189.376 -112.552 189.793 -112.406 190.324 -112.406  c
190.636 -112.406 190.938 -112.443 191.230 -112.516  c
191.522 -112.588 191.813 -112.703 192.105 -112.859  c
192.105 -112.094 l
191.813 -111.969 191.514 -111.875 191.207 -111.812  c
190.899 -111.750 190.589 -111.719 190.277 -111.719  c
189.496 -111.719 188.876 -111.948 188.418 -112.406  c
187.959 -112.864 187.730 -113.479 187.730 -114.250  c
187.730 -115.062 187.946 -115.706 188.378 -116.180  c
188.811 -116.654 189.397 -116.891 190.136 -116.891  c
190.803 -116.891 191.329 -116.677 191.714 -116.250  c
192.100 -115.823 192.293 -115.239 192.293 -114.500  c
h
191.480 -114.750 m
191.470 -115.187 191.345 -115.539 191.105 -115.805  c
190.865 -116.070 190.548 -116.203 190.152 -116.203  c
189.694 -116.203 189.329 -116.075 189.058 -115.820  c
188.787 -115.565 188.631 -115.203 188.589 -114.734  c
191.480 -114.750 l
h
194.408 -118.156 m
194.408 -116.766 l
196.080 -116.766 l
196.080 -116.141 l
194.408 -116.141 l
194.408 -113.469 l
194.408 -113.062 194.465 -112.802 194.580 -112.687  c
194.694 -112.573 194.918 -112.516 195.252 -112.516  c
196.080 -112.516 l
196.080 -111.844 l
195.252 -111.844 l
194.627 -111.844 194.194 -111.961 193.955 -112.195  c
193.715 -112.430 193.595 -112.854 193.595 -113.469  c
193.595 -116.141 l
193.002 -116.141 l
193.002 -116.766 l
193.595 -116.766 l
193.595 -118.156 l
194.408 -118.156 l
h
202.890 -116.281 m
198.343 -114.656 l
202.890 -113.062 l
202.890 -112.250 l
197.249 -114.297 l
197.249 -115.031 l
202.890 -117.078 l
202.890 -116.281 l
h
206.587 -116.203 m
206.160 -116.203 205.819 -116.034 205.564 -115.695  c
205.308 -115.357 205.181 -114.891 205.181 -114.297  c
205.181 -113.713 205.306 -113.253 205.556 -112.914  c
205.806 -112.575 206.149 -112.406 206.587 -112.406  c
207.024 -112.406 207.368 -112.575 207.618 -112.914  c
207.868 -113.253 207.993 -113.713 207.993 -114.297  c
207.993 -114.880 207.868 -115.344 207.618 -115.687  c
207.368 -116.031 207.024 -116.203 206.587 -116.203  c
h
206.587 -116.891 m
207.295 -116.891 207.850 -116.661 208.251 -116.203  c
208.652 -115.745 208.853 -115.109 208.853 -114.297  c
208.853 -113.495 208.652 -112.864 208.251 -112.406  c
207.850 -111.948 207.295 -111.719 206.587 -111.719  c
205.889 -111.719 205.340 -111.948 204.939 -112.406  c
204.538 -112.864 204.337 -113.495 204.337 -114.297  c
204.337 -115.109 204.538 -115.745 204.939 -116.203  c
205.340 -116.661 205.889 -116.891 206.587 -116.891  c
h
213.718 -114.297 m
213.718 -114.891 213.596 -115.357 213.351 -115.695  c
213.106 -116.034 212.770 -116.203 212.343 -116.203  c
211.916 -116.203 211.580 -116.034 211.336 -115.695  c
211.091 -115.357 210.968 -114.891 210.968 -114.297  c
210.968 -113.703 211.091 -113.237 211.336 -112.898  c
211.580 -112.560 211.916 -112.391 212.343 -112.391  c
212.770 -112.391 213.106 -112.560 213.351 -112.898  c
213.596 -113.237 213.718 -113.703 213.718 -114.297  c
h
210.968 -116.016 m
211.145 -116.307 211.362 -116.526 211.617 -116.672  c
211.872 -116.818 212.182 -116.891 212.546 -116.891  c
213.140 -116.891 213.625 -116.651 214.000 -116.172  c
214.375 -115.693 214.562 -115.068 214.562 -114.297  c
214.562 -113.526 214.375 -112.904 214.000 -112.430  c
213.625 -111.956 213.140 -111.719 212.546 -111.719  c
212.182 -111.719 211.872 -111.789 211.617 -111.930  c
211.362 -112.070 211.145 -112.286 210.968 -112.578  c
210.968 -111.844 l
210.156 -111.844 l
210.156 -118.687 l
210.968 -118.687 l
210.968 -116.016 l
h
215.900 -116.766 m
216.712 -116.766 l
216.712 -111.750 l
216.712 -111.125 216.593 -110.672 216.353 -110.391  c
216.114 -110.109 215.728 -109.969 215.197 -109.969  c
214.900 -109.969 l
214.900 -110.656 l
215.103 -110.656 l
215.416 -110.656 215.627 -110.726 215.736 -110.867  c
215.845 -111.008 215.900 -111.302 215.900 -111.750  c
215.900 -116.766 l
h
215.900 -118.687 m
216.712 -118.687 l
216.712 -117.656 l
215.900 -117.656 l
215.900 -118.687 l
h
222.619 -114.500 m
222.619 -114.109 l
218.900 -114.109 l
218.932 -113.557 219.098 -113.135 219.400 -112.844  c
219.703 -112.552 220.119 -112.406 220.650 -112.406  c
220.963 -112.406 221.265 -112.443 221.557 -112.516  c
221.848 -112.588 222.140 -112.703 222.432 -112.859  c
222.432 -112.094 l
222.140 -111.969 221.841 -111.875 221.533 -111.812  c
221.226 -111.750 220.916 -111.719 220.604 -111.719  c
219.822 -111.719 219.203 -111.948 218.744 -112.406  c
218.286 -112.864 218.057 -113.479 218.057 -114.250  c
218.057 -115.062 218.273 -115.706 218.705 -116.180  c
219.137 -116.654 219.723 -116.891 220.463 -116.891  c
221.130 -116.891 221.656 -116.677 222.041 -116.250  c
222.427 -115.823 222.619 -115.239 222.619 -114.500  c
h
221.807 -114.750 m
221.796 -115.187 221.671 -115.539 221.432 -115.805  c
221.192 -116.070 220.874 -116.203 220.479 -116.203  c
220.020 -116.203 219.656 -116.075 219.385 -115.820  c
219.114 -115.565 218.958 -115.203 218.916 -114.734  c
221.807 -114.750 l
h
224.734 -118.156 m
224.734 -116.766 l
226.406 -116.766 l
226.406 -116.141 l
224.734 -116.141 l
224.734 -113.469 l
224.734 -113.062 224.792 -112.802 224.906 -112.687  c
225.021 -112.573 225.245 -112.516 225.578 -112.516  c
226.406 -112.516 l
226.406 -111.844 l
225.578 -111.844 l
224.953 -111.844 224.521 -111.961 224.281 -112.195  c
224.042 -112.430 223.922 -112.854 223.922 -113.469  c
223.922 -116.141 l
223.328 -116.141 l
223.328 -116.766 l
223.922 -116.766 l
223.922 -118.156 l
224.734 -118.156 l
h
229.373 -116.203 m
228.946 -116.203 228.604 -116.034 228.349 -115.695  c
228.094 -115.357 227.966 -114.891 227.966 -114.297  c
227.966 -113.713 228.091 -113.253 228.341 -112.914  c
228.591 -112.575 228.935 -112.406 229.373 -112.406  c
229.810 -112.406 230.154 -112.575 230.404 -112.914  c
230.654 -113.253 230.779 -113.713 230.779 -114.297  c
230.779 -114.880 230.654 -115.344 230.404 -115.687  c
230.154 -116.031 229.810 -116.203 229.373 -116.203  c
h
229.373 -116.891 m
230.081 -116.891 230.636 -116.661 231.037 -116.203  c
231.438 -115.745 231.638 -115.109 231.638 -114.297  c
231.638 -113.495 231.438 -112.864 231.037 -112.406  c
230.636 -111.948 230.081 -111.719 229.373 -111.719  c
228.675 -111.719 228.125 -111.948 227.724 -112.406  c
227.323 -112.864 227.123 -113.495 227.123 -114.297  c
227.123 -115.109 227.323 -115.745 227.724 -116.203  c
228.125 -116.661 228.675 -116.891 229.373 -116.891  c
h
233.082 -116.281 m
233.082 -117.078 l
238.723 -115.031 l
238.723 -114.297 l
233.082 -112.250 l
233.082 -113.062 l
237.613 -114.656 l
233.082 -116.281 l
h
f
2 J
10.0000 M
0 J
1.45000 M
newpath
154.421 -60.0231 m
256.803 -60.5592 l
S
newpath
264.803 -60.6011 m
252.777 -65.5382 l
255.803 -60.5540 l
252.829 -55.5383 l
h
f
newpath
183.684 -39.6821 m
183.684 -37.2133 l
184.809 -37.2133 l
185.215 -37.2133 185.533 -37.3227 185.762 -37.5414  c
185.991 -37.7602 186.105 -38.0623 186.105 -38.4477  c
186.105 -38.8435 185.991 -39.1482 185.762 -39.3617  c
185.533 -39.5753 185.215 -39.6821 184.809 -39.6821  c
183.684 -39.6821 l
h
182.809 -40.4164 m
184.809 -40.4164 l
185.538 -40.4164 186.092 -40.2498 186.473 -39.9164  c
186.853 -39.5831 187.043 -39.0935 187.043 -38.4477  c
187.043 -37.8019 186.853 -37.3149 186.473 -36.9867  c
186.092 -36.6586 185.538 -36.4946 184.809 -36.4946  c
183.684 -36.4946 l
183.684 -33.8539 l
182.809 -33.8539 l
182.809 -40.4164 l
h
188.111 -35.7914 m
188.111 -38.7758 l
188.923 -38.7758 l
188.923 -35.8227 l
188.923 -35.3644 189.015 -35.0180 189.197 -34.7836  c
189.379 -34.5492 189.647 -34.4321 190.001 -34.4321  c
190.439 -34.4321 190.785 -34.5701 191.041 -34.8461  c
191.296 -35.1222 191.423 -35.4998 191.423 -35.9789  c
191.423 -38.7758 l
192.236 -38.7758 l
192.236 -33.8539 l
191.423 -33.8539 l
191.423 -34.6039 l
191.225 -34.3123 190.996 -34.0935 190.736 -33.9477  c
190.475 -33.8019 190.173 -33.7289 189.830 -33.7289  c
189.267 -33.7289 188.840 -33.9034 188.548 -34.2524  c
188.257 -34.6013 188.111 -35.1144 188.111 -35.7914  c
h
194.690 -40.1664 m
194.690 -38.7758 l
196.362 -38.7758 l
196.362 -38.1508 l
194.690 -38.1508 l
194.690 -35.4789 l
194.690 -35.0727 194.747 -34.8123 194.862 -34.6977  c
194.976 -34.5831 195.200 -34.5258 195.534 -34.5258  c
196.362 -34.5258 l
196.362 -33.8539 l
195.534 -33.8539 l
194.909 -33.8539 194.476 -33.9711 194.237 -34.2055  c
193.997 -34.4399 193.877 -34.8644 193.877 -35.4789  c
193.877 -38.1508 l
193.284 -38.1508 l
193.284 -38.7758 l
193.877 -38.7758 l
193.877 -40.1664 l
194.690 -40.1664 l
h
203.172 -38.2914 m
198.625 -36.6664 l
203.172 -35.0727 l
203.172 -34.2602 l
197.531 -36.3071 l
197.531 -37.0414 l
203.172 -39.0883 l
203.172 -38.2914 l
h
206.869 -38.2133 m
206.442 -38.2133 206.101 -38.0440 205.846 -37.7055  c
205.591 -37.3670 205.463 -36.9008 205.463 -36.3071  c
205.463 -35.7237 205.588 -35.2628 205.838 -34.9242  c
206.088 -34.5857 206.432 -34.4164 206.869 -34.4164  c
207.307 -34.4164 207.650 -34.5857 207.900 -34.9242  c
208.150 -35.2628 208.275 -35.7237 208.275 -36.3071  c
208.275 -36.8904 208.150 -37.3539 207.900 -37.6977  c
207.650 -38.0414 207.307 -38.2133 206.869 -38.2133  c
h
206.869 -38.9008 m
207.577 -38.9008 208.132 -38.6716 208.533 -38.2133  c
208.934 -37.7550 209.135 -37.1196 209.135 -36.3071  c
209.135 -35.5050 208.934 -34.8748 208.533 -34.4164  c
208.132 -33.9581 207.577 -33.7289 206.869 -33.7289  c
206.171 -33.7289 205.622 -33.9581 205.221 -34.4164  c
204.820 -34.8748 204.619 -35.5050 204.619 -36.3071  c
204.619 -37.1196 204.820 -37.7550 205.221 -38.2133  c
205.622 -38.6716 206.171 -38.9008 206.869 -38.9008  c
h
214.001 -36.3071 m
214.001 -36.9008 213.878 -37.3670 213.633 -37.7055  c
213.389 -38.0440 213.053 -38.2133 212.626 -38.2133  c
212.198 -38.2133 211.862 -38.0440 211.618 -37.7055  c
211.373 -37.3670 211.251 -36.9008 211.251 -36.3071  c
211.251 -35.7133 211.373 -35.2472 211.618 -34.9086  c
211.862 -34.5701 212.198 -34.4008 212.626 -34.4008  c
213.053 -34.4008 213.389 -34.5701 213.633 -34.9086  c
213.878 -35.2472 214.001 -35.7133 214.001 -36.3071  c
h
211.251 -38.0258 m
211.428 -38.3175 211.644 -38.5362 211.899 -38.6821  c
212.154 -38.8279 212.464 -38.9008 212.829 -38.9008  c
213.422 -38.9008 213.907 -38.6612 214.282 -38.1821  c
214.657 -37.7029 214.844 -37.0779 214.844 -36.3071  c
214.844 -35.5362 214.657 -34.9138 214.282 -34.4399  c
213.907 -33.9659 213.422 -33.7289 212.829 -33.7289  c
212.464 -33.7289 212.154 -33.7992 211.899 -33.9399  c
211.644 -34.0805 211.428 -34.2966 211.251 -34.5883  c
211.251 -33.8539 l
210.438 -33.8539 l
210.438 -40.6977 l
211.251 -40.6977 l
211.251 -38.0258 l
h
216.182 -38.7758 m
216.995 -38.7758 l
216.995 -33.7602 l
216.995 -33.1352 216.875 -32.6821 216.635 -32.4008  c
216.396 -32.1196 216.010 -31.9789 215.479 -31.9789  c
215.182 -31.9789 l
215.182 -32.6664 l
215.385 -32.6664 l
215.698 -32.6664 215.909 -32.7367 216.018 -32.8774  c
216.127 -33.0180 216.182 -33.3123 216.182 -33.7602  c
216.182 -38.7758 l
h
216.182 -40.6977 m
216.995 -40.6977 l
216.995 -39.6664 l
216.182 -39.6664 l
216.182 -40.6977 l
h
222.901 -36.5102 m
222.901 -36.1196 l
219.183 -36.1196 l
219.214 -35.5675 219.381 -35.1456 219.683 -34.8539  c
219.985 -34.5623 220.401 -34.4164 220.933 -34.4164  c
221.245 -34.4164 221.547 -34.4529 221.839 -34.5258  c
222.131 -34.5987 222.422 -34.7133 222.714 -34.8696  c
222.714 -34.1039 l
222.422 -33.9789 222.123 -33.8852 221.815 -33.8227  c
221.508 -33.7602 221.198 -33.7289 220.886 -33.7289  c
220.105 -33.7289 219.485 -33.9581 219.026 -34.4164  c
218.568 -34.8748 218.339 -35.4894 218.339 -36.2602  c
218.339 -37.0727 218.555 -37.7159 218.987 -38.1899  c
219.420 -38.6638 220.006 -38.9008 220.745 -38.9008  c
221.412 -38.9008 221.938 -38.6873 222.323 -38.2602  c
222.709 -37.8331 222.901 -37.2498 222.901 -36.5102  c
h
222.089 -36.7602 m
222.078 -37.1977 221.953 -37.5492 221.714 -37.8149  c
221.474 -38.0805 221.157 -38.2133 220.761 -38.2133  c
220.302 -38.2133 219.938 -38.0857 219.667 -37.8305  c
219.396 -37.5753 219.240 -37.2133 219.198 -36.7446  c
222.089 -36.7602 l
h
225.017 -40.1664 m
225.017 -38.7758 l
226.688 -38.7758 l
226.688 -38.1508 l
225.017 -38.1508 l
225.017 -35.4789 l
225.017 -35.0727 225.074 -34.8123 225.188 -34.6977  c
225.303 -34.5831 225.527 -34.5258 225.860 -34.5258  c
226.688 -34.5258 l
226.688 -33.8539 l
225.860 -33.8539 l
225.235 -33.8539 224.803 -33.9711 224.563 -34.2055  c
224.324 -34.4399 224.204 -34.8644 224.204 -35.4789  c
224.204 -38.1508 l
223.610 -38.1508 l
223.610 -38.7758 l
224.204 -38.7758 l
224.204 -40.1664 l
225.017 -40.1664 l
h
229.655 -38.2133 m
229.228 -38.2133 228.887 -38.0440 228.631 -37.7055  c
228.376 -37.3670 228.249 -36.9008 228.249 -36.3071  c
228.249 -35.7237 228.374 -35.2628 228.624 -34.9242  c
228.874 -34.5857 229.217 -34.4164 229.655 -34.4164  c
230.092 -34.4164 230.436 -34.5857 230.686 -34.9242  c
230.936 -35.2628 231.061 -35.7237 231.061 -36.3071  c
231.061 -36.8904 230.936 -37.3539 230.686 -37.6977  c
230.436 -38.0414 230.092 -38.2133 229.655 -38.2133  c
h
229.655 -38.9008 m
230.363 -38.9008 230.918 -38.6716 231.319 -38.2133  c
231.720 -37.7550 231.920 -37.1196 231.920 -36.3071  c
231.920 -35.5050 231.720 -34.8748 231.319 -34.4164  c
230.918 -33.9581 230.363 -33.7289 229.655 -33.7289  c
228.957 -33.7289 228.407 -33.9581 228.006 -34.4164  c
227.605 -34.8748 227.405 -35.5050 227.405 -36.3071  c
227.405 -37.1196 227.605 -37.7550 228.006 -38.2133  c
228.407 -38.6716 228.957 -38.9008 229.655 -38.9008  c
h
233.364 -38.2914 m
233.364 -39.0883 l
239.005 -37.0414 l
239.005 -36.3071 l
233.364 -34.2602 l
233.364 -35.0727 l
237.896 -36.6664 l
233.364 -38.2914 l
h
f
2 J
10.0000 M
Q
[ 1.00000 0.00000 0.00000 1.00000 0.00000 0.00000 ] defaultmatrix matrix concatmatrix setmatrix
cliprestore
end end restore showpage

%%Trailer
%%EOF
