%!PS-Adobe-3.0 EPSF-3.0
%%BoundingBox: 0 0 964 332
%%Creator: yExport 1.4.0.1
%%Producer: org.freehep.graphicsio.ps.PSGraphics2D Revision: 12753 
%%For: 
%%Title: 
%%CreationDate: Monday, July 7, 2014 3:13:02 PM CLT
%%LanguageLevel: 3
%%EndComments
%%BeginProlog
100 dict dup begin

%
% File: org/freehep/graphicsio.ps/PSProlog.txt
% Author: Charles Loomis
%

% Redefinitions which save some space in the output file.  These are also
% the same as the PDF operators.
/q {gsave} def
/Q {grestore} def

/n {newpath} def
/m {moveto} def
/l {lineto} def
/c {curveto} def
/h {closepath} def

/re {4 -2 roll moveto
     dup 0 exch rlineto exch 0 rlineto
     neg 0 exch rlineto closepath} def

/f {fill} def
/f* {eofill} def
/F {gsave vg&FC fill grestore} def
/F* {gsave vg&FC eofill grestore} def

/s {closepath stroke} def
/S {stroke} def

/b {closepath gsave vg&FC fill grestore
    gsave stroke grestore newpath} def
/B {gsave vg&FC fill grestore gsave stroke grestore newpath} def
/b* {closepath gsave vg&FC eofill grestore
    gsave stroke grestore newpath} def
/B* {gsave vg&FC eofill grestore gsave stroke grestore newpath} def

/g {1 array astore /vg&fcolor exch def} def
/G {setgray} def
/k {4 array astore /vg&fcolor exch def} def
/K {setcmykcolor} def
/rg {3 array astore /vg&fcolor exch def} def
/RG {setrgbcolor} def

% Initialize the fill color.
0 0 0 rg

/vg&FC {mark vg&fcolor aload pop
        counttomark 1 eq {G} if
        counttomark 3 eq {RG} if
        counttomark 4 eq {K} if
        cleartomark } def

/vg&DFC {/vg&fcolor exch def} def

/vg&C {mark exch aload pop
       counttomark 1 eq {G} if
       counttomark 3 eq {RG} if
       counttomark 4 eq {K} if
       cleartomark } def

/w {setlinewidth} def
/j {setlinejoin} def
/J {setlinecap} def
/M {setmiterlimit} def
/d {setdash} def
/i {setflat} def

/W {clip} def
/W* {eoclip} def

% Setup the default graphics state.
% (black; 1 pt. linewidth; miter join; butt-ends; solid)
/defaultGraphicsState {0 g 1 w 0 j 0 J [] 0 d} def

% Emulation of the rectangle operators for PostScript implementations
% which do not implement all Level 2 features.  This is an INCOMPLETE
% emulation; only the "x y width height rect..." form is emulated.
/*rf {gsave newpath re fill grestore} def
/*rs {gsave newpath re stroke grestore} def
/*rc {newpath re clip} def
/rf  /rectfill where {pop /rectfill}{/*rf} ifelse load def
/rs  /rectstroke where {pop /rectstroke}{/*rs} ifelse load def
/rc  /rectclip where {pop /rectclip}{/*rc} ifelse load def

% Emulation of the selectfont operator.  This includes a 20% increase in
% the fontsize which is necessary to get sizes similar to the Java fonts.
/*sf {exch findfont exch
      dup type /arraytype eq {makefont}{scalefont} ifelse setfont} bind def
/sf /selectfont where {pop {1.2 mul selectfont}}{{1.2 mul *sf}} ifelse def

% Special version of stroke which allows the dash pattern to continue
% across path segments.  (This may be needed for PostScript although
% modern printers seem to do this correctly.)
/vg&stroke {
  currentdash pop length 0 eq
  {stroke}
  {
    currentdash /vg&doffset exch def pop
    flattenpath
    {m vg&resetdash}
    {2 copy
     currentpoint
     3 -1 roll sub dup mul
     3 1 roll sub dup mul
     add sqrt
     3 1 roll l
     currentdash 3 -1 roll add setdash}
     {}
     {h vg&resetdash}
     pathforall
     stroke
     vg&resetdash
  } ifelse
} def
/vg&resetdash {currentdash pop vg&doffset setdash} def

% Initialize variables for safety.
/delta 0 def
/xv 0 def  /yv 0 def  /width 0 def  /height 0 def

% Initialize to portrait INTERNATIONAL (Letter-height, A4-width) page.
/pw 595 def  /ph 791  def  /po true def /ftp false def

% Initialize margins to 20 points.
/ml 20 def  /mr 20 def  /mt 20 def  /mb 20 def

% Temporary matrices.
/smatrix 0 def  /nmatrix 0 def

% set page size (usage: <page width><page height> setpagesize)
/setpagesize {/ph exch def /pw exch def} def

% set page orientation (usage: portrait or landscape)
/portrait {/po true def} def
/landscape {/po false def} def

% force natural size for image (usage: naturalsize)
/naturalsize {/ftp false def} def

% resize image to fill page (usage: fittopage)
/fittopage {/ftp true def} def

% set margins of the page (usage: <left><bottom><top><right> setmargins)
/setmargins {/mr exch def /mt exch def /mb exch def /ml exch def} def

% set the graphic's size (usage: <width><height> setsize)
/setsize {/gh exch def /gw exch def} def

% set the graphic's origin (usage: <x0><y0> setorigin)
/setorigin {/gy exch def /gx exch def} def

% calculate image center
/imagecenter {pw ml sub mr sub 2 div ml add
              ph mt sub mb sub 2 div mb add} def

% calculate the necessary scaling
/imagescale {po {gw}{gh} ifelse pw ml sub mr sub div
             po {gh}{gw} ifelse ph mt sub mb sub div
             2 copy lt {exch} if pop
             ftp not {1 2 copy lt {exch} if pop} if
             1 exch div /sfactor exch def
             /gw gw sfactor mul def /gh gh sfactor mul def} def

% calculate image origin
/imageorigin {pw ml sub mr sub 2 div ml add
              po {gw}{gh} ifelse 2 div sub
              ph mt sub mb sub 2 div mb add
              po {gh}{gw} ifelse 2 div po {add}{sub} ifelse} def

% calculate the clipping origin
/cliporigin  {pw ml sub mr sub 2 div ml add
              po {gw}{gh} ifelse 2 div sub floor
              ph mt sub mb sub 2 div mb add
              po {gh}{gw} ifelse 2 div sub floor} def

% Set the clipping region to the bounding box.
/cliptobounds {cliporigin po {gw}{gh} ifelse 1 add
                          po {gh}{gw} ifelse 1 add rc} def

% set the base transformation matrix (usage: setbasematrix)
/setbasematrix {imageorigin translate
                po {0}{90} ifelse rotate
                sfactor sfactor neg scale
                /defaultmatrix matrix currentmatrix def} def

% The lower-right bias in drawing 1 pt. wide lines.
/bias  {q 0.5 0.5 translate} def
/unbias {Q} def

% Define the composite fonts used to print Unicode strings.
% Undefine particular values in an encoding array.
/vg&undef { {exch dup 3 -1 roll /.notdef put} forall } def
/vg&redef { {3 -1 roll dup 4 2 roll put} forall } def

% usage: key encoding basefontname vg&newbasefont font
/vg&newbasefont {
findfont dup length dict copy
  begin
    currentdict /FID undef
    /Encoding exch def
    dup /FontName exch def
    currentdict
  end
definefont
} def

% usage: key encoding basefontname vg&newskewedbasefont font
/vg&newskewedbasefont {
findfont dup length dict copy
  begin
    currentdict /FID undef
    /Encoding exch def
    dup /FontName exch def
    exch FontMatrix exch matrix concatmatrix /FontMatrix exch def
    currentdict
  end
definefont
} def

% usage: basekey suffix vg&nconcat name
/vg&nconcat {
  2 {dup length string cvs exch} repeat
  dup length 3 -1 roll dup length 3 -1 roll add string
  dup 0 4 -1 roll dup length 5 1 roll putinterval
  dup 4 -2 roll exch putinterval cvn
} def

%usage: fontname vg&skewmatrix matrix
/vg&skewmatrix {
findfont dup /FontInfo known
  {
    /FontInfo get dup /ItalicAngle known
    {
      [ 1 0 4 -1 roll /ItalicAngle get neg dup sin exch cos div 1 0 0 ]
    }
    {pop matrix} ifelse
  }
  {pop matrix} ifelse
} def

% usage: newfontname basefontname vg&newcompositefont --
/vg&newcompositefont {
/vg&fstyle exch def
/vg&bfont exch def
/vg&fname exch def
<<
/FontStyleBits vg&fstyle
/FontType 0
/FontMatrix matrix
/FontName vg&fname
/FMapType 2
/Encoding [ 0 1 255 {pop 6} for ]
          dup 16#00 0 put % Latin
          dup 16#03 1 put % Greek
          dup 16#20 2 put % Punctuation
          dup 16#21 3 put % Arrows
          dup 16#22 4 put % MathOps
          dup 16#27 5 put % Dingbats

/FDepVector [
vg&bfont /-UC-Latin vg&nconcat UCLatinEncoding
vg&bfont vg&newbasefont

vg&bfont vg&skewmatrix
vg&bfont /-UC-Greek vg&nconcat UCGreekEncoding
/Symbol vg&newskewedbasefont

vg&bfont /-UC-Punctuation vg&nconcat UCPunctuationEncoding
vg&bfont vg&newbasefont

/Arrows-UC findfont
/MathOps-UC findfont
/Dingbats-UC findfont
/Undefined-UC findfont ]
>>
vg&fname exch definefont pop
} def

% Null encoding vector (all elements set to .notdef)
/NullEncoding [ 256 {/.notdef} repeat ] def

% Unicode Latin encoding (unicode codes \u0000-\u00ff)
/UCLatinEncoding
  ISOLatin1Encoding dup length array copy
  dup 16#60 /grave put
  [ 16#90 16#91 16#92 16#93 16#94 16#95 16#96
    16#97 16#98 16#9a 16#9b 16#9d 16#9e 16#9f
  ] vg&undef
  def

% Unicode Greek encoding (unicode codes \u0370-\u03ff)
/UCGreekEncoding
  NullEncoding dup length array copy
  << 16#91 /Alpha    16#92 /Beta      16#93 /Gamma    16#94 /Delta
     16#95 /Epsilon  16#96 /Zeta      16#97 /Eta      16#98 /Theta
     16#99 /Iota     16#9a /Kappa     16#9b /Lambda   16#9c /Mu
     16#9d /Nu       16#9e /Xi        16#9f /Omicron  16#a0 /Pi
     16#a1 /Rho      16#a3 /Sigma     16#a4 /Tau      16#a5 /Upsilon
     16#a6 /Phi      16#a7 /Chi       16#a8 /Psi      16#a9 /Omega
     16#b1 /alpha    16#b2 /beta      16#b3 /gamma    16#b4 /delta
     16#b5 /epsilon  16#b6 /zeta      16#b7 /eta      16#b8 /theta
     16#b9 /iota     16#ba /kappa     16#bb /lambda   16#bc /mu
     16#bd /nu       16#be /xi        16#bf /omicron  16#c0 /pi
     16#c1 /rho      16#c2 /sigma1    16#c3 /sigma    16#c4 /tau
     16#c5 /upsilon  16#c6 /phi1      16#c7 /chi      16#c8 /psi
     16#c9 /omega    16#7e /semicolon 16#87 /dotmath  16#d1 /theta1
     16#d2 /Upsilon1 16#d5 /phi       16#d6 /omega1
  >> vg&redef
  def

% Unicode punctuation encoding (unicode codes \u2000-\u206f)
/UCPunctuationEncoding
  NullEncoding dup length array copy
  << 16#10 /hyphen          16#11 /hyphen              16#12 /endash
     16#13 /emdash          16#18 /quoteleft           16#19 /quoteright
     16#1a /quotesinglbase  16#1b /quotesingle         16#1c /quotedblleft
     16#1d /quotedblright   16#1e /quotedblbase        16#1f /quotedbl
     16#20 /dagger          16#21 /daggerdbl           16#22 /bullet
     16#24 /period          16#26 /ellipsis            16#27 /periodcentered
     16#30 /perthousand     16#44 /fraction
     16#70 /zerosuperior    16#74 /foursuperior        16#75 /fivesuperior
     16#76 /sixsuperior     16#77 /sevensuperior       16#78 /eightsuperior
     16#79 /ninesuperior    16#7b /hyphensuperior      16#7d /parenleftsuperior
     16#7e /parenrightsuperior
     16#80 /zeroinferior    16#84 /fourinferior        16#85 /fiveinferior
     16#81 /oneinferior     16#82 /twoinferior         16#83 /threeinferior
     16#86 /sixinferior     16#87 /seveninferior       16#88 /eightinferior
     16#89 /nineinferior    16#8b /hypheninferior      16#8d /parenleftinferior
     16#8e /parenrightinferior
  >> vg&redef
  def

% Unicode mathematical operators encoding (unicode codes \u2200-\u22ff)
/UCMathOpsEncoding
  NullEncoding dup length array copy
  << 16#00 /universal       16#02 /partialdiff         16#03 /existential
     16#05 /emptyset        16#06 /Delta               16#07 /gradient
     16#08 /element         16#09 /notelement          16#0b /suchthat
     16#0f /product         16#11 /summation           16#12 /minus
     16#15 /fraction        16#17 /asteriskmath        16#19 /bullet
     16#1a /radical         16#1d /proportional        16#1e /infinity
     16#20 /angle           16#23 /bar                 16#27 /logicaland
     16#28 /logicalor       16#29 /intersection        16#2a /union
     16#2b /integral        16#34 /therefore           16#36 /colon
     16#3c /similar         16#45 /congruent           16#48 /approxequal
     16#60 /notequal        16#61 /equivalence         16#64 /lessequal
     16#65 /greaterequal    16#82 /propersubset        16#83 /propersuperset
     16#86 /reflexsubset    16#87 /reflexsuperset      16#95 /circleplus
     16#97 /circlemultiply  16#a5 /perpendicular       16#03 /existential
     16#c0 /logicaland      16#c1 /logicalor           16#c2 /intersection
     16#c3 /union           16#c4 /diamond             16#c5 /dotmath
  >> vg&redef
  def

% Unicode arrows encoding (unicode codes \u2190-\u21ff)
% Also includes those "Letterlike" unicode characters
% which are available in the symbol font. (unicode codes \u2100-\u214f)
/UCArrowsEncoding
  NullEncoding dup length array copy
  << 16#11 /Ifraktur        16#1c /Rfraktur            16#22 /trademarkserif
     16#35 /aleph
     16#90 /arrowleft       16#91 /arrowup             16#92 /arrowright
     16#93 /arrowdown       16#94 /arrowboth           16#d0 /arrowdblleft
     16#d1 /arrowdblup      16#d2 /arrowdblright       16#d3 /arrowdbldown
     16#d4 /arrowdblboth
  >> vg&redef
  def

/ZapfDingbats findfont /Encoding get
dup length array copy /UCDingbatsEncoding exch def
16#20 1 16#7f {
  dup 16#20 sub exch
  UCDingbatsEncoding exch get
  UCDingbatsEncoding 3 1 roll put
} for
16#a0 1 16#ff {
  dup 16#40 sub exch
  UCDingbatsEncoding exch get
  UCDingbatsEncoding 3 1 roll put
} for
UCDingbatsEncoding [ 16#c0 1 16#ff {} for ] vg&undef
[ 16#00  16#05 16#0a 16#0b  16#28 16#4c 16#4e  16#53 16#54 16#55  16#57 16#5f
  16#60  16#68 16#69 16#6a  16#6b 16#6c 16#6d  16#6e 16#6f 16#70  16#71 16#72
  16#73  16#74 16#75 16#95  16#96 16#97 16#b0  16#bf
] vg&undef pop

% Define the base fonts which don't change.
/Undefined-UC NullEncoding       /Helvetica    vg&newbasefont pop
/MathOps-UC   UCMathOpsEncoding  /Symbol       vg&newbasefont pop
/Arrows-UC    UCArrowsEncoding   /Symbol       vg&newbasefont pop
/Dingbats-UC  UCDingbatsEncoding /ZapfDingbats vg&newbasefont pop

% Make the SansSerif composite fonts.
/SansSerif /Helvetica 16#00 vg&newcompositefont
/SansSerif-Bold /Helvetica-Bold 16#01 vg&newcompositefont
/SansSerif-Italic /Helvetica-Oblique 16#02 vg&newcompositefont
/SansSerif-BoldItalic /Helvetica-BoldOblique 16#03 vg&newcompositefont

% Make the Serif composite fonts.
/Serif /Times-Roman 16#00 vg&newcompositefont
/Serif-Bold /Times-Bold 16#01 vg&newcompositefont
/Serif-Italic /Times-Italic 16#02 vg&newcompositefont
/Serif-BoldItalic /Times-BoldItalic 16#03 vg&newcompositefont

% Make the Monospaced composite fonts.
/Monospaced /Courier 16#00 vg&newcompositefont
/Monospaced-Bold /Courier-Bold 16#01 vg&newcompositefont
/Monospaced-Italic /Courier-Oblique 16#02 vg&newcompositefont
/Monospaced-BoldItalic /Courier-BoldOblique 16#03 vg&newcompositefont

% Make the Dialog composite fonts.
/Dialog /Helvetica 16#00 vg&newcompositefont
/Dialog-Bold /Helvetica-Bold 16#01 vg&newcompositefont
/Dialog-Italic /Helvetica-Oblique 16#02 vg&newcompositefont
/Dialog-BoldItalic /Helvetica-BoldOblique 16#03 vg&newcompositefont

% Make the DialogInput composite fonts.
/DialogInput /Courier 16#00 vg&newcompositefont
/DialogInput-Bold /Courier-Bold 16#01 vg&newcompositefont
/DialogInput-Italic /Courier-Oblique 16#02 vg&newcompositefont
/DialogInput-BoldItalic /Courier-BoldOblique 16#03 vg&newcompositefont

% Make the Typewriter composite fonts (JDK 1.1 only).
/Typewriter /Courier 16#00 vg&newcompositefont
/Typewriter-Bold /Courier-Bold 16#01 vg&newcompositefont
/Typewriter-Italic /Courier-Oblique 16#02 vg&newcompositefont
/Typewriter-BoldItalic /Courier-BoldOblique 16#03 vg&newcompositefont


/cfontH {
 dup /fontsize exch def /SansSerif exch sf
 /vg&fontstyles [{cfontH} {cfontHB} {cfontHI} {cfontHBI}] def
} def
/cfontHB {
  dup /fontsize exch def /SansSerif-Bold exch sf
 /vg&fontstyles [{cfontH} {cfontHB} {cfontHI} {cfontHBI}] def
} def
/cfontHI {
 dup /fontsize exch def /SansSerif-Italic exch sf
 /vg&fontstyles [{cfontH} {cfontHB} {cfontHI} {cfontHBI}] def
} def
/cfontHBI {
 dup /fontsize exch def /SansSerif-BoldItalic exch sf
 /vg&fontstyles [{cfontH} {cfontHB} {cfontHI} {cfontHBI}] def
} def

/cfontT {
 dup /fontsize exch def /Serif exch sf
 /vg&fontstyles [{cfontT} {cfontTB} {cfontTI} {cfontTBI}] def
} def
/cfontTB {
 dup /fontsize exch def /Serif-Bold exch sf
 /vg&fontstyles [{cfontT} {cfontTB} {cfontTI} {cfontTBI}] def
} def
/cfontTI {
 dup /fontsize exch def /Serif-Italic exch sf
 /vg&fontstyles [{cfontT} {cfontTB} {cfontTI} {cfontTBI}] def
} def
/cfontTBI {
 dup /fontsize exch def /Serif-BoldItalic exch sf
 /vg&fontstyles [{cfontT} {cfontTB} {cfontTI} {cfontTBI}] def
} def

/cfontC {
 dup /fontsize exch def /Typewriter exch sf
 /vg&fontstyles [{cfontC} {cfontCB} {cfontCI} {cfontCBI}] def
} def
/cfontCB {
 dup /fontsize exch def /Typewriter-Bold exch sf
 /vg&fontstyles [{cfontC} {cfontCB} {cfontCI} {cfontCBI}] def
} def
/cfontCI {
 dup /fontsize exch def /Typewriter-Italic exch sf
 /vg&fontstyles [{cfontC} {cfontCB} {cfontCI} {cfontCBI}] def
} def
/cfontCBI {
 dup /fontsize exch def /Typewriter-BoldItalic exch sf
 /vg&fontstyles [{cfontC} {cfontCB} {cfontCI} {cfontCBI}] def
} def

% Darken or lighten the current color.
/darken {0.7 exch exp 3 copy
         q 4 -1 roll vg&C
         currentrgbcolor 3 {4 -2 roll mul} repeat
         3 array astore Q} def

/displayColorMap
<< /Cr   [1.00 0.00 0.00]       /Cg     [0.00 1.00 0.00]
   /Cb   [0.00 0.00 1.00]       /Cc     [1.00 0.00 0.00 0.00]
   /Cm   [0.00 1.00 0.00 0.00]  /Cy     [0.00 0.00 1.00 0.00]
   /Co   [1.00 0.78 0.00]       /Cp     [1.00 0.67 0.67]
   /Cw   [1   ]                 /Cgrl   [0.75]
   /Cgr  [0.50]                 /Cgrd   [0.25]
   /Ck   [0   ]
   /CGr  [1.00 0.00 0.00]       /CGg    [0.00 1.00 0.00]
   /CGb  [0.00 0.00 1.00]       /CGc    [1.00 0.00 0.00 0.00]
   /CGm  [0.00 1.00 0.00 0.00]  /CGy    [0.00 0.00 1.00 0.00]
   /CGo  [1.00 0.78 0.00]       /CGp    [1.00 0.67 0.67]
   /CGw  [1   ]                 /CGgrl  [0.75]
   /CGgr [0.50]                 /CGgrd  [0.25]
   /CGk  [0   ]
   /CIr  [1.00 0.00 0.00]       /CIg    [0.00 1.00 0.00]
   /CIb  [0.00 0.00 1.00]       /CIc    [1.00 0.00 0.00 0.00]
   /CIm  [0.00 1.00 0.00 0.00]  /CIy    [0.00 0.00 1.00 0.00]
   /CIo  [1.00 0.78 0.00]       /CIp    [1.00 0.67 0.67]
   /CIw  [1   ]                 /CIgrl  [0.75]
   /CIgr [0.50]                 /CIgrd  [0.25]
   /CIk  [0   ]
>> def

/printColorMap
<< /Cr   [1.00 0.33 0.33]       /Cg     [0.33 1.00 0.33]
   /Cb   [0.33 0.33 1.00]       /Cc     [1.00 0.00 0.00 0.00]
   /Cm   [0.00 1.00 0.00 0.00]  /Cy     [0.00 0.00 1.00 0.00]
   /Co   [1.00 0.78 0.00]       /Cp     [1.00 0.67 0.67]
   /Cw   [1   ]                 /Cgrl   [0.75]
   /Cgr  [0.50]                 /Cgrd   [0.25]
   /Ck   [0   ]
   /CGr  [1.00 0.33 0.33]       /CGg    [0.33 1.00 0.33]
   /CGb  [0.33 0.33 1.00]       /CGc    [1.00 0.00 0.00 0.00]
   /CGm  [0.00 1.00 0.00 0.00]  /CGy    [0.00 0.00 1.00 0.00]
   /CGo  [1.00 0.78 0.00]       /CGp    [1.00 0.67 0.67]
   /CGw  [1   ]                 /CGgrl  [0.75]
   /CGgr [0.50]                 /CGgrd  [0.25]
   /CGk  [0   ]
   /CIr  [1.00 0.33 0.33]       /CIg    [0.33 1.00 0.33]
   /CIb  [0.33 0.33 1.00]       /CIc    [1.00 0.00 0.00 0.00]
   /CIm  [0.00 1.00 0.00 0.00]  /CIy    [0.00 0.00 1.00 0.00]
   /CIo  [1.00 0.78 0.00]       /CIp    [1.00 0.67 0.67]
   /CIw  [1   ]                 /CIgrl  [0.75]
   /CIgr [0.50]                 /CIgrd  [0.25]
   /CIk  [0   ]
>> def

/grayColorMap
<< /Cr   [0   ]                 /Cg     [0   ]
   /Cb   [0   ]                 /Cc     [0   ]
   /Cm   [0   ]                 /Cy     [0   ]
   /Co   [0   ]                 /Cp     [0   ]
   /Cw   [0   ]                 /Cgrl   [0   ]
   /Cgr  [0   ]                 /Cgrd   [0   ]
   /Ck   [0   ]
   /CGr  [0.75]                 /CGg    [1   ]
   /CGb  [0.50]                 /CGc    [0.75]
   /CGm  [0.50]                 /CGy    [1   ]
   /CGo  [0.75]                 /CGp    [1   ]
   /CGw  [0   ]                 /CGgrl  [0.25]
   /CGgr [0.50]                 /CGgrd  [0.75]
   /CGk  [1   ]
   /CIr  [1   ]                 /CIg    [1   ]
   /CIb  [1   ]                 /CIc    [1   ]
   /CIm  [1   ]                 /CIy    [1   ]
   /CIo  [1   ]                 /CIp    [1   ]
   /CIw  [1   ]                 /CIgrl  [1   ]
   /CIgr [1   ]                 /CIgrd  [1   ]
   /CIk  [1   ]
>> def

/bwColorMap
<< /Cr   [0   ]                 /Cg     [0   ]
   /Cb   [0   ]                 /Cc     [0   ]
   /Cm   [0   ]                 /Cy     [0   ]
   /Co   [0   ]                 /Cp     [0   ]
   /Cw   [0   ]                 /Cgrl   [0   ]
   /Cgr  [0   ]                 /Cgrd   [0   ]
   /Ck   [0   ]
   /CGr  [1   ]                 /CGg    [1   ]
   /CGb  [1   ]                 /CGc    [1   ]
   /CGm  [1   ]                 /CGy    [1   ]
   /CGo  [1   ]                 /CGp    [1   ]
   /CGw  [0   ]                 /CGgrl  [1   ]
   /CGgr [1   ]                 /CGgrd  [1   ]
   /CGk  [1   ]
   /CIr  [1   ]                 /CIg    [1   ]
   /CIb  [1   ]                 /CIc    [1   ]
   /CIm  [1   ]                 /CIy    [1   ]
   /CIo  [1   ]                 /CIp    [1   ]
   /CIw  [1   ]                 /CIgrl  [1   ]
   /CIgr [1   ]                 /CIgrd  [1   ]
   /CIk  [1   ]
>> def

%
% The following routines handle the alignment of and printing of
% tagged strings.
%

% Predefine the bounding box values.
/bbllx 0 def /bblly 0 def /bburx 0 def /bbury 0 def

% This routine pops the first unicode character off of a string and returns
% the remainder of the string, the character code of first character,
% and a "true" if the string was non-zero length.
% <string>      popfirst <remaining string> <true>
% <null string> popfirst <false>
/popfirst {
  dup length 1 gt
    {dup 0 get /vg&fbyte exch def
     dup 1 get /vg&cbyte exch def
     dup length 2 sub 2 exch getinterval true}
    {pop false} ifelse
} def

% This routine shows a single unicode character given the font and
% character codes.
% <font code> <char code> unicharshow --
/unicharshow {
  2 string
  dup 0 5 -1 roll put
  dup 1 4 -1 roll put
  internalshow
} def

% This is an internal routine to alternate between determining the
% bounding box for stringsize and showing the string for recshow.
% <string> internalshow --
/internalshow {show} def

% This is an internal routine to alternate between determining the
% bounding box for stringsize and stroking various ornaments.
% <string> internalstroke --
/internalstroke {S} def

% Sets up internalshow to use the null device to determine string size.
% -- nullinternalshow --
/nullinternalshow {/internalshow {false charpath flattenpath
                                  pathbbox updatebbox} def} def

% Sets up internalstroke to use the null device to determine string size.
% -- nullinternalstroke --
/nullinternalstroke {
 /internalstroke {flattenpath pathbbox updatebbox} def} def

% This routine tests to see if the character code matches the first
% character of a string.
% <char code> <string> testchar <char code> <true or false>
/testchar {exch dup 3 -1 roll 0 get eq} def

% Raise the text baseline for superscripts.
% -- raise --
/raise {
  0 fontsize 2 div rmoveto
  /fontsize fontsize 2 mul 3 div def
  currentfont /FontName get fontsize sf
} def

% Un-raise the text baseline for superscripts.
% -- unraise --
/unraise {
  /fontsize fontsize 1.5 mul def
  0 fontsize 2 div neg rmoveto
} def

% Lower the text baseline for subscripts.
% -- lower --
/lower {
  0 fontsize 3 div neg rmoveto
  /fontsize fontsize 2 mul 3 div def
  currentfont /FontName get fontsize sf
} def

% Un-lower the text baseline for subscripts.
% -- unlower --
/unlower {
  /fontsize fontsize 1.5 mul def
  0 fontsize 3 div rmoveto
} def

% Compare the top two elements on the stack and leave only the
% larger one.
/maxval {2 copy gt {pop} {exch pop} ifelse} def

% Tokenize a string.  Do not use the usual PostScript token because
% parentheses will not be interpreted correctly because of rescanning
% of the string.
/vg&token {/vg&string exch def /vg&index -1 def /vg&level 0 def
0 2 vg&string length 2 sub {
  dup dup 1 add exch vg&string exch get 8 bitshift vg&string 3 -1 roll get or
  dup 16#f0fe eq {pop 1}{16#f0ff eq {-1}{0} ifelse} ifelse
  /vg&level exch vg&level add def
  vg&level 0 eq {/vg&index exch def exit} if pop
} for
vg&index 0 ge {
  vg&string vg&index 2 add dup vg&string length exch sub getinterval
  vg&index 2 gt {vg&string 2 vg&index 2 sub getinterval}{()} ifelse
  true}
{false} ifelse
} bind def

% Recursively show an unicode string.
% <string> recshow --
/recshow {
  popfirst
  {
    % Test to see if this is a string attribute.
    vg&fbyte 16#f0 and 16#e0 eq
    {
      q

      % Font style.
      currentfont dup /FontStyleBits known {/FontStyleBits get}{pop 0} ifelse
      vg&cbyte or vg&fontstyles exch get fontsize exch exec

      vg&token pop recshow currentpoint Q m recshow
    }
    {
      vg&fbyte 16#F8 and 16#F0 eq {

        % Superscript and/or subscript.
        vg&cbyte 16#00 eq {
          vg&token pop exch vg&token pop 3 -1 roll
          q raise recshow unraise currentpoint pop Q exch
          q lower recshow unlower currentpoint pop Q
          maxval currentpoint exch pop m recshow } if

        % Strikeout.
        vg&cbyte 16#01 eq {
          vg&token pop currentpoint 3 -1 roll recshow
          q 0 J vg&underline vg&uthick w
          currentpoint 4 -2 roll fontsize 3 div add moveto
          fontsize 3 div add lineto internalstroke Q
          recshow} if

        % Underline.
        vg&cbyte 16#02 eq {
          vg&token pop currentpoint 3 -1 roll recshow
          q 0 J vg&underline vg&uthick w
          currentpoint 4 -2 roll vg&uoffset add moveto
          vg&uoffset add lineto internalstroke Q
          recshow} if

        % Dashed underline.
        vg&cbyte 16#03 eq {
          vg&token pop currentpoint 3 -1 roll recshow
          q 0 J [ vg&uthick 5 mul vg&uthick 2 mul] 0 d
          vg&underline vg&uthick w
          currentpoint 4 -2 roll vg&uoffset add moveto
          vg&uoffset add lineto internalstroke Q
          recshow} if

        % Dotted underline.
        vg&cbyte 16#04 eq {
          vg&token pop currentpoint 3 -1 roll recshow
          q 1 J [ 0 vg&uthick 3 mul] 0 d
          vg&underline vg&uthick w
          currentpoint 4 -2 roll vg&uoffset add moveto
          vg&uoffset add lineto internalstroke Q
          recshow} if

        % Thick underline.
        vg&cbyte 16#05 eq {
          vg&token pop currentpoint 3 -1 roll recshow
          q 0 J vg&underline vg&uthick 2 mul w
          currentpoint 4 -2 roll vg&uoffset vg&uthick 2 div sub add moveto
          vg&uoffset vg&uthick 2 div sub add lineto internalstroke Q
          recshow} if

        % Gray thick underline.
        vg&cbyte 16#06 eq {
          vg&token pop currentpoint 3 -1 roll recshow
          q 0 J vg&underline vg&uthick 2 mul w 0.5 setgray
          currentpoint 4 -2 roll vg&uoffset vg&uthick 2 div sub add moveto
          vg&uoffset vg&uthick 2 div sub add lineto internalstroke Q
          recshow} if

        % Overbar.
        vg&cbyte 16#07 eq {
          vg&token pop dup stringsize relative 4 1 roll pop pop exch
          3 -1 roll recshow
          q 0 J vg&underline vg&uthick w
          vg&uoffset neg add dup currentpoint pop exch m l internalstroke Q
          recshow} if
      }
      {
        vg&fbyte vg&cbyte unicharshow recshow
      } ifelse
    } ifelse
  } if
} def

% Get the underline position and thickness from the current font.
/vg&underline {

currentfont dup /FontType get 0 eq {/FDepVector get 0 get} if
dup dup /FontInfo known {
  /FontInfo get dup
  dup /UnderlinePosition known {
    /UnderlinePosition get /vg&uoffset exch def
  }
  {
    pop /vg&uoffset 0 def
  } ifelse
  dup /UnderlineThickness known {
    /UnderlineThickness get /vg&uthick exch def
  }
  {
    pop /vg&uthick 0 def
  } ifelse
}
{
  pop /vg&uoffset 0 def /vg&uthick 0 def
} ifelse
/FontMatrix get
currentfont dup /FontType get 0 eq
{/FontMatrix get matrix concatmatrix}{pop} ifelse
dup 0 vg&uoffset 3 -1 roll transform /vg&uoffset exch def pop
0 vg&uthick 3 -1 roll transform /vg&uthick exch def pop
} def

% Make a frame with the coordinates on the stack.
% <llx> <lly> <urx> <ury> frame --
/frame {4 copy m 3 1 roll exch l 4 -2 roll l l h} def

% Resets the accumulated bounding box to a degenerate box at the
% current point.
% -- resetbbox --
/resetbbox {
  currentpoint 2 copy
  /bbury exch def
  /bburx exch def
  /bblly exch def
  /bbllx exch def
} def

% Update the accumulated bounding box.
% <llx'> <lly'> <urx'> <ury'> updatebbox --
/updatebbox {
  dup bbury gt {/bbury exch def} {pop} ifelse
  dup bburx gt {/bburx exch def} {pop} ifelse
  dup bblly lt {/bblly exch def} {pop} ifelse
  dup bbllx lt {/bbllx exch def} {pop} ifelse
} def

% Set the bounding box to the values on the stack.
% <llx'> <lly'> <urx'> <ury'> updatebbox --
/restorebbox {
  /bbury exch def /bburx exch def /bblly exch def /bbllx exch def
} def

% Push the accumulated bounding box onto the stack.
% -- pushbbox <llx> <lly> <urx> <ury>
/pushbbox {bbllx bblly bburx bbury} def

% Make the relative bounding box relative to the currentpoint.
% <llx'> <lly'> <urx'> <ury'> inflate <llx> <lly> <urx> <ury>
/inflate {
  2 {fontsize 0.2 mul add 4 1 roll} repeat
  2 {fontsize 0.2 mul sub 4 1 roll} repeat
} def

% Make the relative bounding box relative to the currentpoint.
% <llx'> <lly'> <urx'> <ury'> relative <llx> <lly> <urx> <ury>
/relative {
  currentpoint 3 -1 roll add 3 1 roll add exch 4 2 roll
  currentpoint 3 -1 roll add 3 1 roll add exch 4 2 roll
} def

% Returns the size of a string appropriate for recshow.
% <string> stringsize <llx> <lly> <urx> <ury>
/stringsize {
  pushbbox /internalshow load /internalstroke load 7 -1 roll
  q
  nulldevice 0 0 m
  nullinternalshow nullinternalstroke
  resetbbox
  recshow
  /internalstroke exch def /internalshow exch def
  pushbbox 8 -4 roll restorebbox
  Q
} def

% Calculate values for string positioning.
/calcval {4 copy
  3 -1 roll sub /widy exch def sub neg /widx exch def
  pop pop /dy exch def /dx exch def} def

% Utilities to position a string.
% First letter (U=upper, C=center, B=baseline, L=lower)
% Second letter (L=left, C=center, R=right)
/align [
{calcval dx neg widy dy add neg rmoveto} % UL
{calcval dx neg widy 2 div dy add neg rmoveto} % CL
{calcval dx neg 0 rmoveto} % BL
{calcval dx neg dy neg rmoveto} % LL
{calcval widx dx add neg widy dy add neg rmoveto} % UR
{calcval widx dx add neg widy 2 div dy add neg rmoveto} % CR
{calcval widx dx add neg 0 rmoveto} % BR
{calcval widx dx add neg dy neg rmoveto} % LR
{calcval widx 2 div dx add neg widy dy add neg rmoveto} % UC
{calcval widx 2 div dx add neg widy 2 div dy add neg rmoveto} % CC
{calcval widx 2 div dx add neg 0 rmoveto} % BC
{calcval widx 2 div dx add neg dy neg rmoveto} % LC
] def

/vg&str {m q 1 -1 scale dup stringsize 4 copy align 11 -1 roll get exec
         q inflate relative frame exch exec Q recshow Q} def

end /procDict exch def
%%EndProlog

%%BeginSetup
save
procDict begin
printColorMap begin
964 332 setpagesize
0 0 0 0 setmargins
0 0 setorigin
964 332 setsize
naturalsize
portrait
imagescale
cliptobounds
setbasematrix
/Helvetica 10 sf
defaultGraphicsState
%%EndSetup

0.00000 0.00000 0.00000 RG
[ 1.00000 0.00000 0.00000 1.00000 0.00000 0.00000 ] defaultmatrix matrix concatmatrix setmatrix
cliprestore
1.00000 1.00000 1.00000 RG
newpath
0.00000 0.00000 m
964.000 0.00000 l
964.000 332.000 l
0.00000 332.000 l
0.00000 0.00000 l
h
f
0.00000 0.00000 0.00000 RG
0 0 964 332 rc
q
[ 2.00000 0.00000 0.00000 2.00000 0.00000 0.00000 ] concat
[ 1.00000 0.00000 0.00000 1.00000 -115.000 -37.0000 ] concat
1.00000 1.00000 1.00000 RG
newpath
115.000 37.0000 m
597.000 37.0000 l
597.000 203.000 l
115.000 203.000 l
115.000 37.0000 l
h
f
0.00000 0.00000 0.00000 RG
[ 2.00000 0.00000 0.00000 2.00000 -230.000 -74.0000 ] defaultmatrix matrix concatmatrix setmatrix
[ 2.00000 0.00000 0.00000 2.00000 -230.000 -74.0000 ] defaultmatrix matrix concatmatrix setmatrix
[ 1.00000 0.00000 0.00000 1.00000 0.00000 0.00000 ] defaultmatrix matrix concatmatrix setmatrix
[ 2.00000 0.00000 0.00000 2.00000 -230.000 -74.0000 ] defaultmatrix matrix concatmatrix setmatrix
1.00000 .800000 0.00000 RG
newpath
123.017 135.000 m
210.172 135.000 l
210.172 165.000 l
123.017 165.000 l
123.017 135.000 l
h
f
0.00000 0.00000 0.00000 RG
0 J
1.45000 M
newpath
153.341 145.686 m
153.341 146.842 l
152.893 146.633 152.468 146.475 152.067 146.365  c
151.666 146.256 151.284 146.201 150.919 146.201  c
150.273 146.201 149.776 146.326 149.427 146.576  c
149.078 146.826 148.903 147.186 148.903 147.654  c
148.903 148.040 149.018 148.331 149.247 148.529  c
149.476 148.727 149.919 148.883 150.575 148.998  c
151.278 149.154 l
152.164 149.321 152.817 149.615 153.239 150.037  c
153.661 150.459 153.872 151.024 153.872 151.732  c
153.872 152.587 153.588 153.232 153.021 153.670  c
152.453 154.107 151.617 154.326 150.513 154.326  c
150.106 154.326 149.669 154.279 149.200 154.186  c
148.731 154.092 148.247 153.951 147.747 153.764  c
147.747 152.545 l
148.226 152.816 148.698 153.019 149.161 153.154  c
149.625 153.290 150.075 153.357 150.513 153.357  c
151.190 153.357 151.713 153.225 152.083 152.959  c
152.453 152.693 152.638 152.316 152.638 151.826  c
152.638 151.399 152.505 151.063 152.239 150.818  c
151.974 150.574 151.539 150.394 150.935 150.279  c
150.216 150.139 l
149.330 149.962 148.692 149.686 148.302 149.311  c
147.911 148.936 147.716 148.415 147.716 147.748  c
147.716 146.967 147.987 146.355 148.528 145.912  c
149.070 145.469 149.820 145.248 150.778 145.248  c
151.195 145.248 151.614 145.285 152.036 145.357  c
152.458 145.430 152.893 145.540 153.341 145.686  c
h
161.286 150.607 m
161.286 151.123 l
156.317 151.123 l
156.369 151.873 156.596 152.441 156.997 152.826  c
157.398 153.212 157.953 153.404 158.661 153.404  c
159.078 153.404 159.481 153.355 159.872 153.256  c
160.263 153.157 160.651 153.003 161.036 152.795  c
161.036 153.826 l
160.640 153.982 160.239 154.105 159.833 154.193  c
159.427 154.282 159.015 154.326 158.599 154.326  c
157.557 154.326 156.729 154.021 156.114 153.412  c
155.500 152.803 155.192 151.977 155.192 150.936  c
155.192 149.863 155.484 149.011 156.067 148.381  c
156.651 147.751 157.432 147.436 158.411 147.436  c
159.297 147.436 159.997 147.719 160.513 148.287  c
161.028 148.855 161.286 149.628 161.286 150.607  c
h
160.208 150.279 m
160.198 149.696 160.031 149.227 159.708 148.873  c
159.385 148.519 158.958 148.342 158.427 148.342  c
157.823 148.342 157.341 148.514 156.981 148.857  c
156.622 149.201 156.416 149.680 156.364 150.295  c
160.208 150.279 l
h
166.856 148.592 m
166.731 148.529 166.599 148.480 166.458 148.443  c
166.317 148.407 166.159 148.389 165.981 148.389  c
165.377 148.389 164.911 148.587 164.583 148.982  c
164.255 149.378 164.091 149.951 164.091 150.701  c
164.091 154.154 l
163.013 154.154 l
163.013 147.592 l
164.091 147.592 l
164.091 148.607 l
164.320 148.212 164.617 147.917 164.981 147.725  c
165.346 147.532 165.789 147.436 166.310 147.436  c
166.383 147.436 166.463 147.441 166.552 147.451  c
166.640 147.462 166.737 147.477 166.841 147.498  c
166.856 148.592 l
h
167.212 147.592 m
168.353 147.592 l
170.399 153.092 l
172.462 147.592 l
173.603 147.592 l
171.134 154.154 l
169.665 154.154 l
167.212 147.592 l
h
180.704 150.607 m
180.704 151.123 l
175.735 151.123 l
175.787 151.873 176.014 152.441 176.415 152.826  c
176.816 153.212 177.371 153.404 178.079 153.404  c
178.496 153.404 178.899 153.355 179.290 153.256  c
179.681 153.157 180.069 153.003 180.454 152.795  c
180.454 153.826 l
180.058 153.982 179.657 154.105 179.251 154.193  c
178.845 154.282 178.433 154.326 178.017 154.326  c
176.975 154.326 176.147 154.021 175.532 153.412  c
174.918 152.803 174.610 151.977 174.610 150.936  c
174.610 149.863 174.902 149.011 175.485 148.381  c
176.069 147.751 176.850 147.436 177.829 147.436  c
178.715 147.436 179.415 147.719 179.931 148.287  c
180.446 148.855 180.704 149.628 180.704 150.607  c
h
179.626 150.279 m
179.616 149.696 179.449 149.227 179.126 148.873  c
178.803 148.519 178.376 148.342 177.845 148.342  c
177.241 148.342 176.759 148.514 176.399 148.857  c
176.040 149.201 175.834 149.680 175.782 150.295  c
179.626 150.279 l
h
186.274 148.592 m
186.149 148.529 186.017 148.480 185.876 148.443  c
185.735 148.407 185.577 148.389 185.399 148.389  c
184.795 148.389 184.329 148.587 184.001 148.982  c
183.673 149.378 183.509 149.951 183.509 150.701  c
183.509 154.154 l
182.431 154.154 l
182.431 147.592 l
183.509 147.592 l
183.509 148.607 l
183.738 148.212 184.035 147.917 184.399 147.725  c
184.764 147.532 185.207 147.436 185.728 147.436  c
185.800 147.436 185.881 147.441 185.970 147.451  c
186.058 147.462 186.155 147.477 186.259 147.498  c
186.274 148.592 l
h
f
2 J
10.0000 M
1.00000 .800000 0.00000 RG
0 J
1.45000 M
0.00000 0.00000 0.00000 RG
newpath
123.017 135.000 m
210.172 135.000 l
210.172 165.000 l
123.017 165.000 l
123.017 135.000 l
h
S
2 J
10.0000 M
q
[ 6.12323E-17 1.00000 -1.00000 6.12323E-17 469.461 133.696 ] concat
0 J
1.45000 M
newpath
5.20312 26.1279 m
8.29688 26.1279 l
8.29688 29.8467 l
5.20312 29.8467 l
5.20312 26.1279 l
h
14.7393 26.1279 m
17.8330 26.1279 l
17.8330 29.8467 l
14.7393 29.8467 l
14.7393 26.1279 l
h
24.2754 26.1279 m
27.3691 26.1279 l
27.3691 29.8467 l
24.2754 29.8467 l
24.2754 26.1279 l
h
f
2 J
10.0000 M
Q
1.00000 .800000 0.00000 RG
newpath
303.017 169.000 m
303.017 191.000 l
303.017 193.209 304.808 195.000 307.017 195.000  c
406.017 195.000 l
408.226 195.000 410.017 193.209 410.017 191.000  c
410.017 169.000 l
410.017 166.791 408.226 165.000 406.017 165.000  c
307.017 165.000 l
304.808 165.000 303.017 166.791 303.017 169.000  c
h
f
0.00000 0.00000 0.00000 RG
0 J
1.45000 M
newpath
334.791 182.670 m
336.025 182.670 l
336.025 184.154 l
334.791 184.154 l
334.791 182.670 l
h
334.791 177.951 m
336.025 177.951 l
336.025 179.436 l
334.791 179.436 l
334.791 177.951 l
h
337.396 175.404 m
344.787 175.404 l
344.787 176.404 l
341.693 176.404 l
341.693 184.154 l
340.505 184.154 l
340.505 176.404 l
337.396 176.404 l
337.396 175.404 l
h
351.351 180.186 m
351.351 184.154 l
350.273 184.154 l
350.273 180.232 l
350.273 179.607 350.151 179.141 349.906 178.834  c
349.661 178.527 349.299 178.373 348.820 178.373  c
348.236 178.373 347.776 178.558 347.437 178.928  c
347.098 179.298 346.929 179.805 346.929 180.451  c
346.929 184.154 l
345.851 184.154 l
345.851 175.029 l
346.929 175.029 l
346.929 178.607 l
347.190 178.212 347.494 177.917 347.843 177.725  c
348.192 177.532 348.596 177.436 349.054 177.436  c
349.804 177.436 350.375 177.667 350.765 178.131  c
351.156 178.594 351.351 179.279 351.351 180.186  c
h
357.300 178.592 m
357.175 178.529 357.042 178.480 356.902 178.443  c
356.761 178.407 356.602 178.389 356.425 178.389  c
355.821 178.389 355.355 178.587 355.027 178.982  c
354.699 179.378 354.535 179.951 354.535 180.701  c
354.535 184.154 l
353.457 184.154 l
353.457 177.592 l
354.535 177.592 l
354.535 178.607 l
354.764 178.212 355.061 177.917 355.425 177.725  c
355.790 177.532 356.233 177.436 356.753 177.436  c
356.826 177.436 356.907 177.441 356.996 177.451  c
357.084 177.462 357.181 177.477 357.285 177.498  c
357.300 178.592 l
h
364.046 180.607 m
364.046 181.123 l
359.078 181.123 l
359.130 181.873 359.356 182.441 359.757 182.826  c
360.158 183.212 360.713 183.404 361.421 183.404  c
361.838 183.404 362.242 183.355 362.632 183.256  c
363.023 183.157 363.411 183.003 363.796 182.795  c
363.796 183.826 l
363.401 183.982 363.000 184.105 362.593 184.193  c
362.187 184.282 361.776 184.326 361.359 184.326  c
360.317 184.326 359.489 184.021 358.875 183.412  c
358.260 182.803 357.953 181.977 357.953 180.936  c
357.953 179.863 358.244 179.011 358.828 178.381  c
359.411 177.751 360.192 177.436 361.171 177.436  c
362.057 177.436 362.757 177.719 363.273 178.287  c
363.789 178.855 364.046 179.628 364.046 180.607  c
h
362.968 180.279 m
362.958 179.696 362.791 179.227 362.468 178.873  c
362.145 178.519 361.718 178.342 361.187 178.342  c
360.583 178.342 360.101 178.514 359.742 178.857  c
359.382 179.201 359.177 179.680 359.125 180.295  c
362.968 180.279 l
h
368.789 180.857 m
367.924 180.857 367.322 180.956 366.984 181.154  c
366.645 181.352 366.476 181.691 366.476 182.170  c
366.476 182.555 366.604 182.860 366.859 183.084  c
367.114 183.308 367.455 183.420 367.882 183.420  c
368.486 183.420 368.968 183.209 369.328 182.787  c
369.687 182.365 369.867 181.800 369.867 181.092  c
369.867 180.857 l
368.789 180.857 l
h
370.945 180.404 m
370.945 184.154 l
369.867 184.154 l
369.867 183.154 l
369.617 183.550 369.309 183.844 368.945 184.037  c
368.580 184.230 368.132 184.326 367.601 184.326  c
366.924 184.326 366.388 184.136 365.992 183.756  c
365.596 183.376 365.398 182.873 365.398 182.248  c
365.398 181.508 365.645 180.951 366.140 180.576  c
366.635 180.201 367.372 180.014 368.351 180.014  c
369.867 180.014 l
369.867 179.904 l
369.867 179.404 369.703 179.019 369.375 178.748  c
369.046 178.477 368.591 178.342 368.007 178.342  c
367.632 178.342 367.265 178.389 366.906 178.482  c
366.546 178.576 366.205 178.712 365.882 178.889  c
365.882 177.889 l
366.278 177.732 366.661 177.618 367.031 177.545  c
367.401 177.472 367.763 177.436 368.117 177.436  c
369.065 177.436 369.773 177.680 370.242 178.170  c
370.710 178.660 370.945 179.404 370.945 180.404  c
h
377.486 178.592 m
377.486 175.029 l
378.564 175.029 l
378.564 184.154 l
377.486 184.154 l
377.486 183.170 l
377.257 183.555 376.970 183.844 376.626 184.037  c
376.283 184.230 375.866 184.326 375.376 184.326  c
374.585 184.326 373.939 184.008 373.439 183.373  c
372.939 182.738 372.689 181.904 372.689 180.873  c
372.689 179.842 372.939 179.011 373.439 178.381  c
373.939 177.751 374.585 177.436 375.376 177.436  c
375.866 177.436 376.283 177.529 376.626 177.717  c
376.970 177.904 377.257 178.196 377.486 178.592  c
h
373.814 180.873 m
373.814 181.665 373.975 182.287 374.298 182.740  c
374.621 183.193 375.069 183.420 375.642 183.420  c
376.215 183.420 376.666 183.193 376.994 182.740  c
377.322 182.287 377.486 181.665 377.486 180.873  c
377.486 180.081 377.322 179.462 376.994 179.014  c
376.666 178.566 376.215 178.342 375.642 178.342  c
375.069 178.342 374.621 178.566 374.298 179.014  c
373.975 179.462 373.814 180.081 373.814 180.873  c
h
f
2 J
10.0000 M
1.00000 .800000 0.00000 RG
0 J
1.45000 M
0.00000 0.00000 0.00000 RG
newpath
303.017 169.000 m
303.017 191.000 l
303.017 193.209 304.808 195.000 307.017 195.000  c
406.017 195.000 l
408.226 195.000 410.017 193.209 410.017 191.000  c
410.017 169.000 l
410.017 166.791 408.226 165.000 406.017 165.000  c
307.017 165.000 l
304.808 165.000 303.017 166.791 303.017 169.000  c
h
S
2 J
10.0000 M
1.00000 .800000 0.00000 RG
newpath
467.517 165.000 m
588.517 165.000 l
588.517 195.000 l
467.517 195.000 l
467.517 165.000 l
h
f
0.00000 0.00000 0.00000 RG
0 J
1.45000 M
newpath
502.769 182.670 m
504.003 182.670 l
504.003 184.154 l
502.769 184.154 l
502.769 182.670 l
h
502.769 177.951 m
504.003 177.951 l
504.003 179.436 l
502.769 179.436 l
502.769 177.951 l
h
513.140 176.076 m
513.140 177.326 l
512.734 176.951 512.307 176.673 511.859 176.490  c
511.411 176.308 510.932 176.217 510.421 176.217  c
509.421 176.217 508.656 176.524 508.125 177.139  c
507.593 177.753 507.328 178.639 507.328 179.795  c
507.328 180.941 507.593 181.821 508.125 182.436  c
508.656 183.050 509.421 183.357 510.421 183.357  c
510.932 183.357 511.411 183.264 511.859 183.076  c
512.307 182.889 512.734 182.613 513.140 182.248  c
513.140 183.482 l
512.723 183.764 512.283 183.975 511.820 184.115  c
511.356 184.256 510.869 184.326 510.359 184.326  c
509.026 184.326 507.979 183.920 507.218 183.107  c
506.458 182.295 506.078 181.191 506.078 179.795  c
506.078 178.389 506.458 177.279 507.218 176.467  c
507.979 175.654 509.026 175.248 510.359 175.248  c
510.880 175.248 511.372 175.318 511.835 175.459  c
512.299 175.600 512.734 175.805 513.140 176.076  c
h
520.378 180.186 m
520.378 184.154 l
519.300 184.154 l
519.300 180.232 l
519.300 179.607 519.178 179.141 518.933 178.834  c
518.688 178.527 518.326 178.373 517.847 178.373  c
517.264 178.373 516.803 178.558 516.464 178.928  c
516.126 179.298 515.957 179.805 515.957 180.451  c
515.957 184.154 l
514.878 184.154 l
514.878 175.029 l
515.957 175.029 l
515.957 178.607 l
516.217 178.212 516.522 177.917 516.871 177.725  c
517.220 177.532 517.623 177.436 518.082 177.436  c
518.832 177.436 519.402 177.667 519.792 178.131  c
520.183 178.594 520.378 179.279 520.378 180.186  c
h
525.500 180.857 m
524.635 180.857 524.033 180.956 523.695 181.154  c
523.356 181.352 523.187 181.691 523.187 182.170  c
523.187 182.555 523.315 182.860 523.570 183.084  c
523.825 183.308 524.166 183.420 524.593 183.420  c
525.197 183.420 525.679 183.209 526.039 182.787  c
526.398 182.365 526.578 181.800 526.578 181.092  c
526.578 180.857 l
525.500 180.857 l
h
527.656 180.404 m
527.656 184.154 l
526.578 184.154 l
526.578 183.154 l
526.328 183.550 526.020 183.844 525.656 184.037  c
525.291 184.230 524.843 184.326 524.312 184.326  c
523.635 184.326 523.098 184.136 522.703 183.756  c
522.307 183.376 522.109 182.873 522.109 182.248  c
522.109 181.508 522.356 180.951 522.851 180.576  c
523.346 180.201 524.083 180.014 525.062 180.014  c
526.578 180.014 l
526.578 179.904 l
526.578 179.404 526.414 179.019 526.085 178.748  c
525.757 178.477 525.302 178.342 524.718 178.342  c
524.343 178.342 523.976 178.389 523.617 178.482  c
523.257 178.576 522.916 178.712 522.593 178.889  c
522.593 177.889 l
522.989 177.732 523.372 177.618 523.742 177.545  c
524.111 177.472 524.473 177.436 524.828 177.436  c
525.776 177.436 526.484 177.680 526.953 178.170  c
527.421 178.660 527.656 179.404 527.656 180.404  c
h
535.337 180.186 m
535.337 184.154 l
534.259 184.154 l
534.259 180.232 l
534.259 179.607 534.137 179.141 533.892 178.834  c
533.647 178.527 533.285 178.373 532.806 178.373  c
532.223 178.373 531.762 178.558 531.423 178.928  c
531.085 179.298 530.916 179.805 530.916 180.451  c
530.916 184.154 l
529.837 184.154 l
529.837 177.592 l
530.916 177.592 l
530.916 178.607 l
531.176 178.212 531.481 177.917 531.830 177.725  c
532.179 177.532 532.582 177.436 533.041 177.436  c
533.791 177.436 534.361 177.667 534.751 178.131  c
535.142 178.594 535.337 179.279 535.337 180.186  c
h
542.943 180.186 m
542.943 184.154 l
541.865 184.154 l
541.865 180.232 l
541.865 179.607 541.742 179.141 541.498 178.834  c
541.253 178.527 540.891 178.373 540.412 178.373  c
539.828 178.373 539.367 178.558 539.029 178.928  c
538.690 179.298 538.521 179.805 538.521 180.451  c
538.521 184.154 l
537.443 184.154 l
537.443 177.592 l
538.521 177.592 l
538.521 178.607 l
538.781 178.212 539.086 177.917 539.435 177.725  c
539.784 177.532 540.188 177.436 540.646 177.436  c
541.396 177.436 541.966 177.667 542.357 178.131  c
542.748 178.594 542.943 179.279 542.943 180.186  c
h
550.705 180.607 m
550.705 181.123 l
545.736 181.123 l
545.788 181.873 546.014 182.441 546.416 182.826  c
546.817 183.212 547.371 183.404 548.080 183.404  c
548.496 183.404 548.900 183.355 549.291 183.256  c
549.681 183.157 550.069 183.003 550.455 182.795  c
550.455 183.826 l
550.059 183.982 549.658 184.105 549.251 184.193  c
548.845 184.282 548.434 184.326 548.017 184.326  c
546.975 184.326 546.147 184.021 545.533 183.412  c
544.918 182.803 544.611 181.977 544.611 180.936  c
544.611 179.863 544.903 179.011 545.486 178.381  c
546.069 177.751 546.850 177.436 547.830 177.436  c
548.715 177.436 549.416 177.719 549.931 178.287  c
550.447 178.855 550.705 179.628 550.705 180.607  c
h
549.626 180.279 m
549.616 179.696 549.449 179.227 549.126 178.873  c
548.804 178.519 548.376 178.342 547.845 178.342  c
547.241 178.342 546.759 178.514 546.400 178.857  c
546.041 179.201 545.835 179.680 545.783 180.295  c
549.626 180.279 l
h
552.462 175.029 m
553.541 175.029 l
553.541 184.154 l
552.462 184.154 l
552.462 175.029 l
h
f
2 J
10.0000 M
1.00000 .800000 0.00000 RG
0 J
1.45000 M
0.00000 0.00000 0.00000 RG
newpath
467.517 165.000 m
588.517 165.000 l
588.517 195.000 l
467.517 195.000 l
467.517 165.000 l
h
S
2 J
10.0000 M
1.00000 .800000 0.00000 RG
newpath
303.017 97.0000 m
303.017 119.000 l
303.017 121.209 304.808 123.000 307.017 123.000  c
406.017 123.000 l
408.226 123.000 410.017 121.209 410.017 119.000  c
410.017 97.0000 l
410.017 94.7909 408.226 93.0000 406.017 93.0000  c
307.017 93.0000 l
304.808 93.0000 303.017 94.7909 303.017 97.0000  c
h
f
0.00000 0.00000 0.00000 RG
0 J
1.45000 M
newpath
334.791 110.670 m
336.025 110.670 l
336.025 112.154 l
334.791 112.154 l
334.791 110.670 l
h
334.791 105.951 m
336.025 105.951 l
336.025 107.436 l
334.791 107.436 l
334.791 105.951 l
h
337.396 103.404 m
344.787 103.404 l
344.787 104.404 l
341.693 104.404 l
341.693 112.154 l
340.505 112.154 l
340.505 104.404 l
337.396 104.404 l
337.396 103.404 l
h
351.351 108.186 m
351.351 112.154 l
350.273 112.154 l
350.273 108.232 l
350.273 107.607 350.151 107.141 349.906 106.834  c
349.661 106.527 349.299 106.373 348.820 106.373  c
348.236 106.373 347.776 106.558 347.437 106.928  c
347.098 107.298 346.929 107.805 346.929 108.451  c
346.929 112.154 l
345.851 112.154 l
345.851 103.029 l
346.929 103.029 l
346.929 106.607 l
347.190 106.212 347.494 105.917 347.843 105.725  c
348.192 105.532 348.596 105.436 349.054 105.436  c
349.804 105.436 350.375 105.667 350.765 106.131  c
351.156 106.594 351.351 107.279 351.351 108.186  c
h
357.300 106.592 m
357.175 106.529 357.042 106.480 356.902 106.443  c
356.761 106.407 356.602 106.389 356.425 106.389  c
355.821 106.389 355.355 106.587 355.027 106.982  c
354.699 107.378 354.535 107.951 354.535 108.701  c
354.535 112.154 l
353.457 112.154 l
353.457 105.592 l
354.535 105.592 l
354.535 106.607 l
354.764 106.212 355.061 105.917 355.425 105.725  c
355.790 105.532 356.233 105.436 356.753 105.436  c
356.826 105.436 356.907 105.441 356.996 105.451  c
357.084 105.462 357.181 105.477 357.285 105.498  c
357.300 106.592 l
h
364.046 108.607 m
364.046 109.123 l
359.078 109.123 l
359.130 109.873 359.356 110.441 359.757 110.826  c
360.158 111.212 360.713 111.404 361.421 111.404  c
361.838 111.404 362.242 111.355 362.632 111.256  c
363.023 111.157 363.411 111.003 363.796 110.795  c
363.796 111.826 l
363.401 111.982 363.000 112.105 362.593 112.193  c
362.187 112.282 361.776 112.326 361.359 112.326  c
360.317 112.326 359.489 112.021 358.875 111.412  c
358.260 110.803 357.953 109.977 357.953 108.936  c
357.953 107.863 358.244 107.011 358.828 106.381  c
359.411 105.751 360.192 105.436 361.171 105.436  c
362.057 105.436 362.757 105.719 363.273 106.287  c
363.789 106.855 364.046 107.628 364.046 108.607  c
h
362.968 108.279 m
362.958 107.696 362.791 107.227 362.468 106.873  c
362.145 106.519 361.718 106.342 361.187 106.342  c
360.583 106.342 360.101 106.514 359.742 106.857  c
359.382 107.201 359.177 107.680 359.125 108.295  c
362.968 108.279 l
h
368.789 108.857 m
367.924 108.857 367.322 108.956 366.984 109.154  c
366.645 109.352 366.476 109.691 366.476 110.170  c
366.476 110.555 366.604 110.860 366.859 111.084  c
367.114 111.308 367.455 111.420 367.882 111.420  c
368.486 111.420 368.968 111.209 369.328 110.787  c
369.687 110.365 369.867 109.800 369.867 109.092  c
369.867 108.857 l
368.789 108.857 l
h
370.945 108.404 m
370.945 112.154 l
369.867 112.154 l
369.867 111.154 l
369.617 111.550 369.309 111.844 368.945 112.037  c
368.580 112.230 368.132 112.326 367.601 112.326  c
366.924 112.326 366.388 112.136 365.992 111.756  c
365.596 111.376 365.398 110.873 365.398 110.248  c
365.398 109.508 365.645 108.951 366.140 108.576  c
366.635 108.201 367.372 108.014 368.351 108.014  c
369.867 108.014 l
369.867 107.904 l
369.867 107.404 369.703 107.019 369.375 106.748  c
369.046 106.477 368.591 106.342 368.007 106.342  c
367.632 106.342 367.265 106.389 366.906 106.482  c
366.546 106.576 366.205 106.712 365.882 106.889  c
365.882 105.889 l
366.278 105.732 366.661 105.618 367.031 105.545  c
367.401 105.472 367.763 105.436 368.117 105.436  c
369.065 105.436 369.773 105.680 370.242 106.170  c
370.710 106.660 370.945 107.404 370.945 108.404  c
h
377.486 106.592 m
377.486 103.029 l
378.564 103.029 l
378.564 112.154 l
377.486 112.154 l
377.486 111.170 l
377.257 111.555 376.970 111.844 376.626 112.037  c
376.283 112.230 375.866 112.326 375.376 112.326  c
374.585 112.326 373.939 112.008 373.439 111.373  c
372.939 110.738 372.689 109.904 372.689 108.873  c
372.689 107.842 372.939 107.011 373.439 106.381  c
373.939 105.751 374.585 105.436 375.376 105.436  c
375.866 105.436 376.283 105.529 376.626 105.717  c
376.970 105.904 377.257 106.196 377.486 106.592  c
h
373.814 108.873 m
373.814 109.665 373.975 110.287 374.298 110.740  c
374.621 111.193 375.069 111.420 375.642 111.420  c
376.215 111.420 376.666 111.193 376.994 110.740  c
377.322 110.287 377.486 109.665 377.486 108.873  c
377.486 108.081 377.322 107.462 376.994 107.014  c
376.666 106.566 376.215 106.342 375.642 106.342  c
375.069 106.342 374.621 106.566 374.298 107.014  c
373.975 107.462 373.814 108.081 373.814 108.873  c
h
f
2 J
10.0000 M
1.00000 .800000 0.00000 RG
0 J
1.45000 M
0.00000 0.00000 0.00000 RG
newpath
303.017 97.0000 m
303.017 119.000 l
303.017 121.209 304.808 123.000 307.017 123.000  c
406.017 123.000 l
408.226 123.000 410.017 121.209 410.017 119.000  c
410.017 97.0000 l
410.017 94.7909 408.226 93.0000 406.017 93.0000  c
307.017 93.0000 l
304.808 93.0000 303.017 94.7909 303.017 97.0000  c
h
S
2 J
10.0000 M
1.00000 .800000 0.00000 RG
newpath
467.517 93.0000 m
588.517 93.0000 l
588.517 123.000 l
467.517 123.000 l
467.517 93.0000 l
h
f
0.00000 0.00000 0.00000 RG
0 J
1.45000 M
newpath
502.769 110.670 m
504.003 110.670 l
504.003 112.154 l
502.769 112.154 l
502.769 110.670 l
h
502.769 105.951 m
504.003 105.951 l
504.003 107.436 l
502.769 107.436 l
502.769 105.951 l
h
513.140 104.076 m
513.140 105.326 l
512.734 104.951 512.307 104.673 511.859 104.490  c
511.411 104.308 510.932 104.217 510.421 104.217  c
509.421 104.217 508.656 104.524 508.125 105.139  c
507.593 105.753 507.328 106.639 507.328 107.795  c
507.328 108.941 507.593 109.821 508.125 110.436  c
508.656 111.050 509.421 111.357 510.421 111.357  c
510.932 111.357 511.411 111.264 511.859 111.076  c
512.307 110.889 512.734 110.613 513.140 110.248  c
513.140 111.482 l
512.723 111.764 512.283 111.975 511.820 112.115  c
511.356 112.256 510.869 112.326 510.359 112.326  c
509.026 112.326 507.979 111.920 507.218 111.107  c
506.458 110.295 506.078 109.191 506.078 107.795  c
506.078 106.389 506.458 105.279 507.218 104.467  c
507.979 103.654 509.026 103.248 510.359 103.248  c
510.880 103.248 511.372 103.318 511.835 103.459  c
512.299 103.600 512.734 103.805 513.140 104.076  c
h
520.378 108.186 m
520.378 112.154 l
519.300 112.154 l
519.300 108.232 l
519.300 107.607 519.178 107.141 518.933 106.834  c
518.688 106.527 518.326 106.373 517.847 106.373  c
517.264 106.373 516.803 106.558 516.464 106.928  c
516.126 107.298 515.957 107.805 515.957 108.451  c
515.957 112.154 l
514.878 112.154 l
514.878 103.029 l
515.957 103.029 l
515.957 106.607 l
516.217 106.212 516.522 105.917 516.871 105.725  c
517.220 105.532 517.623 105.436 518.082 105.436  c
518.832 105.436 519.402 105.667 519.792 106.131  c
520.183 106.594 520.378 107.279 520.378 108.186  c
h
525.500 108.857 m
524.635 108.857 524.033 108.956 523.695 109.154  c
523.356 109.352 523.187 109.691 523.187 110.170  c
523.187 110.555 523.315 110.860 523.570 111.084  c
523.825 111.308 524.166 111.420 524.593 111.420  c
525.197 111.420 525.679 111.209 526.039 110.787  c
526.398 110.365 526.578 109.800 526.578 109.092  c
526.578 108.857 l
525.500 108.857 l
h
527.656 108.404 m
527.656 112.154 l
526.578 112.154 l
526.578 111.154 l
526.328 111.550 526.020 111.844 525.656 112.037  c
525.291 112.230 524.843 112.326 524.312 112.326  c
523.635 112.326 523.098 112.136 522.703 111.756  c
522.307 111.376 522.109 110.873 522.109 110.248  c
522.109 109.508 522.356 108.951 522.851 108.576  c
523.346 108.201 524.083 108.014 525.062 108.014  c
526.578 108.014 l
526.578 107.904 l
526.578 107.404 526.414 107.019 526.085 106.748  c
525.757 106.477 525.302 106.342 524.718 106.342  c
524.343 106.342 523.976 106.389 523.617 106.482  c
523.257 106.576 522.916 106.712 522.593 106.889  c
522.593 105.889 l
522.989 105.732 523.372 105.618 523.742 105.545  c
524.111 105.472 524.473 105.436 524.828 105.436  c
525.776 105.436 526.484 105.680 526.953 106.170  c
527.421 106.660 527.656 107.404 527.656 108.404  c
h
535.337 108.186 m
535.337 112.154 l
534.259 112.154 l
534.259 108.232 l
534.259 107.607 534.137 107.141 533.892 106.834  c
533.647 106.527 533.285 106.373 532.806 106.373  c
532.223 106.373 531.762 106.558 531.423 106.928  c
531.085 107.298 530.916 107.805 530.916 108.451  c
530.916 112.154 l
529.837 112.154 l
529.837 105.592 l
530.916 105.592 l
530.916 106.607 l
531.176 106.212 531.481 105.917 531.830 105.725  c
532.179 105.532 532.582 105.436 533.041 105.436  c
533.791 105.436 534.361 105.667 534.751 106.131  c
535.142 106.594 535.337 107.279 535.337 108.186  c
h
542.943 108.186 m
542.943 112.154 l
541.865 112.154 l
541.865 108.232 l
541.865 107.607 541.742 107.141 541.498 106.834  c
541.253 106.527 540.891 106.373 540.412 106.373  c
539.828 106.373 539.367 106.558 539.029 106.928  c
538.690 107.298 538.521 107.805 538.521 108.451  c
538.521 112.154 l
537.443 112.154 l
537.443 105.592 l
538.521 105.592 l
538.521 106.607 l
538.781 106.212 539.086 105.917 539.435 105.725  c
539.784 105.532 540.188 105.436 540.646 105.436  c
541.396 105.436 541.966 105.667 542.357 106.131  c
542.748 106.594 542.943 107.279 542.943 108.186  c
h
550.705 108.607 m
550.705 109.123 l
545.736 109.123 l
545.788 109.873 546.014 110.441 546.416 110.826  c
546.817 111.212 547.371 111.404 548.080 111.404  c
548.496 111.404 548.900 111.355 549.291 111.256  c
549.681 111.157 550.069 111.003 550.455 110.795  c
550.455 111.826 l
550.059 111.982 549.658 112.105 549.251 112.193  c
548.845 112.282 548.434 112.326 548.017 112.326  c
546.975 112.326 546.147 112.021 545.533 111.412  c
544.918 110.803 544.611 109.977 544.611 108.936  c
544.611 107.863 544.903 107.011 545.486 106.381  c
546.069 105.751 546.850 105.436 547.830 105.436  c
548.715 105.436 549.416 105.719 549.931 106.287  c
550.447 106.855 550.705 107.628 550.705 108.607  c
h
549.626 108.279 m
549.616 107.696 549.449 107.227 549.126 106.873  c
548.804 106.519 548.376 106.342 547.845 106.342  c
547.241 106.342 546.759 106.514 546.400 106.857  c
546.041 107.201 545.835 107.680 545.783 108.295  c
549.626 108.279 l
h
552.462 103.029 m
553.541 103.029 l
553.541 112.154 l
552.462 112.154 l
552.462 103.029 l
h
f
2 J
10.0000 M
1.00000 .800000 0.00000 RG
0 J
1.45000 M
0.00000 0.00000 0.00000 RG
newpath
467.517 93.0000 m
588.517 93.0000 l
588.517 123.000 l
467.517 123.000 l
467.517 93.0000 l
h
S
2 J
10.0000 M
1.00000 .800000 0.00000 RG
newpath
303.017 49.0000 m
303.017 71.0000 l
303.017 73.2091 304.808 75.0000 307.017 75.0000  c
406.017 75.0000 l
408.226 75.0000 410.017 73.2091 410.017 71.0000  c
410.017 49.0000 l
410.017 46.7909 408.226 45.0000 406.017 45.0000  c
307.017 45.0000 l
304.808 45.0000 303.017 46.7909 303.017 49.0000  c
h
f
0.00000 0.00000 0.00000 RG
0 J
1.45000 M
newpath
334.791 62.6699 m
336.025 62.6699 l
336.025 64.1543 l
334.791 64.1543 l
334.791 62.6699 l
h
334.791 57.9512 m
336.025 57.9512 l
336.025 59.4355 l
334.791 59.4355 l
334.791 57.9512 l
h
337.396 55.4043 m
344.787 55.4043 l
344.787 56.4043 l
341.693 56.4043 l
341.693 64.1543 l
340.505 64.1543 l
340.505 56.4043 l
337.396 56.4043 l
337.396 55.4043 l
h
351.351 60.1855 m
351.351 64.1543 l
350.273 64.1543 l
350.273 60.2324 l
350.273 59.6074 350.151 59.1413 349.906 58.8340  c
349.661 58.5267 349.299 58.3730 348.820 58.3730  c
348.236 58.3730 347.776 58.5579 347.437 58.9277  c
347.098 59.2975 346.929 59.8053 346.929 60.4512  c
346.929 64.1543 l
345.851 64.1543 l
345.851 55.0293 l
346.929 55.0293 l
346.929 58.6074 l
347.190 58.2116 347.494 57.9173 347.843 57.7246  c
348.192 57.5319 348.596 57.4355 349.054 57.4355  c
349.804 57.4355 350.375 57.6673 350.765 58.1309  c
351.156 58.5944 351.351 59.2793 351.351 60.1855  c
h
357.300 58.5918 m
357.175 58.5293 357.042 58.4798 356.902 58.4434  c
356.761 58.4069 356.602 58.3887 356.425 58.3887  c
355.821 58.3887 355.355 58.5866 355.027 58.9824  c
354.699 59.3783 354.535 59.9512 354.535 60.7012  c
354.535 64.1543 l
353.457 64.1543 l
353.457 57.5918 l
354.535 57.5918 l
354.535 58.6074 l
354.764 58.2116 355.061 57.9173 355.425 57.7246  c
355.790 57.5319 356.233 57.4355 356.753 57.4355  c
356.826 57.4355 356.907 57.4408 356.996 57.4512  c
357.084 57.4616 357.181 57.4772 357.285 57.4980  c
357.300 58.5918 l
h
364.046 60.6074 m
364.046 61.1230 l
359.078 61.1230 l
359.130 61.8730 359.356 62.4408 359.757 62.8262  c
360.158 63.2116 360.713 63.4043 361.421 63.4043  c
361.838 63.4043 362.242 63.3548 362.632 63.2559  c
363.023 63.1569 363.411 63.0033 363.796 62.7949  c
363.796 63.8262 l
363.401 63.9824 363.000 64.1048 362.593 64.1934  c
362.187 64.2819 361.776 64.3262 361.359 64.3262  c
360.317 64.3262 359.489 64.0215 358.875 63.4121  c
358.260 62.8027 357.953 61.9772 357.953 60.9355  c
357.953 59.8626 358.244 59.0111 358.828 58.3809  c
359.411 57.7507 360.192 57.4355 361.171 57.4355  c
362.057 57.4355 362.757 57.7194 363.273 58.2871  c
363.789 58.8548 364.046 59.6283 364.046 60.6074  c
h
362.968 60.2793 m
362.958 59.6960 362.791 59.2272 362.468 58.8730  c
362.145 58.5189 361.718 58.3418 361.187 58.3418  c
360.583 58.3418 360.101 58.5137 359.742 58.8574  c
359.382 59.2012 359.177 59.6803 359.125 60.2949  c
362.968 60.2793 l
h
368.789 60.8574 m
367.924 60.8574 367.322 60.9564 366.984 61.1543  c
366.645 61.3522 366.476 61.6908 366.476 62.1699  c
366.476 62.5553 366.604 62.8600 366.859 63.0840  c
367.114 63.3079 367.455 63.4199 367.882 63.4199  c
368.486 63.4199 368.968 63.2090 369.328 62.7871  c
369.687 62.3652 369.867 61.8001 369.867 61.0918  c
369.867 60.8574 l
368.789 60.8574 l
h
370.945 60.4043 m
370.945 64.1543 l
369.867 64.1543 l
369.867 63.1543 l
369.617 63.5501 369.309 63.8444 368.945 64.0371  c
368.580 64.2298 368.132 64.3262 367.601 64.3262  c
366.924 64.3262 366.388 64.1361 365.992 63.7559  c
365.596 63.3757 365.398 62.8730 365.398 62.2480  c
365.398 61.5085 365.645 60.9512 366.140 60.5762  c
366.635 60.2012 367.372 60.0137 368.351 60.0137  c
369.867 60.0137 l
369.867 59.9043 l
369.867 59.4043 369.703 59.0189 369.375 58.7480  c
369.046 58.4772 368.591 58.3418 368.007 58.3418  c
367.632 58.3418 367.265 58.3887 366.906 58.4824  c
366.546 58.5762 366.205 58.7116 365.882 58.8887  c
365.882 57.8887 l
366.278 57.7324 366.661 57.6178 367.031 57.5449  c
367.401 57.4720 367.763 57.4355 368.117 57.4355  c
369.065 57.4355 369.773 57.6803 370.242 58.1699  c
370.710 58.6595 370.945 59.4043 370.945 60.4043  c
h
377.486 58.5918 m
377.486 55.0293 l
378.564 55.0293 l
378.564 64.1543 l
377.486 64.1543 l
377.486 63.1699 l
377.257 63.5553 376.970 63.8444 376.626 64.0371  c
376.283 64.2298 375.866 64.3262 375.376 64.3262  c
374.585 64.3262 373.939 64.0085 373.439 63.3730  c
372.939 62.7376 372.689 61.9043 372.689 60.8730  c
372.689 59.8418 372.939 59.0111 373.439 58.3809  c
373.939 57.7507 374.585 57.4355 375.376 57.4355  c
375.866 57.4355 376.283 57.5293 376.626 57.7168  c
376.970 57.9043 377.257 58.1960 377.486 58.5918  c
h
373.814 60.8730 m
373.814 61.6647 373.975 62.2871 374.298 62.7402  c
374.621 63.1934 375.069 63.4199 375.642 63.4199  c
376.215 63.4199 376.666 63.1934 376.994 62.7402  c
377.322 62.2871 377.486 61.6647 377.486 60.8730  c
377.486 60.0814 377.322 59.4616 376.994 59.0137  c
376.666 58.5658 376.215 58.3418 375.642 58.3418  c
375.069 58.3418 374.621 58.5658 374.298 59.0137  c
373.975 59.4616 373.814 60.0814 373.814 60.8730  c
h
f
2 J
10.0000 M
1.00000 .800000 0.00000 RG
0 J
1.45000 M
0.00000 0.00000 0.00000 RG
newpath
303.017 49.0000 m
303.017 71.0000 l
303.017 73.2091 304.808 75.0000 307.017 75.0000  c
406.017 75.0000 l
408.226 75.0000 410.017 73.2091 410.017 71.0000  c
410.017 49.0000 l
410.017 46.7909 408.226 45.0000 406.017 45.0000  c
307.017 45.0000 l
304.808 45.0000 303.017 46.7909 303.017 49.0000  c
h
S
2 J
10.0000 M
1.00000 .800000 0.00000 RG
newpath
467.517 45.0000 m
588.517 45.0000 l
588.517 75.0000 l
467.517 75.0000 l
467.517 45.0000 l
h
f
0.00000 0.00000 0.00000 RG
0 J
1.45000 M
newpath
502.769 62.6699 m
504.003 62.6699 l
504.003 64.1543 l
502.769 64.1543 l
502.769 62.6699 l
h
502.769 57.9512 m
504.003 57.9512 l
504.003 59.4355 l
502.769 59.4355 l
502.769 57.9512 l
h
513.140 56.0762 m
513.140 57.3262 l
512.734 56.9512 512.307 56.6725 511.859 56.4902  c
511.411 56.3079 510.932 56.2168 510.421 56.2168  c
509.421 56.2168 508.656 56.5241 508.125 57.1387  c
507.593 57.7533 507.328 58.6387 507.328 59.7949  c
507.328 60.9408 507.593 61.8210 508.125 62.4355  c
508.656 63.0501 509.421 63.3574 510.421 63.3574  c
510.932 63.3574 511.411 63.2637 511.859 63.0762  c
512.307 62.8887 512.734 62.6126 513.140 62.2480  c
513.140 63.4824 l
512.723 63.7637 512.283 63.9746 511.820 64.1152  c
511.356 64.2559 510.869 64.3262 510.359 64.3262  c
509.026 64.3262 507.979 63.9199 507.218 63.1074  c
506.458 62.2949 506.078 61.1908 506.078 59.7949  c
506.078 58.3887 506.458 57.2793 507.218 56.4668  c
507.979 55.6543 509.026 55.2480 510.359 55.2480  c
510.880 55.2480 511.372 55.3184 511.835 55.4590  c
512.299 55.5996 512.734 55.8053 513.140 56.0762  c
h
520.378 60.1855 m
520.378 64.1543 l
519.300 64.1543 l
519.300 60.2324 l
519.300 59.6074 519.178 59.1413 518.933 58.8340  c
518.688 58.5267 518.326 58.3730 517.847 58.3730  c
517.264 58.3730 516.803 58.5579 516.464 58.9277  c
516.126 59.2975 515.957 59.8053 515.957 60.4512  c
515.957 64.1543 l
514.878 64.1543 l
514.878 55.0293 l
515.957 55.0293 l
515.957 58.6074 l
516.217 58.2116 516.522 57.9173 516.871 57.7246  c
517.220 57.5319 517.623 57.4355 518.082 57.4355  c
518.832 57.4355 519.402 57.6673 519.792 58.1309  c
520.183 58.5944 520.378 59.2793 520.378 60.1855  c
h
525.500 60.8574 m
524.635 60.8574 524.033 60.9564 523.695 61.1543  c
523.356 61.3522 523.187 61.6908 523.187 62.1699  c
523.187 62.5553 523.315 62.8600 523.570 63.0840  c
523.825 63.3079 524.166 63.4199 524.593 63.4199  c
525.197 63.4199 525.679 63.2090 526.039 62.7871  c
526.398 62.3652 526.578 61.8001 526.578 61.0918  c
526.578 60.8574 l
525.500 60.8574 l
h
527.656 60.4043 m
527.656 64.1543 l
526.578 64.1543 l
526.578 63.1543 l
526.328 63.5501 526.020 63.8444 525.656 64.0371  c
525.291 64.2298 524.843 64.3262 524.312 64.3262  c
523.635 64.3262 523.098 64.1361 522.703 63.7559  c
522.307 63.3757 522.109 62.8730 522.109 62.2480  c
522.109 61.5085 522.356 60.9512 522.851 60.5762  c
523.346 60.2012 524.083 60.0137 525.062 60.0137  c
526.578 60.0137 l
526.578 59.9043 l
526.578 59.4043 526.414 59.0189 526.085 58.7480  c
525.757 58.4772 525.302 58.3418 524.718 58.3418  c
524.343 58.3418 523.976 58.3887 523.617 58.4824  c
523.257 58.5762 522.916 58.7116 522.593 58.8887  c
522.593 57.8887 l
522.989 57.7324 523.372 57.6178 523.742 57.5449  c
524.111 57.4720 524.473 57.4355 524.828 57.4355  c
525.776 57.4355 526.484 57.6803 526.953 58.1699  c
527.421 58.6595 527.656 59.4043 527.656 60.4043  c
h
535.337 60.1855 m
535.337 64.1543 l
534.259 64.1543 l
534.259 60.2324 l
534.259 59.6074 534.137 59.1413 533.892 58.8340  c
533.647 58.5267 533.285 58.3730 532.806 58.3730  c
532.223 58.3730 531.762 58.5579 531.423 58.9277  c
531.085 59.2975 530.916 59.8053 530.916 60.4512  c
530.916 64.1543 l
529.837 64.1543 l
529.837 57.5918 l
530.916 57.5918 l
530.916 58.6074 l
531.176 58.2116 531.481 57.9173 531.830 57.7246  c
532.179 57.5319 532.582 57.4355 533.041 57.4355  c
533.791 57.4355 534.361 57.6673 534.751 58.1309  c
535.142 58.5944 535.337 59.2793 535.337 60.1855  c
h
542.943 60.1855 m
542.943 64.1543 l
541.865 64.1543 l
541.865 60.2324 l
541.865 59.6074 541.742 59.1413 541.498 58.8340  c
541.253 58.5267 540.891 58.3730 540.412 58.3730  c
539.828 58.3730 539.367 58.5579 539.029 58.9277  c
538.690 59.2975 538.521 59.8053 538.521 60.4512  c
538.521 64.1543 l
537.443 64.1543 l
537.443 57.5918 l
538.521 57.5918 l
538.521 58.6074 l
538.781 58.2116 539.086 57.9173 539.435 57.7246  c
539.784 57.5319 540.188 57.4355 540.646 57.4355  c
541.396 57.4355 541.966 57.6673 542.357 58.1309  c
542.748 58.5944 542.943 59.2793 542.943 60.1855  c
h
550.705 60.6074 m
550.705 61.1230 l
545.736 61.1230 l
545.788 61.8730 546.014 62.4408 546.416 62.8262  c
546.817 63.2116 547.371 63.4043 548.080 63.4043  c
548.496 63.4043 548.900 63.3548 549.291 63.2559  c
549.681 63.1569 550.069 63.0033 550.455 62.7949  c
550.455 63.8262 l
550.059 63.9824 549.658 64.1048 549.251 64.1934  c
548.845 64.2819 548.434 64.3262 548.017 64.3262  c
546.975 64.3262 546.147 64.0215 545.533 63.4121  c
544.918 62.8027 544.611 61.9772 544.611 60.9355  c
544.611 59.8626 544.903 59.0111 545.486 58.3809  c
546.069 57.7507 546.850 57.4355 547.830 57.4355  c
548.715 57.4355 549.416 57.7194 549.931 58.2871  c
550.447 58.8548 550.705 59.6283 550.705 60.6074  c
h
549.626 60.2793 m
549.616 59.6960 549.449 59.2272 549.126 58.8730  c
548.804 58.5189 548.376 58.3418 547.845 58.3418  c
547.241 58.3418 546.759 58.5137 546.400 58.8574  c
546.041 59.2012 545.835 59.6803 545.783 60.2949  c
549.626 60.2793 l
h
552.462 55.0293 m
553.541 55.0293 l
553.541 64.1543 l
552.462 64.1543 l
552.462 55.0293 l
h
f
2 J
10.0000 M
1.00000 .800000 0.00000 RG
0 J
1.45000 M
0.00000 0.00000 0.00000 RG
newpath
467.517 45.0000 m
588.517 45.0000 l
588.517 75.0000 l
467.517 75.0000 l
467.517 45.0000 l
h
S
2 J
10.0000 M
0 J
1.45000 M
newpath
201.724 164.987 m
212.277 168.885 l
235.568 175.481 l
259.158 180.180 l
283.048 182.981 l
295.039 183.429 l
S
newpath
303.033 183.728 m
291.228 178.284 l
294.039 183.392 l
290.855 188.277 l
h
f
2 J
10.0000 M
0 J
1.45000 M
newpath
409.985 180.000 m
459.517 180.000 l
S
newpath
467.517 180.000 m
455.517 175.000 l
458.517 180.000 l
455.517 185.000 l
h
f
2 J
10.0000 M
0 J
1.45000 M
newpath
195.326 134.991 m
211.479 127.761 l
234.571 119.577 l
258.095 113.349 l
282.051 109.077 l
295.094 107.839 l
S
newpath
303.058 107.082 m
290.640 103.239 l
294.099 107.933 l
291.585 113.194 l
h
f
2 J
10.0000 M
0 J
1.45000 M
newpath
409.985 108.000 m
459.517 108.000 l
S
newpath
467.517 108.000 m
455.517 103.000 l
458.517 108.000 l
455.517 113.000 l
h
f
2 J
10.0000 M
0 J
1.45000 M
newpath
177.449 134.981 m
184.153 125.704 l
203.478 105.136 l
213.802 96.2496 l
224.568 88.2950 l
235.776 81.2723 l
247.426 75.1814 l
259.516 70.0223 l
272.049 65.7950 l
285.023 62.4996 l
295.082 60.7274 l
295.182 60.7205 l
S
newpath
303.130 59.8096 m
290.639 56.2085 l
294.188 60.8344 l
291.777 66.1435 l
h
f
2 J
10.0000 M
0 J
1.45000 M
newpath
409.985 60.0000 m
459.517 60.0000 l
S
newpath
467.517 60.0000 m
455.517 55.0000 l
458.517 60.0000 l
455.517 65.0000 l
h
f
2 J
10.0000 M
Q
[ 1.00000 0.00000 0.00000 1.00000 0.00000 0.00000 ] defaultmatrix matrix concatmatrix setmatrix
cliprestore
end end restore showpage

%%Trailer
%%EOF
