\relax 
\providecommand\hyper@newdestlabel[2]{}
\providecommand\HyperFirstAtBeginDocument{\AtBeginDocument}
\HyperFirstAtBeginDocument{\ifx\hyper@anchor\@undefined
\global\let\oldcontentsline\contentsline
\gdef\contentsline#1#2#3#4{\oldcontentsline{#1}{#2}{#3}}
\global\let\oldnewlabel\newlabel
\gdef\newlabel#1#2{\newlabelxx{#1}#2}
\gdef\newlabelxx#1#2#3#4#5#6{\oldnewlabel{#1}{{#2}{#3}}}
\AtEndDocument{\ifx\hyper@anchor\@undefined
\let\contentsline\oldcontentsline
\let\newlabel\oldnewlabel
\fi}
\fi}
\global\let\hyper@last\relax 
\gdef\HyperFirstAtBeginDocument#1{#1}
\providecommand\HyField@AuxAddToFields[1]{}
\providecommand\HyField@AuxAddToCoFields[2]{}
\catcode `"\active 
\catcode `<\active 
\catcode `>\active 
\@nameuse{es@quoting}
\select@language{spanish}
\@writefile{toc}{\select@language{spanish}}
\@writefile{lof}{\select@language{spanish}}
\@writefile{lot}{\select@language{spanish}}
\select@language{spanish}
\@writefile{toc}{\select@language{spanish}}
\@writefile{lof}{\select@language{spanish}}
\@writefile{lot}{\select@language{spanish}}
\@input{include/Agradecimientos.aux}
\@input{include/Resumen.aux}
\@input{include/Abstract.aux}
\select@language{spanish}
\@writefile{toc}{\select@language{spanish}}
\@writefile{lof}{\select@language{spanish}}
\@writefile{lot}{\select@language{spanish}}
\@writefile{toc}{\contentsline {chapter}{Tabla de Contenidos}{\es@scroman  {xi}}{chapter*.3}}
\@writefile{toc}{\contentsline {chapter}{Tabla de Figuras}{\es@scroman  {xvii}}{chapter*.4}}
\@writefile{toc}{\contentsline {chapter}{Tabla de C\IeC {\'o}digos Fuentes}{\es@scroman  {xix}}{chapter*.5}}
\citation{Meeker13}
\citation{Wu11}
\citation{ashton2009internet}
\@writefile{toc}{\contentsline {chapter}{\numberline {1}Introducci\IeC {\'o}n}{1}{chapter.1}}
\@writefile{lof}{\addvspace {10\p@ }}
\@writefile{lot}{\addvspace {10\p@ }}
\newlabel{ch:introduccion}{{1}{1}{Introducción}{chapter.1}{}}
\@writefile{toc}{\contentsline {section}{\numberline {1.1}Internet de las cosas}{1}{section.1.1}}
\citation{Wu11}
\citation{vermesan13}
\citation{evans2011internet}
\citation{Wu11}
\citation{Wu11}
\@writefile{toc}{\contentsline {subsection}{\numberline {1.1.1}M2M}{2}{subsection.1.1.1}}
\@writefile{lot}{\contentsline {table}{\numberline {1.1}{\ignorespaces Cuadro con los tipos de aplicaciones categorizadas dentro de Internet de las cosas (Fuente \cite  {Wu11}).\relax }}{3}{table.caption.7}}
\newlabel{table:m2mapp}{{1.1}{3}{Cuadro con los tipos de aplicaciones categorizadas dentro de Internet de las cosas (Fuente \cite {Wu11}).\relax }{table.caption.7}{}}
\citation{moore1965cramming}
\citation{intelembint}
\citation{Wu11}
\@writefile{lof}{\contentsline {figure}{\numberline {1.1}{\ignorespaces Cuadro comparativo entre los equipos conectados a Internet y la poblaci\IeC {\'o}n mundial. Fuente Cisco IBSG.\relax }}{4}{figure.caption.6}}
\providecommand*\caption@xref[2]{\@setref\relax\@undefined{#1}}
\newlabel{fig:people_vs_machine}{{1.1}{4}{Cuadro comparativo entre los equipos conectados a Internet y la población mundial. Fuente Cisco IBSG.\relax }{figure.caption.6}{}}
\citation{Wu11}
\@writefile{lof}{\contentsline {figure}{\numberline {1.2}{\ignorespaces Diagrama simplificado que representa las arquitecturas cl\IeC {\'a}sica y moderna de los sistemas M2M.\relax }}{5}{figure.caption.8}}
\newlabel{fig:m2m_arch_types}{{1.2}{5}{Diagrama simplificado que representa las arquitecturas clásica y moderna de los sistemas M2M.\relax }{figure.caption.8}{}}
\citation{upton2013raspberry}
\citation{kushner2011making}
\citation{doukas2012building}
\citation{postel1981internet}
\citation{leiner1985darpa}
\citation{Clements10}
\@writefile{toc}{\contentsline {subsection}{\numberline {1.1.2}Desarrollo de aplicaciones M2M}{6}{subsection.1.1.2}}
\citation{krafzig05}
\citation{Wu11}
\citation{postel1981internet}
\citation{devicehive}
\citation{om2m}
\citation{carriots}
\citation{iobridge}
\citation{sitewhere}
\citation{dawes2009boost}
\citation{apache2009apache}
\citation{netty2014}
\citation{grizzly2014}
\@writefile{toc}{\contentsline {section}{\numberline {1.2}Planteamiento del problema}{8}{section.1.2}}
\@writefile{toc}{\contentsline {section}{\numberline {1.3}Soluci\IeC {\'o}n propuesta y objetivos}{9}{section.1.3}}
\@writefile{toc}{\contentsline {section}{\numberline {1.4}Estructura del documento}{10}{section.1.4}}
\citation{Watson04}
\citation{Galloway13}
\citation{Meeker13}
\@writefile{toc}{\contentsline {chapter}{\numberline {2}Estado del Arte}{13}{chapter.2}}
\@writefile{lof}{\addvspace {10\p@ }}
\@writefile{lot}{\addvspace {10\p@ }}
\newlabel{ch:estadodelarte}{{2}{13}{Estado del Arte}{chapter.2}{}}
\@writefile{toc}{\contentsline {section}{\numberline {2.1}Sistemas de comunicaci\IeC {\'o}n M2M}{13}{section.2.1}}
\citation{Schwartz03}
\citation{OnStar11}
\citation{Braunstein10}
\citation{Higginbotham12}
\citation{XBee12}
\citation{carriots}
\citation{fielding2000architectural}
\citation{postel1981internet}
\citation{leiner1985darpa}
\citation{cerf2005protocol}
\@writefile{toc}{\contentsline {section}{\numberline {2.2}Protocolos de comunicaci\IeC {\'o}n M2M}{16}{section.2.2}}
\citation{XBee12}
\citation{fielding1999hypertext}
\citation{saint2011extensible}
\@writefile{toc}{\contentsline {subsection}{\numberline {2.2.1}Protocolo TCP}{17}{subsection.2.2.1}}
\@writefile{toc}{\contentsline {subsection}{\numberline {2.2.2}Protocolos M2M}{17}{subsection.2.2.2}}
\citation{fielding1997apache}
\@writefile{toc}{\contentsline {section}{\numberline {2.3}Aplicaciones de red de alto rendimiento}{18}{section.2.3}}
\@writefile{toc}{\contentsline {subsection}{\numberline {2.3.1}Operaciones I/O as\IeC {\'\i }ncronas}{18}{subsection.2.3.1}}
\citation{loosemore2001gnu}
\citation{elmeleegy2004lazy}
\citation{kohlhoff2003boost}
\citation{gosling95}
\@writefile{toc}{\contentsline {subsection}{\numberline {2.3.2}Java}{19}{subsection.2.3.2}}
\citation{gamma1994design}
\citation{ellis1990annotated}
\citation{krall1998efficient}
\citation{fox1990fortran}
\citation{amedro2008current}
\citation{lewis2003performance}
\citation{hitchens02}
\@writefile{toc}{\contentsline {subsubsection}{Java NIO}{21}{section*.9}}
\@writefile{lof}{\contentsline {figure}{\numberline {2.1}{\ignorespaces Java IO bloquea el funcionamiento de la hebra hasta que el stream est\IeC {\'a} listo para ser utilizado.\relax }}{21}{figure.caption.10}}
\newlabel{fig:ioseq}{{2.1}{21}{Java IO bloquea el funcionamiento de la hebra hasta que el stream está listo para ser utilizado.\relax }{figure.caption.10}{}}
\@writefile{lof}{\contentsline {figure}{\numberline {2.2}{\ignorespaces Java NIO permite a la hebra comprobar si el buffer est\IeC {\'a} disponible para hacer procesado, si no es as\IeC {\'\i } la hebra puede realizar otras acciones mientras este se llena\relax }}{22}{figure.caption.11}}
\newlabel{fig:nioseq}{{2.2}{22}{Java NIO permite a la hebra comprobar si el buffer está disponible para hacer procesado, si no es así la hebra puede realizar otras acciones mientras este se llena\relax }{figure.caption.11}{}}
\@writefile{lof}{\contentsline {figure}{\numberline {2.3}{\ignorespaces Diagrama que representa el funcionamiento de las bibliotecas que utilizan el enfoque de una hebra por cada canal activo.\relax }}{22}{figure.caption.12}}
\newlabel{fig:ioserv}{{2.3}{22}{Diagrama que representa el funcionamiento de las bibliotecas que utilizan el enfoque de una hebra por cada canal activo.\relax }{figure.caption.12}{}}
\citation{crawford2003j2ee}
\citation{apache2009apache}
\@writefile{lof}{\contentsline {figure}{\numberline {2.4}{\ignorespaces El diagrama representa la capacidad de Java NIO de permitir que una hebra pueda manejar m\IeC {\'u}ltiples canales.\relax }}{23}{figure.caption.13}}
\newlabel{fig:nioserv}{{2.4}{23}{El diagrama representa la capacidad de Java NIO de permitir que una hebra pueda manejar múltiples canales.\relax }{figure.caption.13}{}}
\citation{netty2014}
\citation{tate2006ruby}
\citation{ghosh2012programming}
\citation{grizzly2014}
\citation{Clements10}
\@writefile{toc}{\contentsline {section}{\numberline {2.4}Arquitectura orientada a servicios (SOA)}{24}{section.2.4}}
\citation{krafzig05}
\citation{Clements10}
\citation{mein2002simple}
\citation{fielding2000architectural}
\@writefile{toc}{\contentsline {subsection}{\numberline {2.4.1}Tipos de arquitecturas SOA}{25}{subsection.2.4.1}}
\citation{schmidt2005enterprise}
\citation{jboss2011overview}
\citation{servicemixagile}
\citation{esbintegration}
\citation{openesb}
\citation{petalsesb}
\@writefile{toc}{\contentsline {subsection}{\numberline {2.4.2}Herramientas de tipo SOA}{26}{subsection.2.4.2}}
\citation{horrell1999microsoft}
\citation{chamberlain2006ibm}
\citation{snyderintroduction}
\citation{hornetq}
\citation{McConnell01}
\citation{Clements10}
\citation{kazman1996scenario}
\@writefile{toc}{\contentsline {chapter}{\numberline {3}Arquitectura de la soluci\IeC {\'o}n}{29}{chapter.3}}
\@writefile{lof}{\addvspace {10\p@ }}
\@writefile{lot}{\addvspace {10\p@ }}
\newlabel{ch:arquitectura}{{3}{29}{Arquitectura de la solución}{chapter.3}{}}
\citation{Clements10}
\@writefile{toc}{\contentsline {section}{\numberline {3.1}Objetivos y atributos de calidad del sistema}{30}{section.3.1}}
\citation{Clements10}
\@writefile{toc}{\contentsline {section}{\numberline {3.2}Estilo de arquitectura cliente-servidor}{31}{section.3.2}}
\citation{Clements10}
\citation{Bianco07}
\@writefile{toc}{\contentsline {subsection}{\numberline {3.2.1}Sistema de comunicaci\IeC {\'o}n cliente-servidor}{32}{subsection.3.2.1}}
\@writefile{lof}{\contentsline {figure}{\numberline {3.1}{\ignorespaces Elementos de la arquitectura cliente-servidor, el cliente env\IeC {\'\i }a una solicitud de datos hacia el servidor, el cual responde a la solicitud. Por lo general, hay una serie de intercambios antes de que el mensaje sea enviado completamente.\relax }}{32}{figure.caption.14}}
\newlabel{fig:client-server}{{3.1}{32}{Elementos de la arquitectura cliente-servidor, el cliente envía una solicitud de datos hacia el servidor, el cual responde a la solicitud. Por lo general, hay una serie de intercambios antes de que el mensaje sea enviado completamente.\relax }{figure.caption.14}{}}
\@writefile{toc}{\contentsline {section}{\numberline {3.3}Estilo de arquitectura orientada a servicios}{33}{section.3.3}}
\citation{krafzig05}
\@writefile{toc}{\contentsline {subsection}{\numberline {3.3.1}Conectores usados en SOA}{34}{subsection.3.3.1}}
\@writefile{toc}{\contentsline {subsection}{\numberline {3.3.2}Sistema de comunicaci\IeC {\'o}n orientado a servicios}{35}{subsection.3.3.2}}
\@writefile{lof}{\contentsline {figure}{\numberline {3.2}{\ignorespaces Elementos de la arquitectura SOA utilizados en el sistema, proveedores y consumidores de servicios, adem\IeC {\'a}s de una aplicaci\IeC {\'o}n orientada a mensajes como mediador entre ambos.\relax }}{36}{figure.caption.15}}
\newlabel{fig:soaele}{{3.2}{36}{Elementos de la arquitectura SOA utilizados en el sistema, proveedores y consumidores de servicios, además de una aplicación orientada a mensajes como mediador entre ambos.\relax }{figure.caption.15}{}}
\@writefile{toc}{\contentsline {section}{\numberline {3.4}Arquitectura sistema de comunicaci\IeC {\'o}n M2M}{36}{section.3.4}}
\@writefile{lof}{\contentsline {figure}{\numberline {3.3}{\ignorespaces Representaci\IeC {\'o}n de la interacci\IeC {\'o}n de los m\IeC {\'o}dulos que componen el sistema\relax }}{38}{figure.caption.16}}
\newlabel{fig:soam2m}{{3.3}{38}{Representación de la interacción de los módulos que componen el sistema\relax }{figure.caption.16}{}}
\citation{johnson2005introduction}
\citation{committers2008picocontainer}
\citation{jboss2011overview}
\@writefile{toc}{\contentsline {chapter}{\numberline {4}Framework para el desarrollo y gesti\IeC {\'o}n de m\IeC {\'o}dulos}{39}{chapter.4}}
\@writefile{lof}{\addvspace {10\p@ }}
\@writefile{lot}{\addvspace {10\p@ }}
\newlabel{ch:framework}{{4}{39}{Framework para el desarrollo y gestión de módulos}{chapter.4}{}}
\@writefile{toc}{\contentsline {section}{\numberline {4.1}Gesti\IeC {\'o}n de m\IeC {\'o}dulos}{39}{section.4.1}}
\@writefile{toc}{\contentsline {section}{\numberline {4.2}Implementaci\IeC {\'o}n}{40}{section.4.2}}
\citation{gosling95}
\citation{amedro2008current}
\citation{lewis2003performance}
\@writefile{toc}{\contentsline {subsection}{\numberline {4.2.1}Lenguaje de programaci\IeC {\'o}n}{41}{subsection.4.2.1}}
\@writefile{toc}{\contentsline {subsection}{\numberline {4.2.2}Dise\IeC {\~n}o basado en capas}{41}{subsection.4.2.2}}
\citation{gamma1994design}
\@writefile{toc}{\contentsline {subsubsection}{Capa de m\IeC {\'o}dulo con estados}{42}{section*.17}}
\newlabel{lst:module_lifecycle}{{4.1}{42}{Interfaz que implementa el ciclo de vida de los módulos del sistema}{lstlisting.4.1}{}}
\@writefile{lol}{\contentsline {lstlisting}{\numberline {4.1}Interfaz que implementa el ciclo de vida de los m\IeC {\'o}dulos del sistema}{42}{lstlisting.4.1}}
\citation{Oracle}
\citation{gulcu2002short}
\citation{logback}
\@writefile{lof}{\contentsline {figure}{\numberline {4.1}{\ignorespaces Diagrama de secuencia de la clase Stateful Module\relax }}{43}{figure.caption.18}}
\newlabel{fig:statefulseq}{{4.1}{43}{Diagrama de secuencia de la clase Stateful Module\relax }{figure.caption.18}{}}
\citation{gamma1994design}
\@writefile{lof}{\contentsline {figure}{\numberline {4.2}{\ignorespaces Diagrama de clases que representa el patr\IeC {\'o}n de dise\IeC {\~n}o constructor, utilizado para la creaci\IeC {\'o}n de los m\IeC {\'o}dulos de la plataforma\relax }}{45}{figure.caption.19}}
\newlabel{fig:absbuildersarch}{{4.2}{45}{Diagrama de clases que representa el patrón de diseño constructor, utilizado para la creación de los módulos de la plataforma\relax }{figure.caption.19}{}}
\@writefile{toc}{\contentsline {subsubsection}{Capa de m\IeC {\'o}dulo autoconfigurable}{45}{section*.20}}
\citation{bray1998extensible}
\@writefile{lof}{\contentsline {figure}{\numberline {4.3}{\ignorespaces Diagrama que representa el funcionamiento del m\IeC {\'o}dulo {\tt  AutobuildableModule}. El m\IeC {\'o}dulo guarda una instancia de su constructor, el cual adem\IeC {\'a}s monitorea un conjunto de archivos, reconstruyendo el m\IeC {\'o}dulo ante cambios.\relax }}{46}{figure.caption.21}}
\newlabel{fig:absbuildersarch}{{4.3}{46}{Diagrama que representa el funcionamiento del módulo {\tt AutobuildableModule}. El módulo guarda una instancia de su constructor, el cual además monitorea un conjunto de archivos, reconstruyendo el módulo ante cambios.\relax }{figure.caption.21}{}}
\@writefile{toc}{\contentsline {subsubsection}{Capa de entorno modular}{46}{section*.22}}
\@writefile{toc}{\contentsline {subsubsection}{Capa aplicativa}{47}{section*.23}}
\@writefile{lof}{\contentsline {figure}{\numberline {4.4}{\ignorespaces Diagrama que representa la utilizaci\IeC {\'o}n de la plataforma para el desarrollo modular para implementar los elementos del sistema.\relax }}{47}{figure.caption.24}}
\newlabel{fig:framework_modules}{{4.4}{47}{Diagrama que representa la utilización de la plataforma para el desarrollo modular para implementar los elementos del sistema.\relax }{figure.caption.24}{}}
\@writefile{lof}{\contentsline {figure}{\numberline {4.5}{\ignorespaces  Diagrama de clases del framework de desarrollo de entornos modulares. Las capas {\tt  AutoconfigurableModule} y {\tt  StatefulModule} corresponde al framework de desarrollo. {\tt  ModularEnvironment} corresponde a la capa orquestadora de m\IeC {\'o}dulos. La capa {\tt  UserDevelopment} es aquella donde el usuario desarrolla los distintos m\IeC {\'o}dulos que formar\IeC {\'a}n parte de su sistema\relax }}{48}{figure.caption.25}}
\newlabel{fig:frameworkarch}{{4.5}{48}{Diagrama de clases del framework de desarrollo de entornos modulares. Las capas {\tt AutoconfigurableModule} y {\tt StatefulModule} corresponde al framework de desarrollo. {\tt ModularEnvironment} corresponde a la capa orquestadora de módulos. La capa {\tt UserDevelopment} es aquella donde el usuario desarrolla los distintos módulos que formarán parte de su sistema\relax }{figure.caption.25}{}}
\@writefile{toc}{\contentsline {chapter}{\numberline {5}M\IeC {\'o}dulo de mensajer\IeC {\'\i }a}{49}{chapter.5}}
\@writefile{lof}{\addvspace {10\p@ }}
\@writefile{lot}{\addvspace {10\p@ }}
\newlabel{ch:mensajeria}{{5}{49}{Módulo de mensajería}{chapter.5}{}}
\@writefile{toc}{\contentsline {section}{\numberline {5.1}Modelo de comunicaci\IeC {\'o}n as\IeC {\'\i }ncrona}{49}{section.5.1}}
\citation{hornetq}
\citation{netty2014}
\@writefile{toc}{\contentsline {section}{\numberline {5.2}Desarrollo}{50}{section.5.2}}
\@writefile{toc}{\contentsline {subsection}{\numberline {5.2.1}Tipos de comunicaci\IeC {\'o}n as\IeC {\'\i }ncrona}{51}{subsection.5.2.1}}
\citation{hornetq}
\@writefile{toc}{\contentsline {subsection}{\numberline {5.2.2}Persistencia de mensajes}{52}{subsection.5.2.2}}
\@writefile{toc}{\contentsline {section}{\numberline {5.3}Implementaci\IeC {\'o}n}{53}{section.5.3}}
\@writefile{toc}{\contentsline {subsection}{\numberline {5.3.1}Configuraci\IeC {\'o}n del M\IeC {\'o}dulo}{53}{subsection.5.3.1}}
\@writefile{toc}{\contentsline {chapter}{\numberline {6}M\IeC {\'o}dulo de comunicaci\IeC {\'o}n}{55}{chapter.6}}
\@writefile{lof}{\addvspace {10\p@ }}
\@writefile{lot}{\addvspace {10\p@ }}
\newlabel{ch:comunicacion}{{6}{55}{Módulo de comunicación}{chapter.6}{}}
\@writefile{toc}{\contentsline {section}{\numberline {6.1}Modelo de implementaci\IeC {\'o}n}{55}{section.6.1}}
\@writefile{toc}{\contentsline {subsection}{\numberline {6.1.1}Protocolos de comunicaci\IeC {\'o}n}{56}{subsection.6.1.1}}
\citation{Forman04}
\@writefile{toc}{\contentsline {subsection}{\numberline {6.1.2}Interfaz del dispositivo}{57}{subsection.6.1.2}}
\@writefile{toc}{\contentsline {subsection}{\numberline {6.1.3}Interfaz de servicios}{58}{subsection.6.1.3}}
\citation{netty2014}
\citation{hitchens02}
\citation{crawford2003j2ee}
\@writefile{toc}{\contentsline {section}{\numberline {6.2}Desarrollo}{59}{section.6.2}}
\@writefile{lof}{\contentsline {figure}{\numberline {6.1}{\ignorespaces Diagrama que describe como los eventos I/O son procesados por las clase {\tt  Channel Handlers} en un {\tt  Channel Pipeline}\relax }}{60}{figure.caption.26}}
\newlabel{fig:nettypipeline}{{6.1}{60}{Diagrama que describe como los eventos I/O son procesados por las clase {\tt Channel Handlers} en un {\tt Channel Pipeline}\relax }{figure.caption.26}{}}
\@writefile{toc}{\contentsline {section}{\numberline {6.3}Modelo de controladores de canales}{60}{section.6.3}}
\@writefile{lof}{\contentsline {figure}{\numberline {6.2}{\ignorespaces Diagrama que describe la implementaci\IeC {\'o}n de la tuber\IeC {\'\i }a de comunicaci\IeC {\'o}n y su dependencia con las diferentes interfaces de configuraci\IeC {\'o}n\relax }}{61}{figure.caption.27}}
\newlabel{fig:commpipeline}{{6.2}{61}{Diagrama que describe la implementación de la tubería de comunicación y su dependencia con las diferentes interfaces de configuración\relax }{figure.caption.27}{}}
\@writefile{toc}{\contentsline {section}{\numberline {6.4}Implementaci\IeC {\'o}n}{62}{section.6.4}}
\@writefile{toc}{\contentsline {chapter}{\numberline {7}M\IeC {\'o}dulo consumidor de servicios}{63}{chapter.7}}
\@writefile{lof}{\addvspace {10\p@ }}
\@writefile{lot}{\addvspace {10\p@ }}
\newlabel{ch:servicio}{{7}{63}{Módulo consumidor de servicios}{chapter.7}{}}
\@writefile{toc}{\contentsline {section}{\numberline {7.1}Modelo de implementaci\IeC {\'o}n}{63}{section.7.1}}
\@writefile{toc}{\contentsline {section}{\numberline {7.2}Desarrollo}{64}{section.7.2}}
\@writefile{toc}{\contentsline {subsection}{\numberline {7.2.1}Implementaci\IeC {\'o}n}{65}{subsection.7.2.1}}
\@writefile{toc}{\contentsline {chapter}{\numberline {8}Validaci\IeC {\'o}n y conclusiones}{67}{chapter.8}}
\@writefile{lof}{\addvspace {10\p@ }}
\@writefile{lot}{\addvspace {10\p@ }}
\newlabel{ch:conclusiones}{{8}{67}{Validación y conclusiones}{chapter.8}{}}
\@writefile{toc}{\contentsline {section}{\numberline {8.1}Validaci\IeC {\'o}n}{67}{section.8.1}}
\@writefile{toc}{\contentsline {subsection}{\numberline {8.1.1}Extensibilidad}{67}{subsection.8.1.1}}
\@writefile{toc}{\contentsline {subsubsection}{Resultados}{68}{section*.28}}
\citation{van1995python}
\citation{profiler2014version}
\@writefile{toc}{\contentsline {subsection}{\numberline {8.1.2}Escalabilidad}{69}{subsection.8.1.2}}
\@writefile{toc}{\contentsline {subsubsection}{Prueba}{69}{section*.29}}
\@writefile{toc}{\contentsline {subsubsection}{Resultados}{70}{section*.30}}
\@writefile{lof}{\contentsline {figure}{\numberline {8.1}{\ignorespaces Gr\IeC {\'a}fico que muestra la cantidad de memoria m\IeC {\'a}xima asignada y la cantidad de memoria utilizada a lo largo de la prueba.\relax }}{71}{figure.caption.31}}
\newlabel{fig:100_memory_heap}{{8.1}{71}{Gráfico que muestra la cantidad de memoria máxima asignada y la cantidad de memoria utilizada a lo largo de la prueba.\relax }{figure.caption.31}{}}
\@writefile{lof}{\contentsline {figure}{\numberline {8.2}{\ignorespaces Gr\IeC {\'a}fico que muestra la cantidad de generaciones sobrevivientes a la ejecuci\IeC {\'o}n del colector de basura de la m\IeC {\'a}quina virtual de Java.\relax }}{72}{figure.caption.32}}
\newlabel{fig:800_memory_GC}{{8.2}{72}{Gráfico que muestra la cantidad de generaciones sobrevivientes a la ejecución del colector de basura de la máquina virtual de Java.\relax }{figure.caption.32}{}}
\@writefile{lof}{\contentsline {figure}{\numberline {8.3}{\ignorespaces Gr\IeC {\'a}fico que muestra la cantidad de hebras utilizadas y de instancias creadas a lo largo de la ejecuci\IeC {\'o}n de la prueba.\relax }}{73}{figure.caption.33}}
\newlabel{fig:800_memory_threads}{{8.3}{73}{Gráfico que muestra la cantidad de hebras utilizadas y de instancias creadas a lo largo de la ejecución de la prueba.\relax }{figure.caption.33}{}}
\@writefile{toc}{\contentsline {section}{\numberline {8.2}Conclusiones generales}{73}{section.8.2}}
\@writefile{toc}{\contentsline {section}{\numberline {8.3}Trabajo futuro}{75}{section.8.3}}
\bibstyle{unsrt}
\bibdata{bib}
\bibcite{Meeker13}{1}
\bibcite{Wu11}{2}
\bibcite{ashton2009internet}{3}
\bibcite{vermesan13}{4}
\bibcite{evans2011internet}{5}
\bibcite{moore1965cramming}{6}
\bibcite{intelembint}{7}
\bibcite{upton2013raspberry}{8}
\bibcite{kushner2011making}{9}
\bibcite{doukas2012building}{10}
\@writefile{toc}{\contentsline {chapter}{Bibliograf\IeC {\'\i }a}{77}{chapter*.34}}
\bibcite{postel1981internet}{11}
\bibcite{leiner1985darpa}{12}
\bibcite{Clements10}{13}
\bibcite{krafzig05}{14}
\bibcite{devicehive}{15}
\bibcite{om2m}{16}
\bibcite{carriots}{17}
\bibcite{iobridge}{18}
\bibcite{sitewhere}{19}
\bibcite{dawes2009boost}{20}
\bibcite{apache2009apache}{21}
\bibcite{netty2014}{22}
\bibcite{grizzly2014}{23}
\bibcite{Watson04}{24}
\bibcite{Galloway13}{25}
\bibcite{Schwartz03}{26}
\bibcite{OnStar11}{27}
\bibcite{Braunstein10}{28}
\bibcite{Higginbotham12}{29}
\bibcite{XBee12}{30}
\bibcite{fielding2000architectural}{31}
\bibcite{cerf2005protocol}{32}
\bibcite{fielding1999hypertext}{33}
\bibcite{saint2011extensible}{34}
\bibcite{fielding1997apache}{35}
\bibcite{loosemore2001gnu}{36}
\bibcite{elmeleegy2004lazy}{37}
\bibcite{kohlhoff2003boost}{38}
\bibcite{gosling95}{39}
\bibcite{gamma1994design}{40}
\bibcite{ellis1990annotated}{41}
\bibcite{krall1998efficient}{42}
\bibcite{fox1990fortran}{43}
\bibcite{amedro2008current}{44}
\bibcite{lewis2003performance}{45}
\bibcite{hitchens02}{46}
\bibcite{crawford2003j2ee}{47}
\bibcite{tate2006ruby}{48}
\bibcite{ghosh2012programming}{49}
\bibcite{mein2002simple}{50}
\bibcite{schmidt2005enterprise}{51}
\bibcite{jboss2011overview}{52}
\bibcite{servicemixagile}{53}
\bibcite{esbintegration}{54}
\bibcite{openesb}{55}
\bibcite{petalsesb}{56}
\bibcite{horrell1999microsoft}{57}
\bibcite{chamberlain2006ibm}{58}
\bibcite{snyderintroduction}{59}
\bibcite{hornetq}{60}
\bibcite{McConnell01}{61}
\bibcite{kazman1996scenario}{62}
\bibcite{Bianco07}{63}
\bibcite{johnson2005introduction}{64}
\bibcite{committers2008picocontainer}{65}
\bibcite{Oracle}{66}
\bibcite{gulcu2002short}{67}
\bibcite{logback}{68}
\bibcite{bray1998extensible}{69}
\bibcite{Forman04}{70}
\bibcite{van1995python}{71}
\bibcite{profiler2014version}{72}
\@writefile{toc}{\contentsline {chapter}{Glosario}{86}{chapter*.35}}
\@writefile{toc}{\contentsline {chapter}{\numberline {A}Manual de uso}{87}{appendix.Alph1}}
\@writefile{lof}{\addvspace {10\p@ }}
\@writefile{lot}{\addvspace {10\p@ }}
\@writefile{toc}{\contentsline {section}{\numberline {A.1}Introducci\IeC {\'o}n}{87}{section.Alph1.1}}
\@writefile{toc}{\contentsline {section}{\numberline {A.2}Implementando un sistema de ejemplo}{88}{section.Alph1.2}}
\@writefile{toc}{\contentsline {subsection}{\numberline {A.2.1}Creando entorno de trabajo}{88}{subsection.Alph1.2.1}}
\newlabel{lst:environment.xml}{{A.1}{89}{Archivo Environment.xml que contiene la configuración general del entorno de trabajo y de los módulos que lo componen}{lstlisting.Alph1.1}{}}
\@writefile{lol}{\contentsline {lstlisting}{\numberline {A.1}Archivo Environment.xml que contiene la configuraci\IeC {\'o}n general del entorno de trabajo y de los m\IeC {\'o}dulos que lo componen.}{89}{lstlisting.Alph1.1}}
\@writefile{toc}{\contentsline {subsection}{\numberline {A.2.2}M\IeC {\'o}dulos y atributos gen\IeC {\'e}ricos}{90}{subsection.Alph1.2.2}}
\@writefile{toc}{\contentsline {subsection}{\numberline {A.2.3}Coordinaci\IeC {\'o}n local de m\IeC {\'o}dulos}{91}{subsection.Alph1.2.3}}
\@writefile{toc}{\contentsline {subsection}{\numberline {A.2.4}Implementando el m\IeC {\'o}dulo de comunicaci\IeC {\'o}n}{92}{subsection.Alph1.2.4}}
\@writefile{toc}{\contentsline {subsubsection}{Implementando decodificadores, codificadores y analizadores}{93}{section*.36}}
\newlabel{lst:decoders.java}{{A.2}{93}{Archivo Decoders.java}{lstlisting.Alph1.2}{}}
\@writefile{lol}{\contentsline {lstlisting}{\numberline {A.2}Archivo Decoders.java}{93}{lstlisting.Alph1.2}}
\newlabel{lst:parsers.java}{{A.3}{94}{Archivo Parser.java}{lstlisting.Alph1.3}{}}
\@writefile{lol}{\contentsline {lstlisting}{\numberline {A.3}Archivo Parser.java}{94}{lstlisting.Alph1.3}}
\newlabel{lst:encoders.java}{{A.4}{95}{Archivo Encoders.java}{lstlisting.Alph1.4}{}}
\@writefile{lol}{\contentsline {lstlisting}{\numberline {A.4}Archivo Encoders.java}{95}{lstlisting.Alph1.4}}
\@writefile{toc}{\contentsline {subsubsection}{Definiendo interfaz de dispositivo}{96}{section*.37}}
\newlabel{lst:device_interface.xml}{{A.5}{96}{Archivo device.interface.xml}{lstlisting.Alph1.5}{}}
\@writefile{lol}{\contentsline {lstlisting}{\numberline {A.5}Archivo device.interface.xml}{96}{lstlisting.Alph1.5}}
\@writefile{toc}{\contentsline {subsubsection}{Definiendo interfaz de servicios}{98}{section*.38}}
\newlabel{lst:events_interface.xml}{{A.6}{98}{Archivo services.interface.xml}{lstlisting.Alph1.6}{}}
\@writefile{lol}{\contentsline {lstlisting}{\numberline {A.6}Archivo services.interface.xml}{98}{lstlisting.Alph1.6}}
\@writefile{toc}{\contentsline {subsection}{\numberline {A.2.5}Implementando el m\IeC {\'o}dulo de mensajer\IeC {\'\i }a}{102}{subsection.Alph1.2.5}}
\@writefile{toc}{\contentsline {subsection}{\numberline {A.2.6}Implementando el m\IeC {\'o}dulo consumidor de servicios}{102}{subsection.Alph1.2.6}}
\newlabel{lst:service.java}{{A.7}{103}{Archivo service.java}{lstlisting.Alph1.7}{}}
\@writefile{lol}{\contentsline {lstlisting}{\numberline {A.7}Archivo service.java}{103}{lstlisting.Alph1.7}}
\@writefile{toc}{\contentsline {section}{\numberline {A.3}Ejecutando el sistema}{104}{section.Alph1.3}}
