%!PS-Adobe-3.0 EPSF-3.0
%%BoundingBox: 0 0 632 430
%%Creator: yExport 1.4.0.1
%%Producer: org.freehep.graphicsio.ps.PSGraphics2D Revision: 12753 
%%For: 
%%Title: 
%%CreationDate: Monday, July 7, 2014 3:12:52 PM CLT
%%LanguageLevel: 3
%%EndComments
%%BeginProlog
100 dict dup begin

%
% File: org/freehep/graphicsio.ps/PSProlog.txt
% Author: Charles Loomis
%

% Redefinitions which save some space in the output file.  These are also
% the same as the PDF operators.
/q {gsave} def
/Q {grestore} def

/n {newpath} def
/m {moveto} def
/l {lineto} def
/c {curveto} def
/h {closepath} def

/re {4 -2 roll moveto
     dup 0 exch rlineto exch 0 rlineto
     neg 0 exch rlineto closepath} def

/f {fill} def
/f* {eofill} def
/F {gsave vg&FC fill grestore} def
/F* {gsave vg&FC eofill grestore} def

/s {closepath stroke} def
/S {stroke} def

/b {closepath gsave vg&FC fill grestore
    gsave stroke grestore newpath} def
/B {gsave vg&FC fill grestore gsave stroke grestore newpath} def
/b* {closepath gsave vg&FC eofill grestore
    gsave stroke grestore newpath} def
/B* {gsave vg&FC eofill grestore gsave stroke grestore newpath} def

/g {1 array astore /vg&fcolor exch def} def
/G {setgray} def
/k {4 array astore /vg&fcolor exch def} def
/K {setcmykcolor} def
/rg {3 array astore /vg&fcolor exch def} def
/RG {setrgbcolor} def

% Initialize the fill color.
0 0 0 rg

/vg&FC {mark vg&fcolor aload pop
        counttomark 1 eq {G} if
        counttomark 3 eq {RG} if
        counttomark 4 eq {K} if
        cleartomark } def

/vg&DFC {/vg&fcolor exch def} def

/vg&C {mark exch aload pop
       counttomark 1 eq {G} if
       counttomark 3 eq {RG} if
       counttomark 4 eq {K} if
       cleartomark } def

/w {setlinewidth} def
/j {setlinejoin} def
/J {setlinecap} def
/M {setmiterlimit} def
/d {setdash} def
/i {setflat} def

/W {clip} def
/W* {eoclip} def

% Setup the default graphics state.
% (black; 1 pt. linewidth; miter join; butt-ends; solid)
/defaultGraphicsState {0 g 1 w 0 j 0 J [] 0 d} def

% Emulation of the rectangle operators for PostScript implementations
% which do not implement all Level 2 features.  This is an INCOMPLETE
% emulation; only the "x y width height rect..." form is emulated.
/*rf {gsave newpath re fill grestore} def
/*rs {gsave newpath re stroke grestore} def
/*rc {newpath re clip} def
/rf  /rectfill where {pop /rectfill}{/*rf} ifelse load def
/rs  /rectstroke where {pop /rectstroke}{/*rs} ifelse load def
/rc  /rectclip where {pop /rectclip}{/*rc} ifelse load def

% Emulation of the selectfont operator.  This includes a 20% increase in
% the fontsize which is necessary to get sizes similar to the Java fonts.
/*sf {exch findfont exch
      dup type /arraytype eq {makefont}{scalefont} ifelse setfont} bind def
/sf /selectfont where {pop {1.2 mul selectfont}}{{1.2 mul *sf}} ifelse def

% Special version of stroke which allows the dash pattern to continue
% across path segments.  (This may be needed for PostScript although
% modern printers seem to do this correctly.)
/vg&stroke {
  currentdash pop length 0 eq
  {stroke}
  {
    currentdash /vg&doffset exch def pop
    flattenpath
    {m vg&resetdash}
    {2 copy
     currentpoint
     3 -1 roll sub dup mul
     3 1 roll sub dup mul
     add sqrt
     3 1 roll l
     currentdash 3 -1 roll add setdash}
     {}
     {h vg&resetdash}
     pathforall
     stroke
     vg&resetdash
  } ifelse
} def
/vg&resetdash {currentdash pop vg&doffset setdash} def

% Initialize variables for safety.
/delta 0 def
/xv 0 def  /yv 0 def  /width 0 def  /height 0 def

% Initialize to portrait INTERNATIONAL (Letter-height, A4-width) page.
/pw 595 def  /ph 791  def  /po true def /ftp false def

% Initialize margins to 20 points.
/ml 20 def  /mr 20 def  /mt 20 def  /mb 20 def

% Temporary matrices.
/smatrix 0 def  /nmatrix 0 def

% set page size (usage: <page width><page height> setpagesize)
/setpagesize {/ph exch def /pw exch def} def

% set page orientation (usage: portrait or landscape)
/portrait {/po true def} def
/landscape {/po false def} def

% force natural size for image (usage: naturalsize)
/naturalsize {/ftp false def} def

% resize image to fill page (usage: fittopage)
/fittopage {/ftp true def} def

% set margins of the page (usage: <left><bottom><top><right> setmargins)
/setmargins {/mr exch def /mt exch def /mb exch def /ml exch def} def

% set the graphic's size (usage: <width><height> setsize)
/setsize {/gh exch def /gw exch def} def

% set the graphic's origin (usage: <x0><y0> setorigin)
/setorigin {/gy exch def /gx exch def} def

% calculate image center
/imagecenter {pw ml sub mr sub 2 div ml add
              ph mt sub mb sub 2 div mb add} def

% calculate the necessary scaling
/imagescale {po {gw}{gh} ifelse pw ml sub mr sub div
             po {gh}{gw} ifelse ph mt sub mb sub div
             2 copy lt {exch} if pop
             ftp not {1 2 copy lt {exch} if pop} if
             1 exch div /sfactor exch def
             /gw gw sfactor mul def /gh gh sfactor mul def} def

% calculate image origin
/imageorigin {pw ml sub mr sub 2 div ml add
              po {gw}{gh} ifelse 2 div sub
              ph mt sub mb sub 2 div mb add
              po {gh}{gw} ifelse 2 div po {add}{sub} ifelse} def

% calculate the clipping origin
/cliporigin  {pw ml sub mr sub 2 div ml add
              po {gw}{gh} ifelse 2 div sub floor
              ph mt sub mb sub 2 div mb add
              po {gh}{gw} ifelse 2 div sub floor} def

% Set the clipping region to the bounding box.
/cliptobounds {cliporigin po {gw}{gh} ifelse 1 add
                          po {gh}{gw} ifelse 1 add rc} def

% set the base transformation matrix (usage: setbasematrix)
/setbasematrix {imageorigin translate
                po {0}{90} ifelse rotate
                sfactor sfactor neg scale
                /defaultmatrix matrix currentmatrix def} def

% The lower-right bias in drawing 1 pt. wide lines.
/bias  {q 0.5 0.5 translate} def
/unbias {Q} def

% Define the composite fonts used to print Unicode strings.
% Undefine particular values in an encoding array.
/vg&undef { {exch dup 3 -1 roll /.notdef put} forall } def
/vg&redef { {3 -1 roll dup 4 2 roll put} forall } def

% usage: key encoding basefontname vg&newbasefont font
/vg&newbasefont {
findfont dup length dict copy
  begin
    currentdict /FID undef
    /Encoding exch def
    dup /FontName exch def
    currentdict
  end
definefont
} def

% usage: key encoding basefontname vg&newskewedbasefont font
/vg&newskewedbasefont {
findfont dup length dict copy
  begin
    currentdict /FID undef
    /Encoding exch def
    dup /FontName exch def
    exch FontMatrix exch matrix concatmatrix /FontMatrix exch def
    currentdict
  end
definefont
} def

% usage: basekey suffix vg&nconcat name
/vg&nconcat {
  2 {dup length string cvs exch} repeat
  dup length 3 -1 roll dup length 3 -1 roll add string
  dup 0 4 -1 roll dup length 5 1 roll putinterval
  dup 4 -2 roll exch putinterval cvn
} def

%usage: fontname vg&skewmatrix matrix
/vg&skewmatrix {
findfont dup /FontInfo known
  {
    /FontInfo get dup /ItalicAngle known
    {
      [ 1 0 4 -1 roll /ItalicAngle get neg dup sin exch cos div 1 0 0 ]
    }
    {pop matrix} ifelse
  }
  {pop matrix} ifelse
} def

% usage: newfontname basefontname vg&newcompositefont --
/vg&newcompositefont {
/vg&fstyle exch def
/vg&bfont exch def
/vg&fname exch def
<<
/FontStyleBits vg&fstyle
/FontType 0
/FontMatrix matrix
/FontName vg&fname
/FMapType 2
/Encoding [ 0 1 255 {pop 6} for ]
          dup 16#00 0 put % Latin
          dup 16#03 1 put % Greek
          dup 16#20 2 put % Punctuation
          dup 16#21 3 put % Arrows
          dup 16#22 4 put % MathOps
          dup 16#27 5 put % Dingbats

/FDepVector [
vg&bfont /-UC-Latin vg&nconcat UCLatinEncoding
vg&bfont vg&newbasefont

vg&bfont vg&skewmatrix
vg&bfont /-UC-Greek vg&nconcat UCGreekEncoding
/Symbol vg&newskewedbasefont

vg&bfont /-UC-Punctuation vg&nconcat UCPunctuationEncoding
vg&bfont vg&newbasefont

/Arrows-UC findfont
/MathOps-UC findfont
/Dingbats-UC findfont
/Undefined-UC findfont ]
>>
vg&fname exch definefont pop
} def

% Null encoding vector (all elements set to .notdef)
/NullEncoding [ 256 {/.notdef} repeat ] def

% Unicode Latin encoding (unicode codes \u0000-\u00ff)
/UCLatinEncoding
  ISOLatin1Encoding dup length array copy
  dup 16#60 /grave put
  [ 16#90 16#91 16#92 16#93 16#94 16#95 16#96
    16#97 16#98 16#9a 16#9b 16#9d 16#9e 16#9f
  ] vg&undef
  def

% Unicode Greek encoding (unicode codes \u0370-\u03ff)
/UCGreekEncoding
  NullEncoding dup length array copy
  << 16#91 /Alpha    16#92 /Beta      16#93 /Gamma    16#94 /Delta
     16#95 /Epsilon  16#96 /Zeta      16#97 /Eta      16#98 /Theta
     16#99 /Iota     16#9a /Kappa     16#9b /Lambda   16#9c /Mu
     16#9d /Nu       16#9e /Xi        16#9f /Omicron  16#a0 /Pi
     16#a1 /Rho      16#a3 /Sigma     16#a4 /Tau      16#a5 /Upsilon
     16#a6 /Phi      16#a7 /Chi       16#a8 /Psi      16#a9 /Omega
     16#b1 /alpha    16#b2 /beta      16#b3 /gamma    16#b4 /delta
     16#b5 /epsilon  16#b6 /zeta      16#b7 /eta      16#b8 /theta
     16#b9 /iota     16#ba /kappa     16#bb /lambda   16#bc /mu
     16#bd /nu       16#be /xi        16#bf /omicron  16#c0 /pi
     16#c1 /rho      16#c2 /sigma1    16#c3 /sigma    16#c4 /tau
     16#c5 /upsilon  16#c6 /phi1      16#c7 /chi      16#c8 /psi
     16#c9 /omega    16#7e /semicolon 16#87 /dotmath  16#d1 /theta1
     16#d2 /Upsilon1 16#d5 /phi       16#d6 /omega1
  >> vg&redef
  def

% Unicode punctuation encoding (unicode codes \u2000-\u206f)
/UCPunctuationEncoding
  NullEncoding dup length array copy
  << 16#10 /hyphen          16#11 /hyphen              16#12 /endash
     16#13 /emdash          16#18 /quoteleft           16#19 /quoteright
     16#1a /quotesinglbase  16#1b /quotesingle         16#1c /quotedblleft
     16#1d /quotedblright   16#1e /quotedblbase        16#1f /quotedbl
     16#20 /dagger          16#21 /daggerdbl           16#22 /bullet
     16#24 /period          16#26 /ellipsis            16#27 /periodcentered
     16#30 /perthousand     16#44 /fraction
     16#70 /zerosuperior    16#74 /foursuperior        16#75 /fivesuperior
     16#76 /sixsuperior     16#77 /sevensuperior       16#78 /eightsuperior
     16#79 /ninesuperior    16#7b /hyphensuperior      16#7d /parenleftsuperior
     16#7e /parenrightsuperior
     16#80 /zeroinferior    16#84 /fourinferior        16#85 /fiveinferior
     16#81 /oneinferior     16#82 /twoinferior         16#83 /threeinferior
     16#86 /sixinferior     16#87 /seveninferior       16#88 /eightinferior
     16#89 /nineinferior    16#8b /hypheninferior      16#8d /parenleftinferior
     16#8e /parenrightinferior
  >> vg&redef
  def

% Unicode mathematical operators encoding (unicode codes \u2200-\u22ff)
/UCMathOpsEncoding
  NullEncoding dup length array copy
  << 16#00 /universal       16#02 /partialdiff         16#03 /existential
     16#05 /emptyset        16#06 /Delta               16#07 /gradient
     16#08 /element         16#09 /notelement          16#0b /suchthat
     16#0f /product         16#11 /summation           16#12 /minus
     16#15 /fraction        16#17 /asteriskmath        16#19 /bullet
     16#1a /radical         16#1d /proportional        16#1e /infinity
     16#20 /angle           16#23 /bar                 16#27 /logicaland
     16#28 /logicalor       16#29 /intersection        16#2a /union
     16#2b /integral        16#34 /therefore           16#36 /colon
     16#3c /similar         16#45 /congruent           16#48 /approxequal
     16#60 /notequal        16#61 /equivalence         16#64 /lessequal
     16#65 /greaterequal    16#82 /propersubset        16#83 /propersuperset
     16#86 /reflexsubset    16#87 /reflexsuperset      16#95 /circleplus
     16#97 /circlemultiply  16#a5 /perpendicular       16#03 /existential
     16#c0 /logicaland      16#c1 /logicalor           16#c2 /intersection
     16#c3 /union           16#c4 /diamond             16#c5 /dotmath
  >> vg&redef
  def

% Unicode arrows encoding (unicode codes \u2190-\u21ff)
% Also includes those "Letterlike" unicode characters
% which are available in the symbol font. (unicode codes \u2100-\u214f)
/UCArrowsEncoding
  NullEncoding dup length array copy
  << 16#11 /Ifraktur        16#1c /Rfraktur            16#22 /trademarkserif
     16#35 /aleph
     16#90 /arrowleft       16#91 /arrowup             16#92 /arrowright
     16#93 /arrowdown       16#94 /arrowboth           16#d0 /arrowdblleft
     16#d1 /arrowdblup      16#d2 /arrowdblright       16#d3 /arrowdbldown
     16#d4 /arrowdblboth
  >> vg&redef
  def

/ZapfDingbats findfont /Encoding get
dup length array copy /UCDingbatsEncoding exch def
16#20 1 16#7f {
  dup 16#20 sub exch
  UCDingbatsEncoding exch get
  UCDingbatsEncoding 3 1 roll put
} for
16#a0 1 16#ff {
  dup 16#40 sub exch
  UCDingbatsEncoding exch get
  UCDingbatsEncoding 3 1 roll put
} for
UCDingbatsEncoding [ 16#c0 1 16#ff {} for ] vg&undef
[ 16#00  16#05 16#0a 16#0b  16#28 16#4c 16#4e  16#53 16#54 16#55  16#57 16#5f
  16#60  16#68 16#69 16#6a  16#6b 16#6c 16#6d  16#6e 16#6f 16#70  16#71 16#72
  16#73  16#74 16#75 16#95  16#96 16#97 16#b0  16#bf
] vg&undef pop

% Define the base fonts which don't change.
/Undefined-UC NullEncoding       /Helvetica    vg&newbasefont pop
/MathOps-UC   UCMathOpsEncoding  /Symbol       vg&newbasefont pop
/Arrows-UC    UCArrowsEncoding   /Symbol       vg&newbasefont pop
/Dingbats-UC  UCDingbatsEncoding /ZapfDingbats vg&newbasefont pop

% Make the SansSerif composite fonts.
/SansSerif /Helvetica 16#00 vg&newcompositefont
/SansSerif-Bold /Helvetica-Bold 16#01 vg&newcompositefont
/SansSerif-Italic /Helvetica-Oblique 16#02 vg&newcompositefont
/SansSerif-BoldItalic /Helvetica-BoldOblique 16#03 vg&newcompositefont

% Make the Serif composite fonts.
/Serif /Times-Roman 16#00 vg&newcompositefont
/Serif-Bold /Times-Bold 16#01 vg&newcompositefont
/Serif-Italic /Times-Italic 16#02 vg&newcompositefont
/Serif-BoldItalic /Times-BoldItalic 16#03 vg&newcompositefont

% Make the Monospaced composite fonts.
/Monospaced /Courier 16#00 vg&newcompositefont
/Monospaced-Bold /Courier-Bold 16#01 vg&newcompositefont
/Monospaced-Italic /Courier-Oblique 16#02 vg&newcompositefont
/Monospaced-BoldItalic /Courier-BoldOblique 16#03 vg&newcompositefont

% Make the Dialog composite fonts.
/Dialog /Helvetica 16#00 vg&newcompositefont
/Dialog-Bold /Helvetica-Bold 16#01 vg&newcompositefont
/Dialog-Italic /Helvetica-Oblique 16#02 vg&newcompositefont
/Dialog-BoldItalic /Helvetica-BoldOblique 16#03 vg&newcompositefont

% Make the DialogInput composite fonts.
/DialogInput /Courier 16#00 vg&newcompositefont
/DialogInput-Bold /Courier-Bold 16#01 vg&newcompositefont
/DialogInput-Italic /Courier-Oblique 16#02 vg&newcompositefont
/DialogInput-BoldItalic /Courier-BoldOblique 16#03 vg&newcompositefont

% Make the Typewriter composite fonts (JDK 1.1 only).
/Typewriter /Courier 16#00 vg&newcompositefont
/Typewriter-Bold /Courier-Bold 16#01 vg&newcompositefont
/Typewriter-Italic /Courier-Oblique 16#02 vg&newcompositefont
/Typewriter-BoldItalic /Courier-BoldOblique 16#03 vg&newcompositefont


/cfontH {
 dup /fontsize exch def /SansSerif exch sf
 /vg&fontstyles [{cfontH} {cfontHB} {cfontHI} {cfontHBI}] def
} def
/cfontHB {
  dup /fontsize exch def /SansSerif-Bold exch sf
 /vg&fontstyles [{cfontH} {cfontHB} {cfontHI} {cfontHBI}] def
} def
/cfontHI {
 dup /fontsize exch def /SansSerif-Italic exch sf
 /vg&fontstyles [{cfontH} {cfontHB} {cfontHI} {cfontHBI}] def
} def
/cfontHBI {
 dup /fontsize exch def /SansSerif-BoldItalic exch sf
 /vg&fontstyles [{cfontH} {cfontHB} {cfontHI} {cfontHBI}] def
} def

/cfontT {
 dup /fontsize exch def /Serif exch sf
 /vg&fontstyles [{cfontT} {cfontTB} {cfontTI} {cfontTBI}] def
} def
/cfontTB {
 dup /fontsize exch def /Serif-Bold exch sf
 /vg&fontstyles [{cfontT} {cfontTB} {cfontTI} {cfontTBI}] def
} def
/cfontTI {
 dup /fontsize exch def /Serif-Italic exch sf
 /vg&fontstyles [{cfontT} {cfontTB} {cfontTI} {cfontTBI}] def
} def
/cfontTBI {
 dup /fontsize exch def /Serif-BoldItalic exch sf
 /vg&fontstyles [{cfontT} {cfontTB} {cfontTI} {cfontTBI}] def
} def

/cfontC {
 dup /fontsize exch def /Typewriter exch sf
 /vg&fontstyles [{cfontC} {cfontCB} {cfontCI} {cfontCBI}] def
} def
/cfontCB {
 dup /fontsize exch def /Typewriter-Bold exch sf
 /vg&fontstyles [{cfontC} {cfontCB} {cfontCI} {cfontCBI}] def
} def
/cfontCI {
 dup /fontsize exch def /Typewriter-Italic exch sf
 /vg&fontstyles [{cfontC} {cfontCB} {cfontCI} {cfontCBI}] def
} def
/cfontCBI {
 dup /fontsize exch def /Typewriter-BoldItalic exch sf
 /vg&fontstyles [{cfontC} {cfontCB} {cfontCI} {cfontCBI}] def
} def

% Darken or lighten the current color.
/darken {0.7 exch exp 3 copy
         q 4 -1 roll vg&C
         currentrgbcolor 3 {4 -2 roll mul} repeat
         3 array astore Q} def

/displayColorMap
<< /Cr   [1.00 0.00 0.00]       /Cg     [0.00 1.00 0.00]
   /Cb   [0.00 0.00 1.00]       /Cc     [1.00 0.00 0.00 0.00]
   /Cm   [0.00 1.00 0.00 0.00]  /Cy     [0.00 0.00 1.00 0.00]
   /Co   [1.00 0.78 0.00]       /Cp     [1.00 0.67 0.67]
   /Cw   [1   ]                 /Cgrl   [0.75]
   /Cgr  [0.50]                 /Cgrd   [0.25]
   /Ck   [0   ]
   /CGr  [1.00 0.00 0.00]       /CGg    [0.00 1.00 0.00]
   /CGb  [0.00 0.00 1.00]       /CGc    [1.00 0.00 0.00 0.00]
   /CGm  [0.00 1.00 0.00 0.00]  /CGy    [0.00 0.00 1.00 0.00]
   /CGo  [1.00 0.78 0.00]       /CGp    [1.00 0.67 0.67]
   /CGw  [1   ]                 /CGgrl  [0.75]
   /CGgr [0.50]                 /CGgrd  [0.25]
   /CGk  [0   ]
   /CIr  [1.00 0.00 0.00]       /CIg    [0.00 1.00 0.00]
   /CIb  [0.00 0.00 1.00]       /CIc    [1.00 0.00 0.00 0.00]
   /CIm  [0.00 1.00 0.00 0.00]  /CIy    [0.00 0.00 1.00 0.00]
   /CIo  [1.00 0.78 0.00]       /CIp    [1.00 0.67 0.67]
   /CIw  [1   ]                 /CIgrl  [0.75]
   /CIgr [0.50]                 /CIgrd  [0.25]
   /CIk  [0   ]
>> def

/printColorMap
<< /Cr   [1.00 0.33 0.33]       /Cg     [0.33 1.00 0.33]
   /Cb   [0.33 0.33 1.00]       /Cc     [1.00 0.00 0.00 0.00]
   /Cm   [0.00 1.00 0.00 0.00]  /Cy     [0.00 0.00 1.00 0.00]
   /Co   [1.00 0.78 0.00]       /Cp     [1.00 0.67 0.67]
   /Cw   [1   ]                 /Cgrl   [0.75]
   /Cgr  [0.50]                 /Cgrd   [0.25]
   /Ck   [0   ]
   /CGr  [1.00 0.33 0.33]       /CGg    [0.33 1.00 0.33]
   /CGb  [0.33 0.33 1.00]       /CGc    [1.00 0.00 0.00 0.00]
   /CGm  [0.00 1.00 0.00 0.00]  /CGy    [0.00 0.00 1.00 0.00]
   /CGo  [1.00 0.78 0.00]       /CGp    [1.00 0.67 0.67]
   /CGw  [1   ]                 /CGgrl  [0.75]
   /CGgr [0.50]                 /CGgrd  [0.25]
   /CGk  [0   ]
   /CIr  [1.00 0.33 0.33]       /CIg    [0.33 1.00 0.33]
   /CIb  [0.33 0.33 1.00]       /CIc    [1.00 0.00 0.00 0.00]
   /CIm  [0.00 1.00 0.00 0.00]  /CIy    [0.00 0.00 1.00 0.00]
   /CIo  [1.00 0.78 0.00]       /CIp    [1.00 0.67 0.67]
   /CIw  [1   ]                 /CIgrl  [0.75]
   /CIgr [0.50]                 /CIgrd  [0.25]
   /CIk  [0   ]
>> def

/grayColorMap
<< /Cr   [0   ]                 /Cg     [0   ]
   /Cb   [0   ]                 /Cc     [0   ]
   /Cm   [0   ]                 /Cy     [0   ]
   /Co   [0   ]                 /Cp     [0   ]
   /Cw   [0   ]                 /Cgrl   [0   ]
   /Cgr  [0   ]                 /Cgrd   [0   ]
   /Ck   [0   ]
   /CGr  [0.75]                 /CGg    [1   ]
   /CGb  [0.50]                 /CGc    [0.75]
   /CGm  [0.50]                 /CGy    [1   ]
   /CGo  [0.75]                 /CGp    [1   ]
   /CGw  [0   ]                 /CGgrl  [0.25]
   /CGgr [0.50]                 /CGgrd  [0.75]
   /CGk  [1   ]
   /CIr  [1   ]                 /CIg    [1   ]
   /CIb  [1   ]                 /CIc    [1   ]
   /CIm  [1   ]                 /CIy    [1   ]
   /CIo  [1   ]                 /CIp    [1   ]
   /CIw  [1   ]                 /CIgrl  [1   ]
   /CIgr [1   ]                 /CIgrd  [1   ]
   /CIk  [1   ]
>> def

/bwColorMap
<< /Cr   [0   ]                 /Cg     [0   ]
   /Cb   [0   ]                 /Cc     [0   ]
   /Cm   [0   ]                 /Cy     [0   ]
   /Co   [0   ]                 /Cp     [0   ]
   /Cw   [0   ]                 /Cgrl   [0   ]
   /Cgr  [0   ]                 /Cgrd   [0   ]
   /Ck   [0   ]
   /CGr  [1   ]                 /CGg    [1   ]
   /CGb  [1   ]                 /CGc    [1   ]
   /CGm  [1   ]                 /CGy    [1   ]
   /CGo  [1   ]                 /CGp    [1   ]
   /CGw  [0   ]                 /CGgrl  [1   ]
   /CGgr [1   ]                 /CGgrd  [1   ]
   /CGk  [1   ]
   /CIr  [1   ]                 /CIg    [1   ]
   /CIb  [1   ]                 /CIc    [1   ]
   /CIm  [1   ]                 /CIy    [1   ]
   /CIo  [1   ]                 /CIp    [1   ]
   /CIw  [1   ]                 /CIgrl  [1   ]
   /CIgr [1   ]                 /CIgrd  [1   ]
   /CIk  [1   ]
>> def

%
% The following routines handle the alignment of and printing of
% tagged strings.
%

% Predefine the bounding box values.
/bbllx 0 def /bblly 0 def /bburx 0 def /bbury 0 def

% This routine pops the first unicode character off of a string and returns
% the remainder of the string, the character code of first character,
% and a "true" if the string was non-zero length.
% <string>      popfirst <remaining string> <true>
% <null string> popfirst <false>
/popfirst {
  dup length 1 gt
    {dup 0 get /vg&fbyte exch def
     dup 1 get /vg&cbyte exch def
     dup length 2 sub 2 exch getinterval true}
    {pop false} ifelse
} def

% This routine shows a single unicode character given the font and
% character codes.
% <font code> <char code> unicharshow --
/unicharshow {
  2 string
  dup 0 5 -1 roll put
  dup 1 4 -1 roll put
  internalshow
} def

% This is an internal routine to alternate between determining the
% bounding box for stringsize and showing the string for recshow.
% <string> internalshow --
/internalshow {show} def

% This is an internal routine to alternate between determining the
% bounding box for stringsize and stroking various ornaments.
% <string> internalstroke --
/internalstroke {S} def

% Sets up internalshow to use the null device to determine string size.
% -- nullinternalshow --
/nullinternalshow {/internalshow {false charpath flattenpath
                                  pathbbox updatebbox} def} def

% Sets up internalstroke to use the null device to determine string size.
% -- nullinternalstroke --
/nullinternalstroke {
 /internalstroke {flattenpath pathbbox updatebbox} def} def

% This routine tests to see if the character code matches the first
% character of a string.
% <char code> <string> testchar <char code> <true or false>
/testchar {exch dup 3 -1 roll 0 get eq} def

% Raise the text baseline for superscripts.
% -- raise --
/raise {
  0 fontsize 2 div rmoveto
  /fontsize fontsize 2 mul 3 div def
  currentfont /FontName get fontsize sf
} def

% Un-raise the text baseline for superscripts.
% -- unraise --
/unraise {
  /fontsize fontsize 1.5 mul def
  0 fontsize 2 div neg rmoveto
} def

% Lower the text baseline for subscripts.
% -- lower --
/lower {
  0 fontsize 3 div neg rmoveto
  /fontsize fontsize 2 mul 3 div def
  currentfont /FontName get fontsize sf
} def

% Un-lower the text baseline for subscripts.
% -- unlower --
/unlower {
  /fontsize fontsize 1.5 mul def
  0 fontsize 3 div rmoveto
} def

% Compare the top two elements on the stack and leave only the
% larger one.
/maxval {2 copy gt {pop} {exch pop} ifelse} def

% Tokenize a string.  Do not use the usual PostScript token because
% parentheses will not be interpreted correctly because of rescanning
% of the string.
/vg&token {/vg&string exch def /vg&index -1 def /vg&level 0 def
0 2 vg&string length 2 sub {
  dup dup 1 add exch vg&string exch get 8 bitshift vg&string 3 -1 roll get or
  dup 16#f0fe eq {pop 1}{16#f0ff eq {-1}{0} ifelse} ifelse
  /vg&level exch vg&level add def
  vg&level 0 eq {/vg&index exch def exit} if pop
} for
vg&index 0 ge {
  vg&string vg&index 2 add dup vg&string length exch sub getinterval
  vg&index 2 gt {vg&string 2 vg&index 2 sub getinterval}{()} ifelse
  true}
{false} ifelse
} bind def

% Recursively show an unicode string.
% <string> recshow --
/recshow {
  popfirst
  {
    % Test to see if this is a string attribute.
    vg&fbyte 16#f0 and 16#e0 eq
    {
      q

      % Font style.
      currentfont dup /FontStyleBits known {/FontStyleBits get}{pop 0} ifelse
      vg&cbyte or vg&fontstyles exch get fontsize exch exec

      vg&token pop recshow currentpoint Q m recshow
    }
    {
      vg&fbyte 16#F8 and 16#F0 eq {

        % Superscript and/or subscript.
        vg&cbyte 16#00 eq {
          vg&token pop exch vg&token pop 3 -1 roll
          q raise recshow unraise currentpoint pop Q exch
          q lower recshow unlower currentpoint pop Q
          maxval currentpoint exch pop m recshow } if

        % Strikeout.
        vg&cbyte 16#01 eq {
          vg&token pop currentpoint 3 -1 roll recshow
          q 0 J vg&underline vg&uthick w
          currentpoint 4 -2 roll fontsize 3 div add moveto
          fontsize 3 div add lineto internalstroke Q
          recshow} if

        % Underline.
        vg&cbyte 16#02 eq {
          vg&token pop currentpoint 3 -1 roll recshow
          q 0 J vg&underline vg&uthick w
          currentpoint 4 -2 roll vg&uoffset add moveto
          vg&uoffset add lineto internalstroke Q
          recshow} if

        % Dashed underline.
        vg&cbyte 16#03 eq {
          vg&token pop currentpoint 3 -1 roll recshow
          q 0 J [ vg&uthick 5 mul vg&uthick 2 mul] 0 d
          vg&underline vg&uthick w
          currentpoint 4 -2 roll vg&uoffset add moveto
          vg&uoffset add lineto internalstroke Q
          recshow} if

        % Dotted underline.
        vg&cbyte 16#04 eq {
          vg&token pop currentpoint 3 -1 roll recshow
          q 1 J [ 0 vg&uthick 3 mul] 0 d
          vg&underline vg&uthick w
          currentpoint 4 -2 roll vg&uoffset add moveto
          vg&uoffset add lineto internalstroke Q
          recshow} if

        % Thick underline.
        vg&cbyte 16#05 eq {
          vg&token pop currentpoint 3 -1 roll recshow
          q 0 J vg&underline vg&uthick 2 mul w
          currentpoint 4 -2 roll vg&uoffset vg&uthick 2 div sub add moveto
          vg&uoffset vg&uthick 2 div sub add lineto internalstroke Q
          recshow} if

        % Gray thick underline.
        vg&cbyte 16#06 eq {
          vg&token pop currentpoint 3 -1 roll recshow
          q 0 J vg&underline vg&uthick 2 mul w 0.5 setgray
          currentpoint 4 -2 roll vg&uoffset vg&uthick 2 div sub add moveto
          vg&uoffset vg&uthick 2 div sub add lineto internalstroke Q
          recshow} if

        % Overbar.
        vg&cbyte 16#07 eq {
          vg&token pop dup stringsize relative 4 1 roll pop pop exch
          3 -1 roll recshow
          q 0 J vg&underline vg&uthick w
          vg&uoffset neg add dup currentpoint pop exch m l internalstroke Q
          recshow} if
      }
      {
        vg&fbyte vg&cbyte unicharshow recshow
      } ifelse
    } ifelse
  } if
} def

% Get the underline position and thickness from the current font.
/vg&underline {

currentfont dup /FontType get 0 eq {/FDepVector get 0 get} if
dup dup /FontInfo known {
  /FontInfo get dup
  dup /UnderlinePosition known {
    /UnderlinePosition get /vg&uoffset exch def
  }
  {
    pop /vg&uoffset 0 def
  } ifelse
  dup /UnderlineThickness known {
    /UnderlineThickness get /vg&uthick exch def
  }
  {
    pop /vg&uthick 0 def
  } ifelse
}
{
  pop /vg&uoffset 0 def /vg&uthick 0 def
} ifelse
/FontMatrix get
currentfont dup /FontType get 0 eq
{/FontMatrix get matrix concatmatrix}{pop} ifelse
dup 0 vg&uoffset 3 -1 roll transform /vg&uoffset exch def pop
0 vg&uthick 3 -1 roll transform /vg&uthick exch def pop
} def

% Make a frame with the coordinates on the stack.
% <llx> <lly> <urx> <ury> frame --
/frame {4 copy m 3 1 roll exch l 4 -2 roll l l h} def

% Resets the accumulated bounding box to a degenerate box at the
% current point.
% -- resetbbox --
/resetbbox {
  currentpoint 2 copy
  /bbury exch def
  /bburx exch def
  /bblly exch def
  /bbllx exch def
} def

% Update the accumulated bounding box.
% <llx'> <lly'> <urx'> <ury'> updatebbox --
/updatebbox {
  dup bbury gt {/bbury exch def} {pop} ifelse
  dup bburx gt {/bburx exch def} {pop} ifelse
  dup bblly lt {/bblly exch def} {pop} ifelse
  dup bbllx lt {/bbllx exch def} {pop} ifelse
} def

% Set the bounding box to the values on the stack.
% <llx'> <lly'> <urx'> <ury'> updatebbox --
/restorebbox {
  /bbury exch def /bburx exch def /bblly exch def /bbllx exch def
} def

% Push the accumulated bounding box onto the stack.
% -- pushbbox <llx> <lly> <urx> <ury>
/pushbbox {bbllx bblly bburx bbury} def

% Make the relative bounding box relative to the currentpoint.
% <llx'> <lly'> <urx'> <ury'> inflate <llx> <lly> <urx> <ury>
/inflate {
  2 {fontsize 0.2 mul add 4 1 roll} repeat
  2 {fontsize 0.2 mul sub 4 1 roll} repeat
} def

% Make the relative bounding box relative to the currentpoint.
% <llx'> <lly'> <urx'> <ury'> relative <llx> <lly> <urx> <ury>
/relative {
  currentpoint 3 -1 roll add 3 1 roll add exch 4 2 roll
  currentpoint 3 -1 roll add 3 1 roll add exch 4 2 roll
} def

% Returns the size of a string appropriate for recshow.
% <string> stringsize <llx> <lly> <urx> <ury>
/stringsize {
  pushbbox /internalshow load /internalstroke load 7 -1 roll
  q
  nulldevice 0 0 m
  nullinternalshow nullinternalstroke
  resetbbox
  recshow
  /internalstroke exch def /internalshow exch def
  pushbbox 8 -4 roll restorebbox
  Q
} def

% Calculate values for string positioning.
/calcval {4 copy
  3 -1 roll sub /widy exch def sub neg /widx exch def
  pop pop /dy exch def /dx exch def} def

% Utilities to position a string.
% First letter (U=upper, C=center, B=baseline, L=lower)
% Second letter (L=left, C=center, R=right)
/align [
{calcval dx neg widy dy add neg rmoveto} % UL
{calcval dx neg widy 2 div dy add neg rmoveto} % CL
{calcval dx neg 0 rmoveto} % BL
{calcval dx neg dy neg rmoveto} % LL
{calcval widx dx add neg widy dy add neg rmoveto} % UR
{calcval widx dx add neg widy 2 div dy add neg rmoveto} % CR
{calcval widx dx add neg 0 rmoveto} % BR
{calcval widx dx add neg dy neg rmoveto} % LR
{calcval widx 2 div dx add neg widy dy add neg rmoveto} % UC
{calcval widx 2 div dx add neg widy 2 div dy add neg rmoveto} % CC
{calcval widx 2 div dx add neg 0 rmoveto} % BC
{calcval widx 2 div dx add neg dy neg rmoveto} % LC
] def

/vg&str {m q 1 -1 scale dup stringsize 4 copy align 11 -1 roll get exec
         q inflate relative frame exch exec Q recshow Q} def

end /procDict exch def
%%EndProlog

%%BeginSetup
save
procDict begin
printColorMap begin
632 430 setpagesize
0 0 0 0 setmargins
0 0 setorigin
632 430 setsize
naturalsize
portrait
imagescale
cliptobounds
setbasematrix
/Helvetica 10 sf
defaultGraphicsState
%%EndSetup

0.00000 0.00000 0.00000 RG
[ 1.00000 0.00000 0.00000 1.00000 0.00000 0.00000 ] defaultmatrix matrix concatmatrix setmatrix
cliprestore
1.00000 1.00000 1.00000 RG
newpath
0.00000 0.00000 m
632.000 0.00000 l
632.000 430.000 l
0.00000 430.000 l
0.00000 0.00000 l
h
f
0.00000 0.00000 0.00000 RG
0 0 632 430 rc
q
[ 2.00000 0.00000 0.00000 2.00000 0.00000 0.00000 ] concat
[ 1.00000 0.00000 0.00000 1.00000 -5.00000 324.000 ] concat
1.00000 1.00000 1.00000 RG
newpath
5.00000 -324.000 m
321.000 -324.000 l
321.000 -109.000 l
5.00000 -109.000 l
5.00000 -324.000 l
h
f
0.00000 0.00000 0.00000 RG
[ 2.00000 0.00000 0.00000 2.00000 -10.0000 648.000 ] defaultmatrix matrix concatmatrix setmatrix
[ 2.00000 0.00000 0.00000 2.00000 -10.0000 648.000 ] defaultmatrix matrix concatmatrix setmatrix
[ 1.00000 0.00000 0.00000 1.00000 0.00000 0.00000 ] defaultmatrix matrix concatmatrix setmatrix
[ 2.00000 0.00000 0.00000 2.00000 -10.0000 648.000 ] defaultmatrix matrix concatmatrix setmatrix
.960784 .960784 .960784 RG
newpath
13.7188 -226.470 m
13.7188 -164.501 l
13.7188 -162.292 15.5096 -160.501 17.7188 -160.501  c
303.235 -160.501 l
305.444 -160.501 307.235 -162.292 307.235 -164.501  c
307.235 -226.470 l
307.235 -228.679 305.444 -230.470 303.235 -230.470  c
17.7188 -230.470 l
15.5096 -230.470 13.7188 -228.679 13.7188 -226.470  c
h
f
.800000 1.00000 .800000 RG
newpath
13.7188 -230.470 m
307.235 -230.470 l
307.235 -212.501 l
13.7188 -212.501 l
13.7188 -230.470 l
h
f
.960784 .960784 .960784 RG
0.00000 0.00000 0.00000 RG
0 J
1.45000 M
newpath
76.3860 -226.082 m
77.5735 -226.082 l
77.5735 -218.332 l
81.8392 -218.332 l
81.8392 -217.332 l
76.3860 -217.332 l
76.3860 -226.082 l
h
85.5716 -223.144 m
84.9987 -223.144 84.5429 -222.917 84.2044 -222.464  c
83.8658 -222.011 83.6966 -221.394 83.6966 -220.613  c
83.6966 -219.821 83.8632 -219.201 84.1966 -218.753  c
84.5299 -218.305 84.9882 -218.082 85.5716 -218.082  c
86.1445 -218.082 86.6002 -218.308 86.9388 -218.761  c
87.2773 -219.214 87.4466 -219.832 87.4466 -220.613  c
87.4466 -221.384 87.2773 -221.998 86.9388 -222.457  c
86.6002 -222.915 86.1445 -223.144 85.5716 -223.144  c
h
85.5716 -224.050 m
86.5091 -224.050 87.2461 -223.746 87.7825 -223.136  c
88.3190 -222.527 88.5872 -221.686 88.5872 -220.613  c
88.5872 -219.540 88.3190 -218.696 87.7825 -218.082  c
87.2461 -217.467 86.5091 -217.160 85.5716 -217.160  c
84.6341 -217.160 83.8971 -217.467 83.3606 -218.082  c
82.8242 -218.696 82.5560 -219.540 82.5560 -220.613  c
82.5560 -221.686 82.8242 -222.527 83.3606 -223.136  c
83.8971 -223.746 84.6341 -224.050 85.5716 -224.050  c
h
92.9134 -223.144 m
92.3405 -223.144 91.8847 -222.917 91.5462 -222.464  c
91.2076 -222.011 91.0384 -221.394 91.0384 -220.613  c
91.0384 -219.821 91.2050 -219.201 91.5384 -218.753  c
91.8717 -218.305 92.3300 -218.082 92.9134 -218.082  c
93.4863 -218.082 93.9420 -218.308 94.2806 -218.761  c
94.6191 -219.214 94.7884 -219.832 94.7884 -220.613  c
94.7884 -221.384 94.6191 -221.998 94.2806 -222.457  c
93.9420 -222.915 93.4863 -223.144 92.9134 -223.144  c
h
92.9134 -224.050 m
93.8509 -224.050 94.5879 -223.746 95.1243 -223.136  c
95.6608 -222.527 95.9290 -221.686 95.9290 -220.613  c
95.9290 -219.540 95.6608 -218.696 95.1243 -218.082  c
94.5879 -217.467 93.8509 -217.160 92.9134 -217.160  c
91.9759 -217.160 91.2389 -217.467 90.7024 -218.082  c
90.1660 -218.696 89.8978 -219.540 89.8978 -220.613  c
89.8978 -221.686 90.1660 -222.527 90.7024 -223.136  c
91.2389 -223.746 91.9759 -224.050 92.9134 -224.050  c
h
98.7552 -218.316 m
98.7552 -214.832 l
97.6770 -214.832 l
97.6770 -223.894 l
98.7552 -223.894 l
98.7552 -222.894 l
98.9843 -223.290 99.2708 -223.582 99.6145 -223.769  c
99.9583 -223.957 100.370 -224.050 100.849 -224.050  c
101.651 -224.050 102.302 -223.735 102.802 -223.105  c
103.302 -222.475 103.552 -221.644 103.552 -220.613  c
103.552 -219.582 103.302 -218.748 102.802 -218.113  c
102.302 -217.477 101.651 -217.160 100.849 -217.160  c
100.370 -217.160 99.9583 -217.256 99.6145 -217.449  c
99.2708 -217.641 98.9843 -217.930 98.7552 -218.316  c
h
102.427 -220.613 m
102.427 -221.404 102.263 -222.024 101.935 -222.472  c
101.607 -222.920 101.161 -223.144 100.599 -223.144  c
100.026 -223.144 99.5755 -222.920 99.2474 -222.472  c
98.9192 -222.024 98.7552 -221.404 98.7552 -220.613  c
98.7552 -219.821 98.9192 -219.199 99.2474 -218.746  c
99.5755 -218.292 100.026 -218.066 100.599 -218.066  c
101.161 -218.066 101.607 -218.292 101.935 -218.746  c
102.263 -219.199 102.427 -219.821 102.427 -220.613  c
h
105.607 -218.816 m
106.841 -218.816 l
106.841 -217.332 l
105.607 -217.332 l
105.607 -218.816 l
h
105.607 -223.535 m
106.841 -223.535 l
106.841 -222.050 l
105.607 -222.050 l
105.607 -223.535 l
h
113.089 -226.457 m
115.574 -226.457 l
115.574 -225.613 l
114.167 -225.613 l
114.167 -216.582 l
115.574 -216.582 l
115.574 -215.753 l
113.089 -215.753 l
113.089 -226.457 l
h
117.755 -219.925 m
117.755 -223.894 l
118.833 -223.894 l
118.833 -219.957 l
118.833 -219.342 118.956 -218.878 119.200 -218.566  c
119.445 -218.253 119.807 -218.097 120.286 -218.097  c
120.870 -218.097 121.331 -218.282 121.669 -218.652  c
122.008 -219.022 122.177 -219.529 122.177 -220.175  c
122.177 -223.894 l
123.255 -223.894 l
123.255 -217.332 l
122.177 -217.332 l
122.177 -218.347 l
121.917 -217.941 121.615 -217.641 121.271 -217.449  c
120.927 -217.256 120.526 -217.160 120.068 -217.160  c
119.307 -217.160 118.732 -217.394 118.341 -217.863  c
117.950 -218.332 117.755 -219.019 117.755 -219.925  c
h
130.939 -221.300 m
130.939 -217.332 l
129.861 -217.332 l
129.861 -221.253 l
129.861 -221.878 129.738 -222.345 129.493 -222.652  c
129.249 -222.959 128.887 -223.113 128.408 -223.113  c
127.824 -223.113 127.363 -222.928 127.025 -222.558  c
126.686 -222.188 126.517 -221.680 126.517 -221.035  c
126.517 -217.332 l
125.439 -217.332 l
125.439 -223.894 l
126.517 -223.894 l
126.517 -222.878 l
126.777 -223.274 127.082 -223.569 127.431 -223.761  c
127.780 -223.954 128.184 -224.050 128.642 -224.050  c
129.392 -224.050 129.962 -223.819 130.353 -223.355  c
130.743 -222.891 130.939 -222.207 130.939 -221.300  c
h
134.154 -225.753 m
134.154 -223.894 l
136.372 -223.894 l
136.372 -223.050 l
134.154 -223.050 l
134.154 -219.488 l
134.154 -218.957 134.227 -218.615 134.372 -218.464  c
134.518 -218.313 134.815 -218.238 135.263 -218.238  c
136.372 -218.238 l
136.372 -217.332 l
135.263 -217.332 l
134.430 -217.332 133.854 -217.488 133.536 -217.800  c
133.219 -218.113 133.060 -218.675 133.060 -219.488  c
133.060 -223.050 l
132.279 -223.050 l
132.279 -223.894 l
133.060 -223.894 l
133.060 -225.753 l
134.154 -225.753 l
h
137.781 -223.894 m
138.859 -223.894 l
138.859 -217.332 l
137.781 -217.332 l
137.781 -223.894 l
h
137.781 -226.457 m
138.859 -226.457 l
138.859 -225.082 l
137.781 -225.082 l
137.781 -226.457 l
h
141.115 -226.457 m
142.193 -226.457 l
142.193 -217.332 l
141.115 -217.332 l
141.115 -226.457 l
h
152.450 -223.707 m
152.450 -222.675 l
152.148 -222.832 151.833 -222.949 151.505 -223.027  c
151.177 -223.105 150.836 -223.144 150.482 -223.144  c
149.950 -223.144 149.549 -223.063 149.279 -222.902  c
149.008 -222.740 148.872 -222.493 148.872 -222.160  c
148.872 -221.910 148.969 -221.714 149.161 -221.574  c
149.354 -221.433 149.742 -221.300 150.325 -221.175  c
150.685 -221.082 l
151.456 -220.925 152.003 -220.696 152.325 -220.394  c
152.648 -220.092 152.810 -219.675 152.810 -219.144  c
152.810 -218.529 152.568 -218.045 152.083 -217.691  c
151.599 -217.337 150.935 -217.160 150.091 -217.160  c
149.737 -217.160 149.370 -217.194 148.990 -217.261  c
148.609 -217.329 148.211 -217.430 147.794 -217.566  c
147.794 -218.691 l
148.190 -218.483 148.581 -218.326 148.966 -218.222  c
149.352 -218.118 149.737 -218.066 150.122 -218.066  c
150.622 -218.066 151.010 -218.152 151.286 -218.324  c
151.562 -218.496 151.700 -218.743 151.700 -219.066  c
151.700 -219.358 151.602 -219.582 151.404 -219.738  c
151.206 -219.894 150.773 -220.045 150.107 -220.191  c
149.732 -220.269 l
149.065 -220.415 148.583 -220.634 148.286 -220.925  c
147.990 -221.217 147.841 -221.613 147.841 -222.113  c
147.841 -222.738 148.060 -223.217 148.497 -223.550  c
148.935 -223.884 149.555 -224.050 150.357 -224.050  c
150.753 -224.050 151.128 -224.022 151.482 -223.964  c
151.836 -223.907 152.159 -223.821 152.450 -223.707  c
h
155.593 -225.753 m
155.593 -223.894 l
157.812 -223.894 l
157.812 -223.050 l
155.593 -223.050 l
155.593 -219.488 l
155.593 -218.957 155.666 -218.615 155.812 -218.464  c
155.958 -218.313 156.255 -218.238 156.702 -218.238  c
157.812 -218.238 l
157.812 -217.332 l
156.702 -217.332 l
155.869 -217.332 155.294 -217.488 154.976 -217.800  c
154.658 -218.113 154.499 -218.675 154.499 -219.488  c
154.499 -223.050 l
153.718 -223.050 l
153.718 -223.894 l
154.499 -223.894 l
154.499 -225.753 l
155.593 -225.753 l
h
163.033 -222.894 m
162.908 -222.957 162.775 -223.006 162.634 -223.042  c
162.493 -223.079 162.335 -223.097 162.158 -223.097  c
161.553 -223.097 161.087 -222.899 160.759 -222.503  c
160.431 -222.108 160.267 -221.535 160.267 -220.785  c
160.267 -217.332 l
159.189 -217.332 l
159.189 -223.894 l
160.267 -223.894 l
160.267 -222.878 l
160.496 -223.274 160.793 -223.569 161.158 -223.761  c
161.522 -223.954 161.965 -224.050 162.486 -224.050  c
162.559 -224.050 162.639 -224.045 162.728 -224.035  c
162.816 -224.024 162.913 -224.009 163.017 -223.988  c
163.033 -222.894 l
h
169.779 -220.878 m
169.779 -220.363 l
164.810 -220.363 l
164.862 -219.613 165.089 -219.045 165.490 -218.660  c
165.891 -218.274 166.445 -218.082 167.154 -218.082  c
167.570 -218.082 167.974 -218.131 168.365 -218.230  c
168.755 -218.329 169.143 -218.483 169.529 -218.691  c
169.529 -217.660 l
169.133 -217.503 168.732 -217.381 168.325 -217.292  c
167.919 -217.204 167.508 -217.160 167.091 -217.160  c
166.049 -217.160 165.221 -217.464 164.607 -218.074  c
163.992 -218.683 163.685 -219.509 163.685 -220.550  c
163.685 -221.623 163.977 -222.475 164.560 -223.105  c
165.143 -223.735 165.924 -224.050 166.904 -224.050  c
167.789 -224.050 168.490 -223.766 169.005 -223.199  c
169.521 -222.631 169.779 -221.858 169.779 -220.878  c
h
168.700 -221.207 m
168.690 -221.790 168.523 -222.259 168.200 -222.613  c
167.878 -222.967 167.450 -223.144 166.919 -223.144  c
166.315 -223.144 165.833 -222.972 165.474 -222.628  c
165.115 -222.285 164.909 -221.805 164.857 -221.191  c
168.700 -221.207 l
h
174.521 -220.628 m
173.656 -220.628 173.055 -220.529 172.716 -220.332  c
172.378 -220.134 172.208 -219.795 172.208 -219.316  c
172.208 -218.930 172.336 -218.626 172.591 -218.402  c
172.846 -218.178 173.187 -218.066 173.615 -218.066  c
174.219 -218.066 174.700 -218.277 175.060 -218.699  c
175.419 -219.121 175.599 -219.686 175.599 -220.394  c
175.599 -220.628 l
174.521 -220.628 l
h
176.677 -221.082 m
176.677 -217.332 l
175.599 -217.332 l
175.599 -218.332 l
175.349 -217.936 175.042 -217.641 174.677 -217.449  c
174.312 -217.256 173.865 -217.160 173.333 -217.160  c
172.656 -217.160 172.120 -217.350 171.724 -217.730  c
171.328 -218.110 171.130 -218.613 171.130 -219.238  c
171.130 -219.977 171.378 -220.535 171.872 -220.910  c
172.367 -221.285 173.104 -221.472 174.083 -221.472  c
175.599 -221.472 l
175.599 -221.582 l
175.599 -222.082 175.435 -222.467 175.107 -222.738  c
174.779 -223.009 174.323 -223.144 173.740 -223.144  c
173.365 -223.144 172.997 -223.097 172.638 -223.003  c
172.279 -222.910 171.937 -222.774 171.615 -222.597  c
171.615 -223.597 l
172.010 -223.753 172.393 -223.868 172.763 -223.941  c
173.133 -224.014 173.495 -224.050 173.849 -224.050  c
174.797 -224.050 175.505 -223.805 175.974 -223.316  c
176.443 -222.826 176.677 -222.082 176.677 -221.082  c
h
183.999 -222.628 m
184.270 -223.118 184.593 -223.477 184.968 -223.707  c
185.343 -223.936 185.786 -224.050 186.296 -224.050  c
186.984 -224.050 187.512 -223.811 187.882 -223.332  c
188.252 -222.852 188.437 -222.175 188.437 -221.300  c
188.437 -217.332 l
187.359 -217.332 l
187.359 -221.253 l
187.359 -221.889 187.247 -222.358 187.023 -222.660  c
186.799 -222.962 186.458 -223.113 185.999 -223.113  c
185.437 -223.113 184.994 -222.928 184.671 -222.558  c
184.348 -222.188 184.187 -221.680 184.187 -221.035  c
184.187 -217.332 l
183.109 -217.332 l
183.109 -221.253 l
183.109 -221.889 182.997 -222.358 182.773 -222.660  c
182.549 -222.962 182.202 -223.113 181.734 -223.113  c
181.182 -223.113 180.744 -222.928 180.421 -222.558  c
180.098 -222.188 179.937 -221.680 179.937 -221.035  c
179.937 -217.332 l
178.859 -217.332 l
178.859 -223.894 l
179.937 -223.894 l
179.937 -222.878 l
180.187 -223.274 180.484 -223.569 180.827 -223.761  c
181.171 -223.954 181.577 -224.050 182.046 -224.050  c
182.525 -224.050 182.932 -223.930 183.265 -223.691  c
183.598 -223.451 183.843 -223.097 183.999 -222.628  c
h
194.394 -223.894 m
195.472 -223.894 l
195.472 -217.332 l
194.394 -217.332 l
194.394 -223.894 l
h
194.394 -226.457 m
195.472 -226.457 l
195.472 -225.082 l
194.394 -225.082 l
194.394 -226.457 l
h
201.915 -223.707 m
201.915 -222.675 l
201.613 -222.832 201.298 -222.949 200.970 -223.027  c
200.642 -223.105 200.301 -223.144 199.947 -223.144  c
199.415 -223.144 199.014 -223.063 198.743 -222.902  c
198.473 -222.740 198.337 -222.493 198.337 -222.160  c
198.337 -221.910 198.434 -221.714 198.626 -221.574  c
198.819 -221.433 199.207 -221.300 199.790 -221.175  c
200.150 -221.082 l
200.921 -220.925 201.467 -220.696 201.790 -220.394  c
202.113 -220.092 202.275 -219.675 202.275 -219.144  c
202.275 -218.529 202.033 -218.045 201.548 -217.691  c
201.064 -217.337 200.400 -217.160 199.556 -217.160  c
199.202 -217.160 198.835 -217.194 198.454 -217.261  c
198.074 -217.329 197.676 -217.430 197.259 -217.566  c
197.259 -218.691 l
197.655 -218.483 198.046 -218.326 198.431 -218.222  c
198.816 -218.118 199.202 -218.066 199.587 -218.066  c
200.087 -218.066 200.475 -218.152 200.751 -218.324  c
201.027 -218.496 201.165 -218.743 201.165 -219.066  c
201.165 -219.358 201.066 -219.582 200.868 -219.738  c
200.671 -219.894 200.238 -220.045 199.572 -220.191  c
199.197 -220.269 l
198.530 -220.415 198.048 -220.634 197.751 -220.925  c
197.454 -221.217 197.306 -221.613 197.306 -222.113  c
197.306 -222.738 197.525 -223.217 197.962 -223.550  c
198.400 -223.884 199.019 -224.050 199.822 -224.050  c
200.217 -224.050 200.592 -224.022 200.947 -223.964  c
201.301 -223.907 201.624 -223.821 201.915 -223.707  c
h
211.607 -222.894 m
211.482 -222.957 211.349 -223.006 211.208 -223.042  c
211.068 -223.079 210.909 -223.097 210.732 -223.097  c
210.128 -223.097 209.661 -222.899 209.333 -222.503  c
209.005 -222.108 208.841 -221.535 208.841 -220.785  c
208.841 -217.332 l
207.763 -217.332 l
207.763 -223.894 l
208.841 -223.894 l
208.841 -222.878 l
209.070 -223.274 209.367 -223.569 209.732 -223.761  c
210.096 -223.954 210.539 -224.050 211.060 -224.050  c
211.133 -224.050 211.214 -224.045 211.302 -224.035  c
211.391 -224.024 211.487 -224.009 211.591 -223.988  c
211.607 -222.894 l
h
218.353 -220.878 m
218.353 -220.363 l
213.384 -220.363 l
213.436 -219.613 213.663 -219.045 214.064 -218.660  c
214.465 -218.274 215.019 -218.082 215.728 -218.082  c
216.144 -218.082 216.548 -218.131 216.939 -218.230  c
217.329 -218.329 217.717 -218.483 218.103 -218.691  c
218.103 -217.660 l
217.707 -217.503 217.306 -217.381 216.900 -217.292  c
216.493 -217.204 216.082 -217.160 215.665 -217.160  c
214.624 -217.160 213.796 -217.464 213.181 -218.074  c
212.566 -218.683 212.259 -219.509 212.259 -220.550  c
212.259 -221.623 212.551 -222.475 213.134 -223.105  c
213.717 -223.735 214.499 -224.050 215.478 -224.050  c
216.363 -224.050 217.064 -223.766 217.579 -223.199  c
218.095 -222.631 218.353 -221.858 218.353 -220.878  c
h
217.275 -221.207 m
217.264 -221.790 217.098 -222.259 216.775 -222.613  c
216.452 -222.967 216.025 -223.144 215.493 -223.144  c
214.889 -223.144 214.408 -222.972 214.048 -222.628  c
213.689 -222.285 213.483 -221.805 213.431 -221.191  c
217.275 -221.207 l
h
223.095 -220.628 m
222.230 -220.628 221.629 -220.529 221.290 -220.332  c
220.952 -220.134 220.783 -219.795 220.783 -219.316  c
220.783 -218.930 220.910 -218.626 221.165 -218.402  c
221.421 -218.178 221.762 -218.066 222.189 -218.066  c
222.793 -218.066 223.275 -218.277 223.634 -218.699  c
223.993 -219.121 224.173 -219.686 224.173 -220.394  c
224.173 -220.628 l
223.095 -220.628 l
h
225.251 -221.082 m
225.251 -217.332 l
224.173 -217.332 l
224.173 -218.332 l
223.923 -217.936 223.616 -217.641 223.251 -217.449  c
222.887 -217.256 222.439 -217.160 221.908 -217.160  c
221.230 -217.160 220.694 -217.350 220.298 -217.730  c
219.902 -218.110 219.704 -218.613 219.704 -219.238  c
219.704 -219.977 219.952 -220.535 220.447 -220.910  c
220.941 -221.285 221.678 -221.472 222.658 -221.472  c
224.173 -221.472 l
224.173 -221.582 l
224.173 -222.082 224.009 -222.467 223.681 -222.738  c
223.353 -223.009 222.897 -223.144 222.314 -223.144  c
221.939 -223.144 221.572 -223.097 221.212 -223.003  c
220.853 -222.910 220.512 -222.774 220.189 -222.597  c
220.189 -223.597 l
220.585 -223.753 220.967 -223.868 221.337 -223.941  c
221.707 -224.014 222.069 -224.050 222.423 -224.050  c
223.371 -224.050 224.079 -223.805 224.548 -223.316  c
225.017 -222.826 225.251 -222.082 225.251 -221.082  c
h
231.792 -222.894 m
231.792 -226.457 l
232.870 -226.457 l
232.870 -217.332 l
231.792 -217.332 l
231.792 -218.316 l
231.563 -217.930 231.277 -217.641 230.933 -217.449  c
230.589 -217.256 230.172 -217.160 229.683 -217.160  c
228.891 -217.160 228.245 -217.477 227.745 -218.113  c
227.245 -218.748 226.995 -219.582 226.995 -220.613  c
226.995 -221.644 227.245 -222.475 227.745 -223.105  c
228.245 -223.735 228.891 -224.050 229.683 -224.050  c
230.172 -224.050 230.589 -223.957 230.933 -223.769  c
231.277 -223.582 231.563 -223.290 231.792 -222.894  c
h
228.120 -220.613 m
228.120 -219.821 228.282 -219.199 228.605 -218.746  c
228.928 -218.292 229.376 -218.066 229.949 -218.066  c
230.521 -218.066 230.972 -218.292 231.300 -218.746  c
231.628 -219.199 231.792 -219.821 231.792 -220.613  c
231.792 -221.404 231.628 -222.024 231.300 -222.472  c
230.972 -222.920 230.521 -223.144 229.949 -223.144  c
229.376 -223.144 228.928 -222.920 228.605 -222.472  c
228.282 -222.024 228.120 -221.404 228.120 -220.613  c
h
237.816 -216.722 m
237.514 -215.941 237.217 -215.430 236.925 -215.191  c
236.633 -214.951 236.248 -214.832 235.769 -214.832  c
234.909 -214.832 l
234.909 -215.738 l
235.534 -215.738 l
235.837 -215.738 236.068 -215.808 236.230 -215.949  c
236.391 -216.089 236.571 -216.420 236.769 -216.941  c
236.972 -217.441 l
234.316 -223.894 l
235.456 -223.894 l
237.503 -218.769 l
239.566 -223.894 l
240.706 -223.894 l
237.816 -216.722 l
h
244.714 -226.457 m
244.714 -215.753 l
242.230 -215.753 l
242.230 -216.582 l
243.620 -216.582 l
243.620 -225.613 l
242.230 -225.613 l
242.230 -226.457 l
244.714 -226.457 l
h
f
2 J
10.0000 M
.960784 .960784 .960784 RG
0 J
1.45000 M
0.00000 0.00000 0.00000 RG
newpath
13.7188 -226.470 m
13.7188 -164.501 l
13.7188 -162.292 15.5096 -160.501 17.7188 -160.501  c
303.235 -160.501 l
305.444 -160.501 307.235 -162.292 307.235 -164.501  c
307.235 -226.470 l
307.235 -228.679 305.444 -230.470 303.235 -230.470  c
17.7188 -230.470 l
15.5096 -230.470 13.7188 -228.679 13.7188 -226.470  c
h
S
2 J
10.0000 M
.752941 .752941 .752941 RG
newpath
54.5000 -196.501 m
65.5000 -196.501 l
65.5000 -179.501 l
54.5000 -179.501 l
54.5000 -196.501 l
h
f
0 J
1.45000 M
0.00000 0.00000 0.00000 RG
newpath
54.5000 -196.501 m
65.5000 -196.501 l
65.5000 -179.501 l
54.5000 -179.501 l
54.5000 -196.501 l
h
S
2 J
10.0000 M
.752941 .752941 .752941 RG
newpath
260.454 -197.501 m
271.454 -197.501 l
271.454 -180.501 l
260.454 -180.501 l
260.454 -197.501 l
h
f
0 J
1.45000 M
0.00000 0.00000 0.00000 RG
newpath
260.454 -197.501 m
271.454 -197.501 l
271.454 -180.501 l
260.454 -180.501 l
260.454 -197.501 l
h
S
2 J
10.0000 M
1.00000 .800000 0.00000 RG
newpath
13.7188 -315.000 m
106.281 -315.000 l
106.281 -285.000 l
13.7188 -285.000 l
13.7188 -315.000 l
h
f
0.00000 0.00000 0.00000 RG
0 J
1.45000 M
newpath
37.5439 -297.330 m
38.7783 -297.330 l
38.7783 -295.846 l
37.5439 -295.846 l
37.5439 -297.330 l
h
37.5439 -302.049 m
38.7783 -302.049 l
38.7783 -300.564 l
37.5439 -300.564 l
37.5439 -302.049 l
h
46.6025 -304.314 m
46.6025 -303.158 l
46.1546 -303.367 45.7301 -303.525 45.3291 -303.635  c
44.9281 -303.744 44.5452 -303.799 44.1807 -303.799  c
43.5348 -303.799 43.0374 -303.674 42.6885 -303.424  c
42.3395 -303.174 42.1650 -302.814 42.1650 -302.346  c
42.1650 -301.960 42.2796 -301.669 42.5088 -301.471  c
42.7380 -301.273 43.1807 -301.117 43.8369 -301.002  c
44.5400 -300.846 l
45.4255 -300.679 46.0791 -300.385 46.5010 -299.963  c
46.9229 -299.541 47.1338 -298.976 47.1338 -298.268  c
47.1338 -297.413 46.8499 -296.768 46.2822 -296.330  c
45.7145 -295.893 44.8786 -295.674 43.7744 -295.674  c
43.3682 -295.674 42.9307 -295.721 42.4619 -295.814  c
41.9932 -295.908 41.5088 -296.049 41.0088 -296.236  c
41.0088 -297.455 l
41.4880 -297.184 41.9593 -296.981 42.4229 -296.846  c
42.8864 -296.710 43.3369 -296.643 43.7744 -296.643  c
44.4515 -296.643 44.9749 -296.775 45.3447 -297.041  c
45.7145 -297.307 45.8994 -297.684 45.8994 -298.174  c
45.8994 -298.601 45.7666 -298.937 45.5010 -299.182  c
45.2354 -299.426 44.8005 -299.606 44.1963 -299.721  c
43.4775 -299.861 l
42.5921 -300.038 41.9541 -300.314 41.5635 -300.689  c
41.1729 -301.064 40.9775 -301.585 40.9775 -302.252  c
40.9775 -303.033 41.2484 -303.645 41.7900 -304.088  c
42.3317 -304.531 43.0817 -304.752 44.0400 -304.752  c
44.4567 -304.752 44.8760 -304.715 45.2979 -304.643  c
45.7197 -304.570 46.1546 -304.460 46.6025 -304.314  c
h
50.0010 -304.268 m
50.0010 -302.408 l
52.2197 -302.408 l
52.2197 -301.564 l
50.0010 -301.564 l
50.0010 -298.002 l
50.0010 -297.471 50.0739 -297.130 50.2197 -296.979  c
50.3656 -296.827 50.6624 -296.752 51.1104 -296.752  c
52.2197 -296.752 l
52.2197 -295.846 l
51.1104 -295.846 l
50.2770 -295.846 49.7015 -296.002 49.3838 -296.314  c
49.0661 -296.627 48.9072 -297.189 48.9072 -298.002  c
48.9072 -301.564 l
48.1260 -301.564 l
48.1260 -302.408 l
48.9072 -302.408 l
48.9072 -304.268 l
50.0010 -304.268 l
h
57.4404 -301.408 m
57.3154 -301.471 57.1826 -301.520 57.0420 -301.557  c
56.9014 -301.593 56.7425 -301.611 56.5654 -301.611  c
55.9613 -301.611 55.4951 -301.413 55.1670 -301.018  c
54.8389 -300.622 54.6748 -300.049 54.6748 -299.299  c
54.6748 -295.846 l
53.5967 -295.846 l
53.5967 -302.408 l
54.6748 -302.408 l
54.6748 -301.393 l
54.9040 -301.788 55.2008 -302.083 55.5654 -302.275  c
55.9300 -302.468 56.3727 -302.564 56.8936 -302.564  c
56.9665 -302.564 57.0472 -302.559 57.1357 -302.549  c
57.2243 -302.538 57.3206 -302.523 57.4248 -302.502  c
57.4404 -301.408 l
h
64.1865 -299.393 m
64.1865 -298.877 l
59.2178 -298.877 l
59.2699 -298.127 59.4964 -297.559 59.8975 -297.174  c
60.2985 -296.788 60.8532 -296.596 61.5615 -296.596  c
61.9782 -296.596 62.3818 -296.645 62.7725 -296.744  c
63.1631 -296.843 63.5511 -296.997 63.9365 -297.205  c
63.9365 -296.174 l
63.5407 -296.018 63.1396 -295.895 62.7334 -295.807  c
62.3271 -295.718 61.9157 -295.674 61.4990 -295.674  c
60.4574 -295.674 59.6292 -295.979 59.0146 -296.588  c
58.4001 -297.197 58.0928 -298.023 58.0928 -299.064  c
58.0928 -300.137 58.3844 -300.989 58.9678 -301.619  c
59.5511 -302.249 60.3324 -302.564 61.3115 -302.564  c
62.1969 -302.564 62.8975 -302.281 63.4131 -301.713  c
63.9287 -301.145 64.1865 -300.372 64.1865 -299.393  c
h
63.1084 -299.721 m
63.0980 -300.304 62.9313 -300.773 62.6084 -301.127  c
62.2855 -301.481 61.8584 -301.658 61.3271 -301.658  c
60.7230 -301.658 60.2412 -301.486 59.8818 -301.143  c
59.5225 -300.799 59.3167 -300.320 59.2646 -299.705  c
63.1084 -299.721 l
h
68.9287 -299.143 m
68.0641 -299.143 67.4626 -299.044 67.1240 -298.846  c
66.7855 -298.648 66.6162 -298.309 66.6162 -297.830  c
66.6162 -297.445 66.7438 -297.140 66.9990 -296.916  c
67.2542 -296.692 67.5954 -296.580 68.0225 -296.580  c
68.6266 -296.580 69.1084 -296.791 69.4678 -297.213  c
69.8271 -297.635 70.0068 -298.200 70.0068 -298.908  c
70.0068 -299.143 l
68.9287 -299.143 l
h
71.0850 -299.596 m
71.0850 -295.846 l
70.0068 -295.846 l
70.0068 -296.846 l
69.7568 -296.450 69.4495 -296.156 69.0850 -295.963  c
68.7204 -295.770 68.2725 -295.674 67.7412 -295.674  c
67.0641 -295.674 66.5277 -295.864 66.1318 -296.244  c
65.7360 -296.624 65.5381 -297.127 65.5381 -297.752  c
65.5381 -298.492 65.7855 -299.049 66.2803 -299.424  c
66.7751 -299.799 67.5120 -299.986 68.4912 -299.986  c
70.0068 -299.986 l
70.0068 -300.096 l
70.0068 -300.596 69.8428 -300.981 69.5146 -301.252  c
69.1865 -301.523 68.7308 -301.658 68.1475 -301.658  c
67.7725 -301.658 67.4053 -301.611 67.0459 -301.518  c
66.6865 -301.424 66.3454 -301.288 66.0225 -301.111  c
66.0225 -302.111 l
66.4183 -302.268 66.8011 -302.382 67.1709 -302.455  c
67.5407 -302.528 67.9027 -302.564 68.2568 -302.564  c
69.2048 -302.564 69.9131 -302.320 70.3818 -301.830  c
70.8506 -301.340 71.0850 -300.596 71.0850 -299.596  c
h
78.4072 -301.143 m
78.6781 -301.632 79.0010 -301.992 79.3760 -302.221  c
79.7510 -302.450 80.1937 -302.564 80.7041 -302.564  c
81.3916 -302.564 81.9202 -302.325 82.2900 -301.846  c
82.6598 -301.367 82.8447 -300.689 82.8447 -299.814  c
82.8447 -295.846 l
81.7666 -295.846 l
81.7666 -299.768 l
81.7666 -300.403 81.6546 -300.872 81.4307 -301.174  c
81.2067 -301.476 80.8656 -301.627 80.4072 -301.627  c
79.8447 -301.627 79.4020 -301.442 79.0791 -301.072  c
78.7562 -300.702 78.5947 -300.195 78.5947 -299.549  c
78.5947 -295.846 l
77.5166 -295.846 l
77.5166 -299.768 l
77.5166 -300.403 77.4046 -300.872 77.1807 -301.174  c
76.9567 -301.476 76.6104 -301.627 76.1416 -301.627  c
75.5895 -301.627 75.1520 -301.442 74.8291 -301.072  c
74.5062 -300.702 74.3447 -300.195 74.3447 -299.549  c
74.3447 -295.846 l
73.2666 -295.846 l
73.2666 -302.408 l
74.3447 -302.408 l
74.3447 -301.393 l
74.5947 -301.788 74.8916 -302.083 75.2354 -302.275  c
75.5791 -302.468 75.9854 -302.564 76.4541 -302.564  c
76.9333 -302.564 77.3395 -302.445 77.6729 -302.205  c
78.0062 -301.965 78.2510 -301.611 78.4072 -301.143  c
h
f
2 J
10.0000 M
1.00000 .800000 0.00000 RG
0 J
1.45000 M
0.00000 0.00000 0.00000 RG
newpath
13.7188 -315.000 m
106.281 -315.000 l
106.281 -285.000 l
13.7188 -285.000 l
13.7188 -315.000 l
h
S
2 J
10.0000 M
1.00000 .800000 0.00000 RG
newpath
219.672 -316.000 m
312.235 -316.000 l
312.235 -286.000 l
219.672 -286.000 l
219.672 -316.000 l
h
f
0.00000 0.00000 0.00000 RG
0 J
1.45000 M
newpath
244.227 -298.330 m
245.462 -298.330 l
245.462 -296.846 l
244.227 -296.846 l
244.227 -298.330 l
h
244.227 -303.049 m
245.462 -303.049 l
245.462 -301.564 l
244.227 -301.564 l
244.227 -303.049 l
h
246.833 -305.596 m
254.223 -305.596 l
254.223 -304.596 l
251.129 -304.596 l
251.129 -296.846 l
249.942 -296.846 l
249.942 -304.596 l
246.833 -304.596 l
246.833 -305.596 l
h
260.788 -300.814 m
260.788 -296.846 l
259.710 -296.846 l
259.710 -300.768 l
259.710 -301.393 259.587 -301.859 259.342 -302.166  c
259.098 -302.473 258.736 -302.627 258.256 -302.627  c
257.673 -302.627 257.212 -302.442 256.874 -302.072  c
256.535 -301.702 256.366 -301.195 256.366 -300.549  c
256.366 -296.846 l
255.288 -296.846 l
255.288 -305.971 l
256.366 -305.971 l
256.366 -302.393 l
256.626 -302.788 256.931 -303.083 257.280 -303.275  c
257.629 -303.468 258.032 -303.564 258.491 -303.564  c
259.241 -303.564 259.811 -303.333 260.202 -302.869  c
260.592 -302.406 260.788 -301.721 260.788 -300.814  c
h
266.737 -302.408 m
266.612 -302.471 266.479 -302.520 266.338 -302.557  c
266.198 -302.593 266.039 -302.611 265.862 -302.611  c
265.258 -302.611 264.792 -302.413 264.463 -302.018  c
264.135 -301.622 263.971 -301.049 263.971 -300.299  c
263.971 -296.846 l
262.893 -296.846 l
262.893 -303.408 l
263.971 -303.408 l
263.971 -302.393 l
264.200 -302.788 264.497 -303.083 264.862 -303.275  c
265.226 -303.468 265.669 -303.564 266.190 -303.564  c
266.263 -303.564 266.344 -303.559 266.432 -303.549  c
266.521 -303.538 266.617 -303.523 266.721 -303.502  c
266.737 -302.408 l
h
273.483 -300.393 m
273.483 -299.877 l
268.514 -299.877 l
268.566 -299.127 268.793 -298.559 269.194 -298.174  c
269.595 -297.788 270.150 -297.596 270.858 -297.596  c
271.275 -297.596 271.678 -297.645 272.069 -297.744  c
272.460 -297.843 272.848 -297.997 273.233 -298.205  c
273.233 -297.174 l
272.837 -297.018 272.436 -296.895 272.030 -296.807  c
271.624 -296.718 271.212 -296.674 270.796 -296.674  c
269.754 -296.674 268.926 -296.979 268.311 -297.588  c
267.697 -298.197 267.389 -299.023 267.389 -300.064  c
267.389 -301.137 267.681 -301.989 268.264 -302.619  c
268.848 -303.249 269.629 -303.564 270.608 -303.564  c
271.493 -303.564 272.194 -303.281 272.710 -302.713  c
273.225 -302.145 273.483 -301.372 273.483 -300.393  c
h
272.405 -300.721 m
272.394 -301.304 272.228 -301.773 271.905 -302.127  c
271.582 -302.481 271.155 -302.658 270.624 -302.658  c
270.019 -302.658 269.538 -302.486 269.178 -302.143  c
268.819 -301.799 268.613 -301.320 268.561 -300.705  c
272.405 -300.721 l
h
278.225 -300.143 m
277.361 -300.143 276.759 -300.044 276.421 -299.846  c
276.082 -299.648 275.913 -299.309 275.913 -298.830  c
275.913 -298.445 276.040 -298.140 276.296 -297.916  c
276.551 -297.692 276.892 -297.580 277.319 -297.580  c
277.923 -297.580 278.405 -297.791 278.764 -298.213  c
279.124 -298.635 279.303 -299.200 279.303 -299.908  c
279.303 -300.143 l
278.225 -300.143 l
h
280.381 -300.596 m
280.381 -296.846 l
279.303 -296.846 l
279.303 -297.846 l
279.053 -297.450 278.746 -297.156 278.381 -296.963  c
278.017 -296.770 277.569 -296.674 277.038 -296.674  c
276.361 -296.674 275.824 -296.864 275.428 -297.244  c
275.032 -297.624 274.835 -298.127 274.835 -298.752  c
274.835 -299.492 275.082 -300.049 275.577 -300.424  c
276.072 -300.799 276.809 -300.986 277.788 -300.986  c
279.303 -300.986 l
279.303 -301.096 l
279.303 -301.596 279.139 -301.981 278.811 -302.252  c
278.483 -302.523 278.027 -302.658 277.444 -302.658  c
277.069 -302.658 276.702 -302.611 276.342 -302.518  c
275.983 -302.424 275.642 -302.288 275.319 -302.111  c
275.319 -303.111 l
275.715 -303.268 276.098 -303.382 276.467 -303.455  c
276.837 -303.528 277.199 -303.564 277.553 -303.564  c
278.501 -303.564 279.210 -303.320 279.678 -302.830  c
280.147 -302.340 280.381 -301.596 280.381 -300.596  c
h
286.922 -302.408 m
286.922 -305.971 l
288.001 -305.971 l
288.001 -296.846 l
286.922 -296.846 l
286.922 -297.830 l
286.693 -297.445 286.407 -297.156 286.063 -296.963  c
285.719 -296.770 285.303 -296.674 284.813 -296.674  c
284.021 -296.674 283.376 -296.992 282.876 -297.627  c
282.376 -298.262 282.126 -299.096 282.126 -300.127  c
282.126 -301.158 282.376 -301.989 282.876 -302.619  c
283.376 -303.249 284.021 -303.564 284.813 -303.564  c
285.303 -303.564 285.719 -303.471 286.063 -303.283  c
286.407 -303.096 286.693 -302.804 286.922 -302.408  c
h
283.251 -300.127 m
283.251 -299.335 283.412 -298.713 283.735 -298.260  c
284.058 -297.807 284.506 -297.580 285.079 -297.580  c
285.652 -297.580 286.102 -297.807 286.430 -298.260  c
286.758 -298.713 286.922 -299.335 286.922 -300.127  c
286.922 -300.919 286.758 -301.538 286.430 -301.986  c
286.102 -302.434 285.652 -302.658 285.079 -302.658  c
284.506 -302.658 284.058 -302.434 283.735 -301.986  c
283.412 -301.538 283.251 -300.919 283.251 -300.127  c
h
f
2 J
10.0000 M
1.00000 .800000 0.00000 RG
0 J
1.45000 M
0.00000 0.00000 0.00000 RG
newpath
219.672 -316.000 m
312.235 -316.000 l
312.235 -286.000 l
219.672 -286.000 l
219.672 -316.000 l
h
S
2 J
10.0000 M
q
<< /PatternType 2
   /Shading
   << /ShadingType 2
      /ColorSpace /DeviceRGB
      /Coords [150.08160400390625 -146.0 269.91839599609375 -117.61280059814453]
      /Function
      << /FunctionType 2
         /Domain [0 1]
         /Range [0 1 0 1 0 1]
         /C0 [0.9098039 0.93333334 0.96862745]
         /C1 [0.7176471 0.7882353 0.8901961]
         /N 1
      >>
      /Extend [true true]
   >>
>>
matrix makepattern setpattern
newpath
160.082 -146.000 m
269.918 -146.000 l
269.918 -117.613 l
150.082 -117.613 l
150.082 -136.000 l
h
f
0 J
1.45000 M
0.00000 0.00000 0.00000 RG
newpath
160.082 -146.000 m
269.918 -146.000 l
269.918 -117.613 l
150.082 -117.613 l
150.082 -136.000 l
h
S
2 J
10.0000 M
0 J
1.45000 M
newpath
180.147 -141.462 m
181.131 -141.462 l
181.131 -134.993 l
184.678 -134.993 l
184.678 -134.165 l
180.147 -134.165 l
180.147 -141.462 l
h
188.156 -136.915 m
187.437 -136.915 186.937 -136.831 186.656 -136.665  c
186.375 -136.498 186.234 -136.217 186.234 -135.821  c
186.234 -135.498 186.338 -135.243 186.546 -135.055  c
186.755 -134.868 187.041 -134.774 187.406 -134.774  c
187.906 -134.774 188.307 -134.951 188.609 -135.305  c
188.911 -135.660 189.062 -136.128 189.062 -136.712  c
189.062 -136.915 l
188.156 -136.915 l
h
189.953 -137.290 m
189.953 -134.165 l
189.062 -134.165 l
189.062 -134.993 l
188.854 -134.660 188.596 -134.415 188.289 -134.259  c
187.981 -134.102 187.609 -134.024 187.171 -134.024  c
186.609 -134.024 186.161 -134.180 185.828 -134.493  c
185.494 -134.805 185.328 -135.227 185.328 -135.759  c
185.328 -136.373 185.536 -136.837 185.953 -137.149  c
186.369 -137.462 186.984 -137.618 187.796 -137.618  c
189.062 -137.618 l
189.062 -137.712 l
189.062 -138.118 188.924 -138.436 188.648 -138.665  c
188.372 -138.894 187.989 -139.009 187.500 -139.009  c
187.187 -139.009 186.882 -138.969 186.585 -138.891  c
186.289 -138.813 186.005 -138.701 185.734 -138.555  c
185.734 -139.384 l
186.067 -139.509 186.388 -139.602 186.695 -139.665  c
187.002 -139.727 187.302 -139.759 187.593 -139.759  c
188.385 -139.759 188.976 -139.555 189.367 -139.149  c
189.757 -138.743 189.953 -138.123 189.953 -137.290  c
h
199.525 -137.462 m
199.525 -134.165 l
198.634 -134.165 l
198.634 -137.430 l
198.634 -137.951 198.533 -138.339 198.330 -138.594  c
198.126 -138.850 197.822 -138.977 197.416 -138.977  c
196.936 -138.977 196.556 -138.824 196.275 -138.516  c
195.994 -138.209 195.853 -137.790 195.853 -137.259  c
195.853 -134.165 l
194.947 -134.165 l
194.947 -141.759 l
195.853 -141.759 l
195.853 -138.790 l
196.072 -139.113 196.327 -139.355 196.619 -139.516  c
196.910 -139.678 197.244 -139.759 197.619 -139.759  c
198.244 -139.759 198.718 -139.566 199.041 -139.180  c
199.363 -138.795 199.525 -138.222 199.525 -137.462  c
h
206.003 -137.118 m
206.003 -136.680 l
201.863 -136.680 l
201.904 -136.066 202.092 -135.597 202.425 -135.274  c
202.759 -134.951 203.222 -134.790 203.816 -134.790  c
204.160 -134.790 204.496 -134.831 204.824 -134.915  c
205.152 -134.998 205.472 -135.123 205.785 -135.290  c
205.785 -134.446 l
205.462 -134.311 205.131 -134.206 204.792 -134.134  c
204.454 -134.061 204.113 -134.024 203.769 -134.024  c
202.894 -134.024 202.201 -134.277 201.691 -134.782  c
201.181 -135.287 200.925 -135.977 200.925 -136.852  c
200.925 -137.748 201.167 -138.456 201.652 -138.977  c
202.136 -139.498 202.790 -139.759 203.613 -139.759  c
204.352 -139.759 204.936 -139.524 205.363 -139.055  c
205.790 -138.587 206.003 -137.941 206.003 -137.118  c
h
205.097 -137.384 m
205.097 -137.873 204.962 -138.266 204.691 -138.563  c
204.420 -138.860 204.066 -139.009 203.628 -139.009  c
203.118 -139.009 202.714 -138.865 202.417 -138.579  c
202.121 -138.292 201.946 -137.894 201.894 -137.384  c
205.097 -137.384 l
h
211.406 -136.899 m
211.406 -137.555 211.268 -138.071 210.992 -138.446  c
210.716 -138.821 210.343 -139.009 209.875 -139.009  c
209.395 -139.009 209.020 -138.821 208.750 -138.446  c
208.479 -138.071 208.343 -137.555 208.343 -136.899  c
208.343 -136.233 208.479 -135.712 208.750 -135.337  c
209.020 -134.962 209.395 -134.774 209.875 -134.774  c
210.343 -134.774 210.716 -134.962 210.992 -135.337  c
211.268 -135.712 211.406 -136.233 211.406 -136.899  c
h
208.343 -138.805 m
208.531 -139.128 208.768 -139.368 209.054 -139.524  c
209.341 -139.680 209.687 -139.759 210.093 -139.759  c
210.760 -139.759 211.299 -139.496 211.710 -138.969  c
212.122 -138.443 212.328 -137.753 212.328 -136.899  c
212.328 -136.035 212.122 -135.339 211.710 -134.813  c
211.299 -134.287 210.760 -134.024 210.093 -134.024  c
209.687 -134.024 209.341 -134.102 209.054 -134.259  c
208.768 -134.415 208.531 -134.660 208.343 -134.993  c
208.343 -134.165 l
207.437 -134.165 l
207.437 -141.759 l
208.343 -141.759 l
208.343 -138.805 l
h
216.988 -138.790 m
216.884 -138.852 216.774 -138.897 216.660 -138.923  c
216.545 -138.949 216.415 -138.962 216.269 -138.962  c
215.759 -138.962 215.368 -138.798 215.097 -138.469  c
214.826 -138.141 214.691 -137.665 214.691 -137.040  c
214.691 -134.165 l
213.785 -134.165 l
213.785 -139.634 l
214.691 -139.634 l
214.691 -138.790 l
214.878 -139.123 215.123 -139.368 215.425 -139.524  c
215.727 -139.680 216.097 -139.759 216.535 -139.759  c
216.597 -139.759 216.665 -139.756 216.738 -139.751  c
216.811 -139.746 216.894 -139.733 216.988 -139.712  c
216.988 -138.790 l
h
220.412 -136.915 m
219.693 -136.915 219.193 -136.831 218.912 -136.665  c
218.630 -136.498 218.490 -136.217 218.490 -135.821  c
218.490 -135.498 218.594 -135.243 218.802 -135.055  c
219.011 -134.868 219.297 -134.774 219.662 -134.774  c
220.162 -134.774 220.563 -134.951 220.865 -135.305  c
221.167 -135.660 221.318 -136.128 221.318 -136.712  c
221.318 -136.915 l
220.412 -136.915 l
h
222.208 -137.290 m
222.208 -134.165 l
221.318 -134.165 l
221.318 -134.993 l
221.110 -134.660 220.852 -134.415 220.544 -134.259  c
220.237 -134.102 219.865 -134.024 219.427 -134.024  c
218.865 -134.024 218.417 -134.180 218.083 -134.493  c
217.750 -134.805 217.583 -135.227 217.583 -135.759  c
217.583 -136.373 217.792 -136.837 218.208 -137.149  c
218.625 -137.462 219.240 -137.618 220.052 -137.618  c
221.318 -137.618 l
221.318 -137.712 l
221.318 -138.118 221.180 -138.436 220.904 -138.665  c
220.628 -138.894 220.245 -139.009 219.755 -139.009  c
219.443 -139.009 219.138 -138.969 218.841 -138.891  c
218.544 -138.813 218.261 -138.701 217.990 -138.555  c
217.990 -139.384 l
218.323 -139.509 218.643 -139.602 218.951 -139.665  c
219.258 -139.727 219.557 -139.759 219.849 -139.759  c
220.641 -139.759 221.232 -139.555 221.623 -139.149  c
222.013 -138.743 222.208 -138.123 222.208 -137.290  c
h
230.718 -139.477 m
230.718 -138.618 l
230.468 -138.753 230.208 -138.852 229.937 -138.915  c
229.666 -138.977 229.380 -139.009 229.078 -139.009  c
228.640 -139.009 228.309 -138.941 228.085 -138.805  c
227.861 -138.670 227.750 -138.467 227.750 -138.196  c
227.750 -137.988 227.828 -137.824 227.984 -137.704  c
228.140 -137.584 228.463 -137.472 228.953 -137.368  c
229.250 -137.290 l
229.895 -137.154 230.351 -136.962 230.617 -136.712  c
230.882 -136.462 231.015 -136.118 231.015 -135.680  c
231.015 -135.170 230.815 -134.766 230.414 -134.469  c
230.013 -134.173 229.463 -134.024 228.765 -134.024  c
228.463 -134.024 228.153 -134.053 227.835 -134.110  c
227.518 -134.167 227.187 -134.253 226.843 -134.368  c
226.843 -135.290 l
227.177 -135.123 227.502 -134.996 227.820 -134.907  c
228.138 -134.818 228.458 -134.774 228.781 -134.774  c
229.197 -134.774 229.520 -134.847 229.750 -134.993  c
229.979 -135.139 230.093 -135.342 230.093 -135.602  c
230.093 -135.852 230.013 -136.042 229.851 -136.173  c
229.690 -136.303 229.328 -136.425 228.765 -136.540  c
228.453 -136.618 l
227.901 -136.733 227.500 -136.912 227.250 -137.157  c
227.000 -137.402 226.875 -137.733 226.875 -138.149  c
226.875 -138.670 227.057 -139.068 227.421 -139.344  c
227.786 -139.621 228.307 -139.759 228.984 -139.759  c
229.307 -139.759 229.617 -139.735 229.914 -139.688  c
230.210 -139.641 230.479 -139.571 230.718 -139.477  c
h
237.131 -137.118 m
237.131 -136.680 l
232.991 -136.680 l
233.032 -136.066 233.220 -135.597 233.553 -135.274  c
233.887 -134.951 234.350 -134.790 234.944 -134.790  c
235.288 -134.790 235.624 -134.831 235.952 -134.915  c
236.280 -134.998 236.600 -135.123 236.913 -135.290  c
236.913 -134.446 l
236.590 -134.311 236.259 -134.206 235.920 -134.134  c
235.582 -134.061 235.241 -134.024 234.897 -134.024  c
234.022 -134.024 233.329 -134.277 232.819 -134.782  c
232.308 -135.287 232.053 -135.977 232.053 -136.852  c
232.053 -137.748 232.295 -138.456 232.780 -138.977  c
233.264 -139.498 233.918 -139.759 234.741 -139.759  c
235.480 -139.759 236.064 -139.524 236.491 -139.055  c
236.918 -138.587 237.131 -137.941 237.131 -137.118  c
h
236.225 -137.384 m
236.225 -137.873 236.090 -138.266 235.819 -138.563  c
235.548 -138.860 235.194 -139.009 234.756 -139.009  c
234.246 -139.009 233.842 -138.865 233.545 -138.579  c
233.249 -138.292 233.074 -137.894 233.022 -137.384  c
236.225 -137.384 l
h
f
newpath
163.387 -126.946 m
163.605 -127.352 163.871 -127.649 164.184 -127.837  c
164.496 -128.024 164.866 -128.118 165.293 -128.118  c
165.866 -128.118 166.306 -127.920 166.613 -127.524  c
166.921 -127.128 167.074 -126.561 167.074 -125.821  c
167.074 -122.524 l
166.168 -122.524 l
166.168 -125.790 l
166.168 -126.321 166.077 -126.712 165.895 -126.962  c
165.712 -127.212 165.428 -127.337 165.043 -127.337  c
164.574 -127.337 164.207 -127.183 163.941 -126.876  c
163.676 -126.568 163.543 -126.149 163.543 -125.618  c
163.543 -122.524 l
162.637 -122.524 l
162.637 -125.790 l
162.637 -126.321 162.543 -126.712 162.355 -126.962  c
162.168 -127.212 161.882 -127.337 161.496 -127.337  c
161.038 -127.337 160.673 -127.183 160.402 -126.876  c
160.132 -126.568 159.996 -126.149 159.996 -125.618  c
159.996 -122.524 l
159.090 -122.524 l
159.090 -127.993 l
159.996 -127.993 l
159.996 -127.149 l
160.204 -127.483 160.452 -127.727 160.738 -127.884  c
161.025 -128.040 161.361 -128.118 161.746 -128.118  c
162.152 -128.118 162.493 -128.019 162.770 -127.821  c
163.046 -127.623 163.251 -127.331 163.387 -126.946  c
h
171.347 -125.274 m
170.628 -125.274 170.128 -125.191 169.847 -125.024  c
169.565 -124.858 169.425 -124.576 169.425 -124.180  c
169.425 -123.858 169.529 -123.602 169.737 -123.415  c
169.946 -123.227 170.232 -123.134 170.597 -123.134  c
171.097 -123.134 171.498 -123.311 171.800 -123.665  c
172.102 -124.019 172.253 -124.488 172.253 -125.071  c
172.253 -125.274 l
171.347 -125.274 l
h
173.144 -125.649 m
173.144 -122.524 l
172.253 -122.524 l
172.253 -123.352 l
172.045 -123.019 171.787 -122.774 171.479 -122.618  c
171.172 -122.462 170.800 -122.384 170.362 -122.384  c
169.800 -122.384 169.352 -122.540 169.019 -122.852  c
168.685 -123.165 168.519 -123.587 168.519 -124.118  c
168.519 -124.733 168.727 -125.196 169.144 -125.509  c
169.560 -125.821 170.175 -125.977 170.987 -125.977  c
172.253 -125.977 l
172.253 -126.071 l
172.253 -126.477 172.115 -126.795 171.839 -127.024  c
171.563 -127.253 171.180 -127.368 170.690 -127.368  c
170.378 -127.368 170.073 -127.329 169.776 -127.251  c
169.479 -127.173 169.196 -127.061 168.925 -126.915  c
168.925 -127.743 l
169.258 -127.868 169.578 -127.962 169.886 -128.024  c
170.193 -128.087 170.493 -128.118 170.784 -128.118  c
171.576 -128.118 172.167 -127.915 172.558 -127.509  c
172.948 -127.102 173.144 -126.483 173.144 -125.649  c
h
179.537 -125.821 m
179.537 -122.524 l
178.646 -122.524 l
178.646 -125.790 l
178.646 -126.311 178.545 -126.699 178.342 -126.954  c
178.139 -127.209 177.834 -127.337 177.428 -127.337  c
176.949 -127.337 176.568 -127.183 176.287 -126.876  c
176.006 -126.568 175.865 -126.149 175.865 -125.618  c
175.865 -122.524 l
174.959 -122.524 l
174.959 -127.993 l
175.865 -127.993 l
175.865 -127.149 l
176.084 -127.472 176.339 -127.714 176.631 -127.876  c
176.923 -128.037 177.256 -128.118 177.631 -128.118  c
178.256 -128.118 178.730 -127.925 179.053 -127.540  c
179.376 -127.154 179.537 -126.581 179.537 -125.821  c
h
182.219 -129.540 m
182.219 -127.993 l
184.078 -127.993 l
184.078 -127.290 l
182.219 -127.290 l
182.219 -124.321 l
182.219 -123.884 182.281 -123.600 182.406 -123.469  c
182.531 -123.339 182.781 -123.274 183.156 -123.274  c
184.078 -123.274 l
184.078 -122.524 l
183.156 -122.524 l
182.458 -122.524 181.977 -122.654 181.711 -122.915  c
181.445 -123.175 181.312 -123.644 181.312 -124.321  c
181.312 -127.290 l
180.656 -127.290 l
180.656 -127.993 l
181.312 -127.993 l
181.312 -129.540 l
182.219 -129.540 l
h
185.249 -127.993 m
186.155 -127.993 l
186.155 -122.524 l
185.249 -122.524 l
185.249 -127.993 l
h
185.249 -130.118 m
186.155 -130.118 l
186.155 -128.977 l
185.249 -128.977 l
185.249 -130.118 l
h
192.715 -125.477 m
192.715 -125.040 l
188.574 -125.040 l
188.616 -124.425 188.803 -123.956 189.137 -123.634  c
189.470 -123.311 189.934 -123.149 190.527 -123.149  c
190.871 -123.149 191.207 -123.191 191.535 -123.274  c
191.863 -123.358 192.184 -123.483 192.496 -123.649  c
192.496 -122.805 l
192.173 -122.670 191.842 -122.566 191.504 -122.493  c
191.165 -122.420 190.824 -122.384 190.480 -122.384  c
189.605 -122.384 188.913 -122.636 188.402 -123.141  c
187.892 -123.647 187.637 -124.337 187.637 -125.212  c
187.637 -126.108 187.879 -126.816 188.363 -127.337  c
188.848 -127.858 189.501 -128.118 190.324 -128.118  c
191.064 -128.118 191.647 -127.884 192.074 -127.415  c
192.501 -126.946 192.715 -126.300 192.715 -125.477  c
h
191.809 -125.743 m
191.809 -126.233 191.673 -126.626 191.402 -126.923  c
191.132 -127.219 190.777 -127.368 190.340 -127.368  c
189.829 -127.368 189.426 -127.225 189.129 -126.938  c
188.832 -126.652 188.658 -126.253 188.605 -125.743  c
191.809 -125.743 l
h
198.727 -125.821 m
198.727 -122.524 l
197.836 -122.524 l
197.836 -125.790 l
197.836 -126.311 197.734 -126.699 197.531 -126.954  c
197.328 -127.209 197.023 -127.337 196.617 -127.337  c
196.138 -127.337 195.758 -127.183 195.477 -126.876  c
195.195 -126.568 195.055 -126.149 195.055 -125.618  c
195.055 -122.524 l
194.148 -122.524 l
194.148 -127.993 l
195.055 -127.993 l
195.055 -127.149 l
195.273 -127.472 195.529 -127.714 195.820 -127.876  c
196.112 -128.037 196.445 -128.118 196.820 -128.118  c
197.445 -128.118 197.919 -127.925 198.242 -127.540  c
198.565 -127.154 198.727 -126.581 198.727 -125.821  c
h
205.205 -125.477 m
205.205 -125.040 l
201.064 -125.040 l
201.106 -124.425 201.294 -123.956 201.627 -123.634  c
201.960 -123.311 202.424 -123.149 203.018 -123.149  c
203.361 -123.149 203.697 -123.191 204.025 -123.274  c
204.354 -123.358 204.674 -123.483 204.986 -123.649  c
204.986 -122.805 l
204.663 -122.670 204.333 -122.566 203.994 -122.493  c
203.656 -122.420 203.314 -122.384 202.971 -122.384  c
202.096 -122.384 201.403 -122.636 200.893 -123.141  c
200.382 -123.647 200.127 -124.337 200.127 -125.212  c
200.127 -126.108 200.369 -126.816 200.854 -127.337  c
201.338 -127.858 201.992 -128.118 202.814 -128.118  c
203.554 -128.118 204.137 -127.884 204.564 -127.415  c
204.992 -126.946 205.205 -126.300 205.205 -125.477  c
h
204.299 -125.743 m
204.299 -126.233 204.163 -126.626 203.893 -126.923  c
203.622 -127.219 203.268 -127.368 202.830 -127.368  c
202.320 -127.368 201.916 -127.225 201.619 -126.938  c
201.322 -126.652 201.148 -126.253 201.096 -125.743  c
204.299 -125.743 l
h
214.536 -125.477 m
214.536 -125.040 l
210.396 -125.040 l
210.437 -124.425 210.625 -123.956 210.958 -123.634  c
211.291 -123.311 211.755 -123.149 212.349 -123.149  c
212.692 -123.149 213.028 -123.191 213.356 -123.274  c
213.685 -123.358 214.005 -123.483 214.317 -123.649  c
214.317 -122.805 l
213.994 -122.670 213.664 -122.566 213.325 -122.493  c
212.987 -122.420 212.646 -122.384 212.302 -122.384  c
211.427 -122.384 210.734 -122.636 210.224 -123.141  c
209.713 -123.647 209.458 -124.337 209.458 -125.212  c
209.458 -126.108 209.700 -126.816 210.185 -127.337  c
210.669 -127.858 211.323 -128.118 212.146 -128.118  c
212.885 -128.118 213.468 -127.884 213.896 -127.415  c
214.323 -126.946 214.536 -126.300 214.536 -125.477  c
h
213.630 -125.743 m
213.630 -126.233 213.494 -126.626 213.224 -126.923  c
212.953 -127.219 212.599 -127.368 212.161 -127.368  c
211.651 -127.368 211.247 -127.225 210.950 -126.938  c
210.653 -126.652 210.479 -126.253 210.427 -125.743  c
213.630 -125.743 l
h
219.485 -127.837 m
219.485 -126.977 l
219.235 -127.113 218.975 -127.212 218.704 -127.274  c
218.433 -127.337 218.147 -127.368 217.845 -127.368  c
217.407 -127.368 217.076 -127.300 216.853 -127.165  c
216.629 -127.029 216.517 -126.826 216.517 -126.555  c
216.517 -126.347 216.595 -126.183 216.751 -126.063  c
216.907 -125.943 217.230 -125.831 217.720 -125.727  c
218.017 -125.649 l
218.662 -125.514 219.118 -125.321 219.384 -125.071  c
219.649 -124.821 219.782 -124.477 219.782 -124.040  c
219.782 -123.529 219.582 -123.126 219.181 -122.829  c
218.780 -122.532 218.230 -122.384 217.532 -122.384  c
217.230 -122.384 216.920 -122.412 216.603 -122.469  c
216.285 -122.527 215.954 -122.613 215.610 -122.727  c
215.610 -123.649 l
215.944 -123.483 216.269 -123.355 216.587 -123.266  c
216.905 -123.178 217.225 -123.134 217.548 -123.134  c
217.965 -123.134 218.287 -123.206 218.517 -123.352  c
218.746 -123.498 218.860 -123.701 218.860 -123.962  c
218.860 -124.212 218.780 -124.402 218.618 -124.532  c
218.457 -124.662 218.095 -124.785 217.532 -124.899  c
217.220 -124.977 l
216.668 -125.092 216.267 -125.272 216.017 -125.516  c
215.767 -125.761 215.642 -126.092 215.642 -126.509  c
215.642 -127.029 215.824 -127.428 216.188 -127.704  c
216.553 -127.980 217.074 -128.118 217.751 -128.118  c
218.074 -128.118 218.384 -128.094 218.681 -128.048  c
218.978 -128.001 219.246 -127.930 219.485 -127.837  c
h
222.086 -123.352 m
222.086 -120.446 l
221.180 -120.446 l
221.180 -127.993 l
222.086 -127.993 l
222.086 -127.165 l
222.273 -127.488 222.510 -127.727 222.797 -127.884  c
223.083 -128.040 223.430 -128.118 223.836 -128.118  c
224.503 -128.118 225.042 -127.855 225.453 -127.329  c
225.865 -126.803 226.070 -126.113 226.070 -125.259  c
226.070 -124.394 225.865 -123.699 225.453 -123.173  c
225.042 -122.647 224.503 -122.384 223.836 -122.384  c
223.430 -122.384 223.083 -122.462 222.797 -122.618  c
222.510 -122.774 222.273 -123.019 222.086 -123.352  c
h
225.148 -125.259 m
225.148 -125.915 225.010 -126.430 224.734 -126.805  c
224.458 -127.180 224.086 -127.368 223.617 -127.368  c
223.138 -127.368 222.763 -127.180 222.492 -126.805  c
222.221 -126.430 222.086 -125.915 222.086 -125.259  c
222.086 -124.592 222.221 -124.071 222.492 -123.696  c
222.763 -123.321 223.138 -123.134 223.617 -123.134  c
224.086 -123.134 224.458 -123.321 224.734 -123.696  c
225.010 -124.071 225.148 -124.592 225.148 -125.259  c
h
232.246 -125.477 m
232.246 -125.040 l
228.105 -125.040 l
228.147 -124.425 228.335 -123.956 228.668 -123.634  c
229.001 -123.311 229.465 -123.149 230.059 -123.149  c
230.402 -123.149 230.738 -123.191 231.066 -123.274  c
231.395 -123.358 231.715 -123.483 232.027 -123.649  c
232.027 -122.805 l
231.704 -122.670 231.374 -122.566 231.035 -122.493  c
230.697 -122.420 230.355 -122.384 230.012 -122.384  c
229.137 -122.384 228.444 -122.636 227.934 -123.141  c
227.423 -123.647 227.168 -124.337 227.168 -125.212  c
227.168 -126.108 227.410 -126.816 227.895 -127.337  c
228.379 -127.858 229.033 -128.118 229.855 -128.118  c
230.595 -128.118 231.178 -127.884 231.605 -127.415  c
232.033 -126.946 232.246 -126.300 232.246 -125.477  c
h
231.340 -125.743 m
231.340 -126.233 231.204 -126.626 230.934 -126.923  c
230.663 -127.219 230.309 -127.368 229.871 -127.368  c
229.361 -127.368 228.957 -127.225 228.660 -126.938  c
228.363 -126.652 228.189 -126.253 228.137 -125.743  c
231.340 -125.743 l
h
236.883 -127.149 m
236.779 -127.212 236.669 -127.256 236.555 -127.282  c
236.440 -127.308 236.310 -127.321 236.164 -127.321  c
235.654 -127.321 235.263 -127.157 234.992 -126.829  c
234.721 -126.501 234.586 -126.024 234.586 -125.399  c
234.586 -122.524 l
233.680 -122.524 l
233.680 -127.993 l
234.586 -127.993 l
234.586 -127.149 l
234.773 -127.483 235.018 -127.727 235.320 -127.884  c
235.622 -128.040 235.992 -128.118 236.430 -128.118  c
236.492 -128.118 236.560 -128.115 236.633 -128.110  c
236.706 -128.105 236.789 -128.092 236.883 -128.071  c
236.883 -127.149 l
h
240.307 -125.274 m
239.588 -125.274 239.088 -125.191 238.807 -125.024  c
238.525 -124.858 238.385 -124.576 238.385 -124.180  c
238.385 -123.858 238.489 -123.602 238.697 -123.415  c
238.906 -123.227 239.192 -123.134 239.557 -123.134  c
240.057 -123.134 240.458 -123.311 240.760 -123.665  c
241.062 -124.019 241.213 -124.488 241.213 -125.071  c
241.213 -125.274 l
240.307 -125.274 l
h
242.104 -125.649 m
242.104 -122.524 l
241.213 -122.524 l
241.213 -123.352 l
241.005 -123.019 240.747 -122.774 240.439 -122.618  c
240.132 -122.462 239.760 -122.384 239.322 -122.384  c
238.760 -122.384 238.312 -122.540 237.979 -122.852  c
237.645 -123.165 237.479 -123.587 237.479 -124.118  c
237.479 -124.733 237.687 -125.196 238.104 -125.509  c
238.520 -125.821 239.135 -125.977 239.947 -125.977  c
241.213 -125.977 l
241.213 -126.071 l
241.213 -126.477 241.075 -126.795 240.799 -127.024  c
240.523 -127.253 240.140 -127.368 239.650 -127.368  c
239.338 -127.368 239.033 -127.329 238.736 -127.251  c
238.439 -127.173 238.156 -127.061 237.885 -126.915  c
237.885 -127.743 l
238.218 -127.868 238.538 -127.962 238.846 -128.024  c
239.153 -128.087 239.452 -128.118 239.744 -128.118  c
240.536 -128.118 241.127 -127.915 241.518 -127.509  c
241.908 -127.102 242.104 -126.483 242.104 -125.649  c
h
248.497 -125.821 m
248.497 -122.524 l
247.606 -122.524 l
247.606 -125.790 l
247.606 -126.311 247.505 -126.699 247.302 -126.954  c
247.099 -127.209 246.794 -127.337 246.388 -127.337  c
245.909 -127.337 245.528 -127.183 245.247 -126.876  c
244.966 -126.568 244.825 -126.149 244.825 -125.618  c
244.825 -122.524 l
243.919 -122.524 l
243.919 -127.993 l
244.825 -127.993 l
244.825 -127.149 l
245.044 -127.472 245.299 -127.714 245.591 -127.876  c
245.882 -128.037 246.216 -128.118 246.591 -128.118  c
247.216 -128.118 247.690 -127.925 248.013 -127.540  c
248.336 -127.154 248.497 -126.581 248.497 -125.821  c
h
253.897 -127.165 m
253.897 -130.118 l
254.788 -130.118 l
254.788 -122.524 l
253.897 -122.524 l
253.897 -123.352 l
253.710 -123.019 253.470 -122.774 253.179 -122.618  c
252.887 -122.462 252.538 -122.384 252.132 -122.384  c
251.476 -122.384 250.939 -122.647 250.522 -123.173  c
250.106 -123.699 249.897 -124.394 249.897 -125.259  c
249.897 -126.113 250.106 -126.803 250.522 -127.329  c
250.939 -127.855 251.476 -128.118 252.132 -128.118  c
252.538 -128.118 252.887 -128.040 253.179 -127.884  c
253.470 -127.727 253.710 -127.488 253.897 -127.165  c
h
250.835 -125.259 m
250.835 -124.592 250.970 -124.071 251.241 -123.696  c
251.512 -123.321 251.887 -123.134 252.366 -123.134  c
252.835 -123.134 253.207 -123.321 253.483 -123.696  c
253.759 -124.071 253.897 -124.592 253.897 -125.259  c
253.897 -125.915 253.759 -126.430 253.483 -126.805  c
253.207 -127.180 252.835 -127.368 252.366 -127.368  c
251.887 -127.368 251.512 -127.180 251.241 -126.805  c
250.970 -126.430 250.835 -125.915 250.835 -125.259  c
h
258.761 -127.368 m
258.282 -127.368 257.901 -127.180 257.620 -126.805  c
257.339 -126.430 257.198 -125.915 257.198 -125.259  c
257.198 -124.602 257.336 -124.087 257.612 -123.712  c
257.888 -123.337 258.271 -123.149 258.761 -123.149  c
259.240 -123.149 259.620 -123.337 259.901 -123.712  c
260.183 -124.087 260.323 -124.602 260.323 -125.259  c
260.323 -125.904 260.183 -126.417 259.901 -126.798  c
259.620 -127.178 259.240 -127.368 258.761 -127.368  c
h
258.761 -128.118 m
259.542 -128.118 260.157 -127.865 260.604 -127.360  c
261.052 -126.855 261.276 -126.154 261.276 -125.259  c
261.276 -124.363 261.052 -123.660 260.604 -123.149  c
260.157 -122.639 259.542 -122.384 258.761 -122.384  c
257.979 -122.384 257.365 -122.639 256.917 -123.149  c
256.469 -123.660 256.245 -124.363 256.245 -125.259  c
256.245 -126.154 256.469 -126.855 256.917 -127.360  c
257.365 -127.865 257.979 -128.118 258.761 -128.118  c
h
f
2 J
10.0000 M
Q
0 J
1.45000 M
newpath
260.454 -188.975 m
73.4999 -188.067 l
S
newpath
65.5000 -188.028 m
77.5241 -183.086 l
74.4999 -188.072 l
77.4756 -193.086 l
h
f
1.00000 1.00000 1.00000 RG
newpath
142.652 -197.486 m
183.302 -197.486 l
183.302 -179.517 l
142.652 -179.517 l
142.652 -197.486 l
h
f
0.00000 0.00000 0.00000 RG
newpath
149.589 -189.910 m
149.464 -189.972 149.331 -190.022 149.191 -190.058  c
149.050 -190.095 148.891 -190.113 148.714 -190.113  c
148.110 -190.113 147.644 -189.915 147.316 -189.519  c
146.988 -189.123 146.824 -188.550 146.824 -187.800  c
146.824 -184.347 l
145.745 -184.347 l
145.745 -190.910 l
146.824 -190.910 l
146.824 -189.894 l
147.053 -190.290 147.350 -190.584 147.714 -190.777  c
148.079 -190.970 148.521 -191.066 149.042 -191.066  c
149.115 -191.066 149.196 -191.061 149.284 -191.050  c
149.373 -191.040 149.469 -191.024 149.574 -191.003  c
149.589 -189.910 l
h
156.335 -187.894 m
156.335 -187.378 l
151.367 -187.378 l
151.419 -186.628 151.645 -186.061 152.046 -185.675  c
152.447 -185.290 153.002 -185.097 153.710 -185.097  c
154.127 -185.097 154.531 -185.147 154.921 -185.246  c
155.312 -185.345 155.700 -185.498 156.085 -185.707  c
156.085 -184.675 l
155.689 -184.519 155.288 -184.397 154.882 -184.308  c
154.476 -184.220 154.064 -184.175 153.648 -184.175  c
152.606 -184.175 151.778 -184.480 151.163 -185.089  c
150.549 -185.699 150.242 -186.524 150.242 -187.566  c
150.242 -188.639 150.533 -189.490 151.117 -190.121  c
151.700 -190.751 152.481 -191.066 153.460 -191.066  c
154.346 -191.066 155.046 -190.782 155.562 -190.214  c
156.077 -189.647 156.335 -188.873 156.335 -187.894  c
h
155.257 -188.222 m
155.247 -188.805 155.080 -189.274 154.757 -189.628  c
154.434 -189.983 154.007 -190.160 153.476 -190.160  c
152.872 -190.160 152.390 -189.988 152.031 -189.644  c
151.671 -189.300 151.465 -188.821 151.413 -188.207  c
155.257 -188.222 l
h
161.077 -187.644 m
160.213 -187.644 159.611 -187.545 159.273 -187.347  c
158.934 -187.149 158.765 -186.811 158.765 -186.332  c
158.765 -185.946 158.893 -185.641 159.148 -185.417  c
159.403 -185.194 159.744 -185.082 160.171 -185.082  c
160.775 -185.082 161.257 -185.292 161.617 -185.714  c
161.976 -186.136 162.156 -186.701 162.156 -187.410  c
162.156 -187.644 l
161.077 -187.644 l
h
163.234 -188.097 m
163.234 -184.347 l
162.156 -184.347 l
162.156 -185.347 l
161.906 -184.951 161.598 -184.657 161.234 -184.464  c
160.869 -184.272 160.421 -184.175 159.890 -184.175  c
159.213 -184.175 158.676 -184.365 158.281 -184.746  c
157.885 -185.126 157.687 -185.628 157.687 -186.253  c
157.687 -186.993 157.934 -187.550 158.429 -187.925  c
158.924 -188.300 159.661 -188.488 160.640 -188.488  c
162.156 -188.488 l
162.156 -188.597 l
162.156 -189.097 161.992 -189.483 161.663 -189.753  c
161.335 -190.024 160.880 -190.160 160.296 -190.160  c
159.921 -190.160 159.554 -190.113 159.195 -190.019  c
158.835 -189.925 158.494 -189.790 158.171 -189.613  c
158.171 -190.613 l
158.567 -190.769 158.950 -190.884 159.320 -190.957  c
159.689 -191.029 160.051 -191.066 160.406 -191.066  c
161.353 -191.066 162.062 -190.821 162.531 -190.332  c
162.999 -189.842 163.234 -189.097 163.234 -188.097  c
h
169.775 -189.910 m
169.775 -193.472 l
170.853 -193.472 l
170.853 -184.347 l
169.775 -184.347 l
169.775 -185.332 l
169.546 -184.946 169.259 -184.657 168.915 -184.464  c
168.572 -184.272 168.155 -184.175 167.665 -184.175  c
166.874 -184.175 166.228 -184.493 165.728 -185.128  c
165.228 -185.764 164.978 -186.597 164.978 -187.628  c
164.978 -188.660 165.228 -189.490 165.728 -190.121  c
166.228 -190.751 166.874 -191.066 167.665 -191.066  c
168.155 -191.066 168.572 -190.972 168.915 -190.785  c
169.259 -190.597 169.546 -190.305 169.775 -189.910  c
h
166.103 -187.628 m
166.103 -186.837 166.264 -186.214 166.587 -185.761  c
166.910 -185.308 167.358 -185.082 167.931 -185.082  c
168.504 -185.082 168.954 -185.308 169.283 -185.761  c
169.611 -186.214 169.775 -186.837 169.775 -187.628  c
169.775 -188.420 169.611 -189.040 169.283 -189.488  c
168.954 -189.936 168.504 -190.160 167.931 -190.160  c
167.358 -190.160 166.910 -189.936 166.587 -189.488  c
166.264 -189.040 166.103 -188.420 166.103 -187.628  c
h
175.658 -193.457 m
175.137 -192.561 174.749 -191.673 174.493 -190.792  c
174.238 -189.912 174.111 -189.019 174.111 -188.113  c
174.111 -187.217 174.238 -186.326 174.493 -185.441  c
174.749 -184.555 175.137 -183.665 175.658 -182.769  c
174.720 -182.769 l
174.137 -183.686 173.699 -184.587 173.408 -185.472  c
173.116 -186.358 172.970 -187.238 172.970 -188.113  c
172.970 -188.988 173.116 -189.865 173.408 -190.746  c
173.699 -191.626 174.137 -192.529 174.720 -193.457  c
175.658 -193.457 l
h
177.589 -193.457 m
178.527 -193.457 l
179.110 -192.529 179.547 -191.626 179.839 -190.746  c
180.131 -189.865 180.277 -188.988 180.277 -188.113  c
180.277 -187.238 180.131 -186.358 179.839 -185.472  c
179.547 -184.587 179.110 -183.686 178.527 -182.769  c
177.589 -182.769 l
178.100 -183.665 178.485 -184.555 178.745 -185.441  c
179.006 -186.326 179.136 -187.217 179.136 -188.113  c
179.136 -189.019 179.006 -189.912 178.745 -190.792  c
178.485 -191.673 178.100 -192.561 177.589 -193.457  c
h
f
2 J
10.0000 M
0 J
1.45000 M
[ 6.00000 2.00000 ] 0.00000 d
newpath
60.0000 -285.000 m
60.0000 -196.545 l
S
2 J
10.0000 M
[ ] 0.00000 d
0 J
1.45000 M
[ 6.00000 2.00000 ] 0.00000 d
newpath
265.954 -285.998 m
265.954 -197.501 l
S
2 J
10.0000 M
[ ] 0.00000 d
0 J
1.45000 M
newpath
265.497 -176.484 m
265.468 -175.972 l
262.935 -164.394 l
258.605 -154.572 l
252.478 -146.506 l
251.828 -145.988 l
S
newpath
265.938 -184.472 m
268.144 -184.350 269.833 -182.463 269.711 -180.258  c
269.589 -178.052 267.702 -176.362 265.497 -176.484  c
263.291 -176.606 261.602 -178.493 261.723 -180.699  c
261.845 -182.905 263.732 -184.594 265.938 -184.472  c
h
f
2 J
10.0000 M
Q
[ 1.00000 0.00000 0.00000 1.00000 0.00000 0.00000 ] defaultmatrix matrix concatmatrix setmatrix
cliprestore
end end restore showpage

%%Trailer
%%EOF
