%!PS-Adobe-3.0 EPSF-3.0
%%BoundingBox: 0 0 872 282
%%Creator: yExport 1.4.0.1
%%Producer: org.freehep.graphicsio.ps.PSGraphics2D Revision: 12753 
%%For: 
%%Title: 
%%CreationDate: Monday, July 7, 2014 3:13:08 PM CLT
%%LanguageLevel: 3
%%EndComments
%%BeginProlog
100 dict dup begin

%
% File: org/freehep/graphicsio.ps/PSProlog.txt
% Author: Charles Loomis
%

% Redefinitions which save some space in the output file.  These are also
% the same as the PDF operators.
/q {gsave} def
/Q {grestore} def

/n {newpath} def
/m {moveto} def
/l {lineto} def
/c {curveto} def
/h {closepath} def

/re {4 -2 roll moveto
     dup 0 exch rlineto exch 0 rlineto
     neg 0 exch rlineto closepath} def

/f {fill} def
/f* {eofill} def
/F {gsave vg&FC fill grestore} def
/F* {gsave vg&FC eofill grestore} def

/s {closepath stroke} def
/S {stroke} def

/b {closepath gsave vg&FC fill grestore
    gsave stroke grestore newpath} def
/B {gsave vg&FC fill grestore gsave stroke grestore newpath} def
/b* {closepath gsave vg&FC eofill grestore
    gsave stroke grestore newpath} def
/B* {gsave vg&FC eofill grestore gsave stroke grestore newpath} def

/g {1 array astore /vg&fcolor exch def} def
/G {setgray} def
/k {4 array astore /vg&fcolor exch def} def
/K {setcmykcolor} def
/rg {3 array astore /vg&fcolor exch def} def
/RG {setrgbcolor} def

% Initialize the fill color.
0 0 0 rg

/vg&FC {mark vg&fcolor aload pop
        counttomark 1 eq {G} if
        counttomark 3 eq {RG} if
        counttomark 4 eq {K} if
        cleartomark } def

/vg&DFC {/vg&fcolor exch def} def

/vg&C {mark exch aload pop
       counttomark 1 eq {G} if
       counttomark 3 eq {RG} if
       counttomark 4 eq {K} if
       cleartomark } def

/w {setlinewidth} def
/j {setlinejoin} def
/J {setlinecap} def
/M {setmiterlimit} def
/d {setdash} def
/i {setflat} def

/W {clip} def
/W* {eoclip} def

% Setup the default graphics state.
% (black; 1 pt. linewidth; miter join; butt-ends; solid)
/defaultGraphicsState {0 g 1 w 0 j 0 J [] 0 d} def

% Emulation of the rectangle operators for PostScript implementations
% which do not implement all Level 2 features.  This is an INCOMPLETE
% emulation; only the "x y width height rect..." form is emulated.
/*rf {gsave newpath re fill grestore} def
/*rs {gsave newpath re stroke grestore} def
/*rc {newpath re clip} def
/rf  /rectfill where {pop /rectfill}{/*rf} ifelse load def
/rs  /rectstroke where {pop /rectstroke}{/*rs} ifelse load def
/rc  /rectclip where {pop /rectclip}{/*rc} ifelse load def

% Emulation of the selectfont operator.  This includes a 20% increase in
% the fontsize which is necessary to get sizes similar to the Java fonts.
/*sf {exch findfont exch
      dup type /arraytype eq {makefont}{scalefont} ifelse setfont} bind def
/sf /selectfont where {pop {1.2 mul selectfont}}{{1.2 mul *sf}} ifelse def

% Special version of stroke which allows the dash pattern to continue
% across path segments.  (This may be needed for PostScript although
% modern printers seem to do this correctly.)
/vg&stroke {
  currentdash pop length 0 eq
  {stroke}
  {
    currentdash /vg&doffset exch def pop
    flattenpath
    {m vg&resetdash}
    {2 copy
     currentpoint
     3 -1 roll sub dup mul
     3 1 roll sub dup mul
     add sqrt
     3 1 roll l
     currentdash 3 -1 roll add setdash}
     {}
     {h vg&resetdash}
     pathforall
     stroke
     vg&resetdash
  } ifelse
} def
/vg&resetdash {currentdash pop vg&doffset setdash} def

% Initialize variables for safety.
/delta 0 def
/xv 0 def  /yv 0 def  /width 0 def  /height 0 def

% Initialize to portrait INTERNATIONAL (Letter-height, A4-width) page.
/pw 595 def  /ph 791  def  /po true def /ftp false def

% Initialize margins to 20 points.
/ml 20 def  /mr 20 def  /mt 20 def  /mb 20 def

% Temporary matrices.
/smatrix 0 def  /nmatrix 0 def

% set page size (usage: <page width><page height> setpagesize)
/setpagesize {/ph exch def /pw exch def} def

% set page orientation (usage: portrait or landscape)
/portrait {/po true def} def
/landscape {/po false def} def

% force natural size for image (usage: naturalsize)
/naturalsize {/ftp false def} def

% resize image to fill page (usage: fittopage)
/fittopage {/ftp true def} def

% set margins of the page (usage: <left><bottom><top><right> setmargins)
/setmargins {/mr exch def /mt exch def /mb exch def /ml exch def} def

% set the graphic's size (usage: <width><height> setsize)
/setsize {/gh exch def /gw exch def} def

% set the graphic's origin (usage: <x0><y0> setorigin)
/setorigin {/gy exch def /gx exch def} def

% calculate image center
/imagecenter {pw ml sub mr sub 2 div ml add
              ph mt sub mb sub 2 div mb add} def

% calculate the necessary scaling
/imagescale {po {gw}{gh} ifelse pw ml sub mr sub div
             po {gh}{gw} ifelse ph mt sub mb sub div
             2 copy lt {exch} if pop
             ftp not {1 2 copy lt {exch} if pop} if
             1 exch div /sfactor exch def
             /gw gw sfactor mul def /gh gh sfactor mul def} def

% calculate image origin
/imageorigin {pw ml sub mr sub 2 div ml add
              po {gw}{gh} ifelse 2 div sub
              ph mt sub mb sub 2 div mb add
              po {gh}{gw} ifelse 2 div po {add}{sub} ifelse} def

% calculate the clipping origin
/cliporigin  {pw ml sub mr sub 2 div ml add
              po {gw}{gh} ifelse 2 div sub floor
              ph mt sub mb sub 2 div mb add
              po {gh}{gw} ifelse 2 div sub floor} def

% Set the clipping region to the bounding box.
/cliptobounds {cliporigin po {gw}{gh} ifelse 1 add
                          po {gh}{gw} ifelse 1 add rc} def

% set the base transformation matrix (usage: setbasematrix)
/setbasematrix {imageorigin translate
                po {0}{90} ifelse rotate
                sfactor sfactor neg scale
                /defaultmatrix matrix currentmatrix def} def

% The lower-right bias in drawing 1 pt. wide lines.
/bias  {q 0.5 0.5 translate} def
/unbias {Q} def

% Define the composite fonts used to print Unicode strings.
% Undefine particular values in an encoding array.
/vg&undef { {exch dup 3 -1 roll /.notdef put} forall } def
/vg&redef { {3 -1 roll dup 4 2 roll put} forall } def

% usage: key encoding basefontname vg&newbasefont font
/vg&newbasefont {
findfont dup length dict copy
  begin
    currentdict /FID undef
    /Encoding exch def
    dup /FontName exch def
    currentdict
  end
definefont
} def

% usage: key encoding basefontname vg&newskewedbasefont font
/vg&newskewedbasefont {
findfont dup length dict copy
  begin
    currentdict /FID undef
    /Encoding exch def
    dup /FontName exch def
    exch FontMatrix exch matrix concatmatrix /FontMatrix exch def
    currentdict
  end
definefont
} def

% usage: basekey suffix vg&nconcat name
/vg&nconcat {
  2 {dup length string cvs exch} repeat
  dup length 3 -1 roll dup length 3 -1 roll add string
  dup 0 4 -1 roll dup length 5 1 roll putinterval
  dup 4 -2 roll exch putinterval cvn
} def

%usage: fontname vg&skewmatrix matrix
/vg&skewmatrix {
findfont dup /FontInfo known
  {
    /FontInfo get dup /ItalicAngle known
    {
      [ 1 0 4 -1 roll /ItalicAngle get neg dup sin exch cos div 1 0 0 ]
    }
    {pop matrix} ifelse
  }
  {pop matrix} ifelse
} def

% usage: newfontname basefontname vg&newcompositefont --
/vg&newcompositefont {
/vg&fstyle exch def
/vg&bfont exch def
/vg&fname exch def
<<
/FontStyleBits vg&fstyle
/FontType 0
/FontMatrix matrix
/FontName vg&fname
/FMapType 2
/Encoding [ 0 1 255 {pop 6} for ]
          dup 16#00 0 put % Latin
          dup 16#03 1 put % Greek
          dup 16#20 2 put % Punctuation
          dup 16#21 3 put % Arrows
          dup 16#22 4 put % MathOps
          dup 16#27 5 put % Dingbats

/FDepVector [
vg&bfont /-UC-Latin vg&nconcat UCLatinEncoding
vg&bfont vg&newbasefont

vg&bfont vg&skewmatrix
vg&bfont /-UC-Greek vg&nconcat UCGreekEncoding
/Symbol vg&newskewedbasefont

vg&bfont /-UC-Punctuation vg&nconcat UCPunctuationEncoding
vg&bfont vg&newbasefont

/Arrows-UC findfont
/MathOps-UC findfont
/Dingbats-UC findfont
/Undefined-UC findfont ]
>>
vg&fname exch definefont pop
} def

% Null encoding vector (all elements set to .notdef)
/NullEncoding [ 256 {/.notdef} repeat ] def

% Unicode Latin encoding (unicode codes \u0000-\u00ff)
/UCLatinEncoding
  ISOLatin1Encoding dup length array copy
  dup 16#60 /grave put
  [ 16#90 16#91 16#92 16#93 16#94 16#95 16#96
    16#97 16#98 16#9a 16#9b 16#9d 16#9e 16#9f
  ] vg&undef
  def

% Unicode Greek encoding (unicode codes \u0370-\u03ff)
/UCGreekEncoding
  NullEncoding dup length array copy
  << 16#91 /Alpha    16#92 /Beta      16#93 /Gamma    16#94 /Delta
     16#95 /Epsilon  16#96 /Zeta      16#97 /Eta      16#98 /Theta
     16#99 /Iota     16#9a /Kappa     16#9b /Lambda   16#9c /Mu
     16#9d /Nu       16#9e /Xi        16#9f /Omicron  16#a0 /Pi
     16#a1 /Rho      16#a3 /Sigma     16#a4 /Tau      16#a5 /Upsilon
     16#a6 /Phi      16#a7 /Chi       16#a8 /Psi      16#a9 /Omega
     16#b1 /alpha    16#b2 /beta      16#b3 /gamma    16#b4 /delta
     16#b5 /epsilon  16#b6 /zeta      16#b7 /eta      16#b8 /theta
     16#b9 /iota     16#ba /kappa     16#bb /lambda   16#bc /mu
     16#bd /nu       16#be /xi        16#bf /omicron  16#c0 /pi
     16#c1 /rho      16#c2 /sigma1    16#c3 /sigma    16#c4 /tau
     16#c5 /upsilon  16#c6 /phi1      16#c7 /chi      16#c8 /psi
     16#c9 /omega    16#7e /semicolon 16#87 /dotmath  16#d1 /theta1
     16#d2 /Upsilon1 16#d5 /phi       16#d6 /omega1
  >> vg&redef
  def

% Unicode punctuation encoding (unicode codes \u2000-\u206f)
/UCPunctuationEncoding
  NullEncoding dup length array copy
  << 16#10 /hyphen          16#11 /hyphen              16#12 /endash
     16#13 /emdash          16#18 /quoteleft           16#19 /quoteright
     16#1a /quotesinglbase  16#1b /quotesingle         16#1c /quotedblleft
     16#1d /quotedblright   16#1e /quotedblbase        16#1f /quotedbl
     16#20 /dagger          16#21 /daggerdbl           16#22 /bullet
     16#24 /period          16#26 /ellipsis            16#27 /periodcentered
     16#30 /perthousand     16#44 /fraction
     16#70 /zerosuperior    16#74 /foursuperior        16#75 /fivesuperior
     16#76 /sixsuperior     16#77 /sevensuperior       16#78 /eightsuperior
     16#79 /ninesuperior    16#7b /hyphensuperior      16#7d /parenleftsuperior
     16#7e /parenrightsuperior
     16#80 /zeroinferior    16#84 /fourinferior        16#85 /fiveinferior
     16#81 /oneinferior     16#82 /twoinferior         16#83 /threeinferior
     16#86 /sixinferior     16#87 /seveninferior       16#88 /eightinferior
     16#89 /nineinferior    16#8b /hypheninferior      16#8d /parenleftinferior
     16#8e /parenrightinferior
  >> vg&redef
  def

% Unicode mathematical operators encoding (unicode codes \u2200-\u22ff)
/UCMathOpsEncoding
  NullEncoding dup length array copy
  << 16#00 /universal       16#02 /partialdiff         16#03 /existential
     16#05 /emptyset        16#06 /Delta               16#07 /gradient
     16#08 /element         16#09 /notelement          16#0b /suchthat
     16#0f /product         16#11 /summation           16#12 /minus
     16#15 /fraction        16#17 /asteriskmath        16#19 /bullet
     16#1a /radical         16#1d /proportional        16#1e /infinity
     16#20 /angle           16#23 /bar                 16#27 /logicaland
     16#28 /logicalor       16#29 /intersection        16#2a /union
     16#2b /integral        16#34 /therefore           16#36 /colon
     16#3c /similar         16#45 /congruent           16#48 /approxequal
     16#60 /notequal        16#61 /equivalence         16#64 /lessequal
     16#65 /greaterequal    16#82 /propersubset        16#83 /propersuperset
     16#86 /reflexsubset    16#87 /reflexsuperset      16#95 /circleplus
     16#97 /circlemultiply  16#a5 /perpendicular       16#03 /existential
     16#c0 /logicaland      16#c1 /logicalor           16#c2 /intersection
     16#c3 /union           16#c4 /diamond             16#c5 /dotmath
  >> vg&redef
  def

% Unicode arrows encoding (unicode codes \u2190-\u21ff)
% Also includes those "Letterlike" unicode characters
% which are available in the symbol font. (unicode codes \u2100-\u214f)
/UCArrowsEncoding
  NullEncoding dup length array copy
  << 16#11 /Ifraktur        16#1c /Rfraktur            16#22 /trademarkserif
     16#35 /aleph
     16#90 /arrowleft       16#91 /arrowup             16#92 /arrowright
     16#93 /arrowdown       16#94 /arrowboth           16#d0 /arrowdblleft
     16#d1 /arrowdblup      16#d2 /arrowdblright       16#d3 /arrowdbldown
     16#d4 /arrowdblboth
  >> vg&redef
  def

/ZapfDingbats findfont /Encoding get
dup length array copy /UCDingbatsEncoding exch def
16#20 1 16#7f {
  dup 16#20 sub exch
  UCDingbatsEncoding exch get
  UCDingbatsEncoding 3 1 roll put
} for
16#a0 1 16#ff {
  dup 16#40 sub exch
  UCDingbatsEncoding exch get
  UCDingbatsEncoding 3 1 roll put
} for
UCDingbatsEncoding [ 16#c0 1 16#ff {} for ] vg&undef
[ 16#00  16#05 16#0a 16#0b  16#28 16#4c 16#4e  16#53 16#54 16#55  16#57 16#5f
  16#60  16#68 16#69 16#6a  16#6b 16#6c 16#6d  16#6e 16#6f 16#70  16#71 16#72
  16#73  16#74 16#75 16#95  16#96 16#97 16#b0  16#bf
] vg&undef pop

% Define the base fonts which don't change.
/Undefined-UC NullEncoding       /Helvetica    vg&newbasefont pop
/MathOps-UC   UCMathOpsEncoding  /Symbol       vg&newbasefont pop
/Arrows-UC    UCArrowsEncoding   /Symbol       vg&newbasefont pop
/Dingbats-UC  UCDingbatsEncoding /ZapfDingbats vg&newbasefont pop

% Make the SansSerif composite fonts.
/SansSerif /Helvetica 16#00 vg&newcompositefont
/SansSerif-Bold /Helvetica-Bold 16#01 vg&newcompositefont
/SansSerif-Italic /Helvetica-Oblique 16#02 vg&newcompositefont
/SansSerif-BoldItalic /Helvetica-BoldOblique 16#03 vg&newcompositefont

% Make the Serif composite fonts.
/Serif /Times-Roman 16#00 vg&newcompositefont
/Serif-Bold /Times-Bold 16#01 vg&newcompositefont
/Serif-Italic /Times-Italic 16#02 vg&newcompositefont
/Serif-BoldItalic /Times-BoldItalic 16#03 vg&newcompositefont

% Make the Monospaced composite fonts.
/Monospaced /Courier 16#00 vg&newcompositefont
/Monospaced-Bold /Courier-Bold 16#01 vg&newcompositefont
/Monospaced-Italic /Courier-Oblique 16#02 vg&newcompositefont
/Monospaced-BoldItalic /Courier-BoldOblique 16#03 vg&newcompositefont

% Make the Dialog composite fonts.
/Dialog /Helvetica 16#00 vg&newcompositefont
/Dialog-Bold /Helvetica-Bold 16#01 vg&newcompositefont
/Dialog-Italic /Helvetica-Oblique 16#02 vg&newcompositefont
/Dialog-BoldItalic /Helvetica-BoldOblique 16#03 vg&newcompositefont

% Make the DialogInput composite fonts.
/DialogInput /Courier 16#00 vg&newcompositefont
/DialogInput-Bold /Courier-Bold 16#01 vg&newcompositefont
/DialogInput-Italic /Courier-Oblique 16#02 vg&newcompositefont
/DialogInput-BoldItalic /Courier-BoldOblique 16#03 vg&newcompositefont

% Make the Typewriter composite fonts (JDK 1.1 only).
/Typewriter /Courier 16#00 vg&newcompositefont
/Typewriter-Bold /Courier-Bold 16#01 vg&newcompositefont
/Typewriter-Italic /Courier-Oblique 16#02 vg&newcompositefont
/Typewriter-BoldItalic /Courier-BoldOblique 16#03 vg&newcompositefont


/cfontH {
 dup /fontsize exch def /SansSerif exch sf
 /vg&fontstyles [{cfontH} {cfontHB} {cfontHI} {cfontHBI}] def
} def
/cfontHB {
  dup /fontsize exch def /SansSerif-Bold exch sf
 /vg&fontstyles [{cfontH} {cfontHB} {cfontHI} {cfontHBI}] def
} def
/cfontHI {
 dup /fontsize exch def /SansSerif-Italic exch sf
 /vg&fontstyles [{cfontH} {cfontHB} {cfontHI} {cfontHBI}] def
} def
/cfontHBI {
 dup /fontsize exch def /SansSerif-BoldItalic exch sf
 /vg&fontstyles [{cfontH} {cfontHB} {cfontHI} {cfontHBI}] def
} def

/cfontT {
 dup /fontsize exch def /Serif exch sf
 /vg&fontstyles [{cfontT} {cfontTB} {cfontTI} {cfontTBI}] def
} def
/cfontTB {
 dup /fontsize exch def /Serif-Bold exch sf
 /vg&fontstyles [{cfontT} {cfontTB} {cfontTI} {cfontTBI}] def
} def
/cfontTI {
 dup /fontsize exch def /Serif-Italic exch sf
 /vg&fontstyles [{cfontT} {cfontTB} {cfontTI} {cfontTBI}] def
} def
/cfontTBI {
 dup /fontsize exch def /Serif-BoldItalic exch sf
 /vg&fontstyles [{cfontT} {cfontTB} {cfontTI} {cfontTBI}] def
} def

/cfontC {
 dup /fontsize exch def /Typewriter exch sf
 /vg&fontstyles [{cfontC} {cfontCB} {cfontCI} {cfontCBI}] def
} def
/cfontCB {
 dup /fontsize exch def /Typewriter-Bold exch sf
 /vg&fontstyles [{cfontC} {cfontCB} {cfontCI} {cfontCBI}] def
} def
/cfontCI {
 dup /fontsize exch def /Typewriter-Italic exch sf
 /vg&fontstyles [{cfontC} {cfontCB} {cfontCI} {cfontCBI}] def
} def
/cfontCBI {
 dup /fontsize exch def /Typewriter-BoldItalic exch sf
 /vg&fontstyles [{cfontC} {cfontCB} {cfontCI} {cfontCBI}] def
} def

% Darken or lighten the current color.
/darken {0.7 exch exp 3 copy
         q 4 -1 roll vg&C
         currentrgbcolor 3 {4 -2 roll mul} repeat
         3 array astore Q} def

/displayColorMap
<< /Cr   [1.00 0.00 0.00]       /Cg     [0.00 1.00 0.00]
   /Cb   [0.00 0.00 1.00]       /Cc     [1.00 0.00 0.00 0.00]
   /Cm   [0.00 1.00 0.00 0.00]  /Cy     [0.00 0.00 1.00 0.00]
   /Co   [1.00 0.78 0.00]       /Cp     [1.00 0.67 0.67]
   /Cw   [1   ]                 /Cgrl   [0.75]
   /Cgr  [0.50]                 /Cgrd   [0.25]
   /Ck   [0   ]
   /CGr  [1.00 0.00 0.00]       /CGg    [0.00 1.00 0.00]
   /CGb  [0.00 0.00 1.00]       /CGc    [1.00 0.00 0.00 0.00]
   /CGm  [0.00 1.00 0.00 0.00]  /CGy    [0.00 0.00 1.00 0.00]
   /CGo  [1.00 0.78 0.00]       /CGp    [1.00 0.67 0.67]
   /CGw  [1   ]                 /CGgrl  [0.75]
   /CGgr [0.50]                 /CGgrd  [0.25]
   /CGk  [0   ]
   /CIr  [1.00 0.00 0.00]       /CIg    [0.00 1.00 0.00]
   /CIb  [0.00 0.00 1.00]       /CIc    [1.00 0.00 0.00 0.00]
   /CIm  [0.00 1.00 0.00 0.00]  /CIy    [0.00 0.00 1.00 0.00]
   /CIo  [1.00 0.78 0.00]       /CIp    [1.00 0.67 0.67]
   /CIw  [1   ]                 /CIgrl  [0.75]
   /CIgr [0.50]                 /CIgrd  [0.25]
   /CIk  [0   ]
>> def

/printColorMap
<< /Cr   [1.00 0.33 0.33]       /Cg     [0.33 1.00 0.33]
   /Cb   [0.33 0.33 1.00]       /Cc     [1.00 0.00 0.00 0.00]
   /Cm   [0.00 1.00 0.00 0.00]  /Cy     [0.00 0.00 1.00 0.00]
   /Co   [1.00 0.78 0.00]       /Cp     [1.00 0.67 0.67]
   /Cw   [1   ]                 /Cgrl   [0.75]
   /Cgr  [0.50]                 /Cgrd   [0.25]
   /Ck   [0   ]
   /CGr  [1.00 0.33 0.33]       /CGg    [0.33 1.00 0.33]
   /CGb  [0.33 0.33 1.00]       /CGc    [1.00 0.00 0.00 0.00]
   /CGm  [0.00 1.00 0.00 0.00]  /CGy    [0.00 0.00 1.00 0.00]
   /CGo  [1.00 0.78 0.00]       /CGp    [1.00 0.67 0.67]
   /CGw  [1   ]                 /CGgrl  [0.75]
   /CGgr [0.50]                 /CGgrd  [0.25]
   /CGk  [0   ]
   /CIr  [1.00 0.33 0.33]       /CIg    [0.33 1.00 0.33]
   /CIb  [0.33 0.33 1.00]       /CIc    [1.00 0.00 0.00 0.00]
   /CIm  [0.00 1.00 0.00 0.00]  /CIy    [0.00 0.00 1.00 0.00]
   /CIo  [1.00 0.78 0.00]       /CIp    [1.00 0.67 0.67]
   /CIw  [1   ]                 /CIgrl  [0.75]
   /CIgr [0.50]                 /CIgrd  [0.25]
   /CIk  [0   ]
>> def

/grayColorMap
<< /Cr   [0   ]                 /Cg     [0   ]
   /Cb   [0   ]                 /Cc     [0   ]
   /Cm   [0   ]                 /Cy     [0   ]
   /Co   [0   ]                 /Cp     [0   ]
   /Cw   [0   ]                 /Cgrl   [0   ]
   /Cgr  [0   ]                 /Cgrd   [0   ]
   /Ck   [0   ]
   /CGr  [0.75]                 /CGg    [1   ]
   /CGb  [0.50]                 /CGc    [0.75]
   /CGm  [0.50]                 /CGy    [1   ]
   /CGo  [0.75]                 /CGp    [1   ]
   /CGw  [0   ]                 /CGgrl  [0.25]
   /CGgr [0.50]                 /CGgrd  [0.75]
   /CGk  [1   ]
   /CIr  [1   ]                 /CIg    [1   ]
   /CIb  [1   ]                 /CIc    [1   ]
   /CIm  [1   ]                 /CIy    [1   ]
   /CIo  [1   ]                 /CIp    [1   ]
   /CIw  [1   ]                 /CIgrl  [1   ]
   /CIgr [1   ]                 /CIgrd  [1   ]
   /CIk  [1   ]
>> def

/bwColorMap
<< /Cr   [0   ]                 /Cg     [0   ]
   /Cb   [0   ]                 /Cc     [0   ]
   /Cm   [0   ]                 /Cy     [0   ]
   /Co   [0   ]                 /Cp     [0   ]
   /Cw   [0   ]                 /Cgrl   [0   ]
   /Cgr  [0   ]                 /Cgrd   [0   ]
   /Ck   [0   ]
   /CGr  [1   ]                 /CGg    [1   ]
   /CGb  [1   ]                 /CGc    [1   ]
   /CGm  [1   ]                 /CGy    [1   ]
   /CGo  [1   ]                 /CGp    [1   ]
   /CGw  [0   ]                 /CGgrl  [1   ]
   /CGgr [1   ]                 /CGgrd  [1   ]
   /CGk  [1   ]
   /CIr  [1   ]                 /CIg    [1   ]
   /CIb  [1   ]                 /CIc    [1   ]
   /CIm  [1   ]                 /CIy    [1   ]
   /CIo  [1   ]                 /CIp    [1   ]
   /CIw  [1   ]                 /CIgrl  [1   ]
   /CIgr [1   ]                 /CIgrd  [1   ]
   /CIk  [1   ]
>> def

%
% The following routines handle the alignment of and printing of
% tagged strings.
%

% Predefine the bounding box values.
/bbllx 0 def /bblly 0 def /bburx 0 def /bbury 0 def

% This routine pops the first unicode character off of a string and returns
% the remainder of the string, the character code of first character,
% and a "true" if the string was non-zero length.
% <string>      popfirst <remaining string> <true>
% <null string> popfirst <false>
/popfirst {
  dup length 1 gt
    {dup 0 get /vg&fbyte exch def
     dup 1 get /vg&cbyte exch def
     dup length 2 sub 2 exch getinterval true}
    {pop false} ifelse
} def

% This routine shows a single unicode character given the font and
% character codes.
% <font code> <char code> unicharshow --
/unicharshow {
  2 string
  dup 0 5 -1 roll put
  dup 1 4 -1 roll put
  internalshow
} def

% This is an internal routine to alternate between determining the
% bounding box for stringsize and showing the string for recshow.
% <string> internalshow --
/internalshow {show} def

% This is an internal routine to alternate between determining the
% bounding box for stringsize and stroking various ornaments.
% <string> internalstroke --
/internalstroke {S} def

% Sets up internalshow to use the null device to determine string size.
% -- nullinternalshow --
/nullinternalshow {/internalshow {false charpath flattenpath
                                  pathbbox updatebbox} def} def

% Sets up internalstroke to use the null device to determine string size.
% -- nullinternalstroke --
/nullinternalstroke {
 /internalstroke {flattenpath pathbbox updatebbox} def} def

% This routine tests to see if the character code matches the first
% character of a string.
% <char code> <string> testchar <char code> <true or false>
/testchar {exch dup 3 -1 roll 0 get eq} def

% Raise the text baseline for superscripts.
% -- raise --
/raise {
  0 fontsize 2 div rmoveto
  /fontsize fontsize 2 mul 3 div def
  currentfont /FontName get fontsize sf
} def

% Un-raise the text baseline for superscripts.
% -- unraise --
/unraise {
  /fontsize fontsize 1.5 mul def
  0 fontsize 2 div neg rmoveto
} def

% Lower the text baseline for subscripts.
% -- lower --
/lower {
  0 fontsize 3 div neg rmoveto
  /fontsize fontsize 2 mul 3 div def
  currentfont /FontName get fontsize sf
} def

% Un-lower the text baseline for subscripts.
% -- unlower --
/unlower {
  /fontsize fontsize 1.5 mul def
  0 fontsize 3 div rmoveto
} def

% Compare the top two elements on the stack and leave only the
% larger one.
/maxval {2 copy gt {pop} {exch pop} ifelse} def

% Tokenize a string.  Do not use the usual PostScript token because
% parentheses will not be interpreted correctly because of rescanning
% of the string.
/vg&token {/vg&string exch def /vg&index -1 def /vg&level 0 def
0 2 vg&string length 2 sub {
  dup dup 1 add exch vg&string exch get 8 bitshift vg&string 3 -1 roll get or
  dup 16#f0fe eq {pop 1}{16#f0ff eq {-1}{0} ifelse} ifelse
  /vg&level exch vg&level add def
  vg&level 0 eq {/vg&index exch def exit} if pop
} for
vg&index 0 ge {
  vg&string vg&index 2 add dup vg&string length exch sub getinterval
  vg&index 2 gt {vg&string 2 vg&index 2 sub getinterval}{()} ifelse
  true}
{false} ifelse
} bind def

% Recursively show an unicode string.
% <string> recshow --
/recshow {
  popfirst
  {
    % Test to see if this is a string attribute.
    vg&fbyte 16#f0 and 16#e0 eq
    {
      q

      % Font style.
      currentfont dup /FontStyleBits known {/FontStyleBits get}{pop 0} ifelse
      vg&cbyte or vg&fontstyles exch get fontsize exch exec

      vg&token pop recshow currentpoint Q m recshow
    }
    {
      vg&fbyte 16#F8 and 16#F0 eq {

        % Superscript and/or subscript.
        vg&cbyte 16#00 eq {
          vg&token pop exch vg&token pop 3 -1 roll
          q raise recshow unraise currentpoint pop Q exch
          q lower recshow unlower currentpoint pop Q
          maxval currentpoint exch pop m recshow } if

        % Strikeout.
        vg&cbyte 16#01 eq {
          vg&token pop currentpoint 3 -1 roll recshow
          q 0 J vg&underline vg&uthick w
          currentpoint 4 -2 roll fontsize 3 div add moveto
          fontsize 3 div add lineto internalstroke Q
          recshow} if

        % Underline.
        vg&cbyte 16#02 eq {
          vg&token pop currentpoint 3 -1 roll recshow
          q 0 J vg&underline vg&uthick w
          currentpoint 4 -2 roll vg&uoffset add moveto
          vg&uoffset add lineto internalstroke Q
          recshow} if

        % Dashed underline.
        vg&cbyte 16#03 eq {
          vg&token pop currentpoint 3 -1 roll recshow
          q 0 J [ vg&uthick 5 mul vg&uthick 2 mul] 0 d
          vg&underline vg&uthick w
          currentpoint 4 -2 roll vg&uoffset add moveto
          vg&uoffset add lineto internalstroke Q
          recshow} if

        % Dotted underline.
        vg&cbyte 16#04 eq {
          vg&token pop currentpoint 3 -1 roll recshow
          q 1 J [ 0 vg&uthick 3 mul] 0 d
          vg&underline vg&uthick w
          currentpoint 4 -2 roll vg&uoffset add moveto
          vg&uoffset add lineto internalstroke Q
          recshow} if

        % Thick underline.
        vg&cbyte 16#05 eq {
          vg&token pop currentpoint 3 -1 roll recshow
          q 0 J vg&underline vg&uthick 2 mul w
          currentpoint 4 -2 roll vg&uoffset vg&uthick 2 div sub add moveto
          vg&uoffset vg&uthick 2 div sub add lineto internalstroke Q
          recshow} if

        % Gray thick underline.
        vg&cbyte 16#06 eq {
          vg&token pop currentpoint 3 -1 roll recshow
          q 0 J vg&underline vg&uthick 2 mul w 0.5 setgray
          currentpoint 4 -2 roll vg&uoffset vg&uthick 2 div sub add moveto
          vg&uoffset vg&uthick 2 div sub add lineto internalstroke Q
          recshow} if

        % Overbar.
        vg&cbyte 16#07 eq {
          vg&token pop dup stringsize relative 4 1 roll pop pop exch
          3 -1 roll recshow
          q 0 J vg&underline vg&uthick w
          vg&uoffset neg add dup currentpoint pop exch m l internalstroke Q
          recshow} if
      }
      {
        vg&fbyte vg&cbyte unicharshow recshow
      } ifelse
    } ifelse
  } if
} def

% Get the underline position and thickness from the current font.
/vg&underline {

currentfont dup /FontType get 0 eq {/FDepVector get 0 get} if
dup dup /FontInfo known {
  /FontInfo get dup
  dup /UnderlinePosition known {
    /UnderlinePosition get /vg&uoffset exch def
  }
  {
    pop /vg&uoffset 0 def
  } ifelse
  dup /UnderlineThickness known {
    /UnderlineThickness get /vg&uthick exch def
  }
  {
    pop /vg&uthick 0 def
  } ifelse
}
{
  pop /vg&uoffset 0 def /vg&uthick 0 def
} ifelse
/FontMatrix get
currentfont dup /FontType get 0 eq
{/FontMatrix get matrix concatmatrix}{pop} ifelse
dup 0 vg&uoffset 3 -1 roll transform /vg&uoffset exch def pop
0 vg&uthick 3 -1 roll transform /vg&uthick exch def pop
} def

% Make a frame with the coordinates on the stack.
% <llx> <lly> <urx> <ury> frame --
/frame {4 copy m 3 1 roll exch l 4 -2 roll l l h} def

% Resets the accumulated bounding box to a degenerate box at the
% current point.
% -- resetbbox --
/resetbbox {
  currentpoint 2 copy
  /bbury exch def
  /bburx exch def
  /bblly exch def
  /bbllx exch def
} def

% Update the accumulated bounding box.
% <llx'> <lly'> <urx'> <ury'> updatebbox --
/updatebbox {
  dup bbury gt {/bbury exch def} {pop} ifelse
  dup bburx gt {/bburx exch def} {pop} ifelse
  dup bblly lt {/bblly exch def} {pop} ifelse
  dup bbllx lt {/bbllx exch def} {pop} ifelse
} def

% Set the bounding box to the values on the stack.
% <llx'> <lly'> <urx'> <ury'> updatebbox --
/restorebbox {
  /bbury exch def /bburx exch def /bblly exch def /bbllx exch def
} def

% Push the accumulated bounding box onto the stack.
% -- pushbbox <llx> <lly> <urx> <ury>
/pushbbox {bbllx bblly bburx bbury} def

% Make the relative bounding box relative to the currentpoint.
% <llx'> <lly'> <urx'> <ury'> inflate <llx> <lly> <urx> <ury>
/inflate {
  2 {fontsize 0.2 mul add 4 1 roll} repeat
  2 {fontsize 0.2 mul sub 4 1 roll} repeat
} def

% Make the relative bounding box relative to the currentpoint.
% <llx'> <lly'> <urx'> <ury'> relative <llx> <lly> <urx> <ury>
/relative {
  currentpoint 3 -1 roll add 3 1 roll add exch 4 2 roll
  currentpoint 3 -1 roll add 3 1 roll add exch 4 2 roll
} def

% Returns the size of a string appropriate for recshow.
% <string> stringsize <llx> <lly> <urx> <ury>
/stringsize {
  pushbbox /internalshow load /internalstroke load 7 -1 roll
  q
  nulldevice 0 0 m
  nullinternalshow nullinternalstroke
  resetbbox
  recshow
  /internalstroke exch def /internalshow exch def
  pushbbox 8 -4 roll restorebbox
  Q
} def

% Calculate values for string positioning.
/calcval {4 copy
  3 -1 roll sub /widy exch def sub neg /widx exch def
  pop pop /dy exch def /dx exch def} def

% Utilities to position a string.
% First letter (U=upper, C=center, B=baseline, L=lower)
% Second letter (L=left, C=center, R=right)
/align [
{calcval dx neg widy dy add neg rmoveto} % UL
{calcval dx neg widy 2 div dy add neg rmoveto} % CL
{calcval dx neg 0 rmoveto} % BL
{calcval dx neg dy neg rmoveto} % LL
{calcval widx dx add neg widy dy add neg rmoveto} % UR
{calcval widx dx add neg widy 2 div dy add neg rmoveto} % CR
{calcval widx dx add neg 0 rmoveto} % BR
{calcval widx dx add neg dy neg rmoveto} % LR
{calcval widx 2 div dx add neg widy dy add neg rmoveto} % UC
{calcval widx 2 div dx add neg widy 2 div dy add neg rmoveto} % CC
{calcval widx 2 div dx add neg 0 rmoveto} % BC
{calcval widx 2 div dx add neg dy neg rmoveto} % LC
] def

/vg&str {m q 1 -1 scale dup stringsize 4 copy align 11 -1 roll get exec
         q inflate relative frame exch exec Q recshow Q} def

end /procDict exch def
%%EndProlog

%%BeginSetup
save
procDict begin
printColorMap begin
872 282 setpagesize
0 0 0 0 setmargins
0 0 setorigin
872 282 setsize
naturalsize
portrait
imagescale
cliptobounds
setbasematrix
/Helvetica 10 sf
defaultGraphicsState
%%EndSetup

0.00000 0.00000 0.00000 RG
[ 1.00000 0.00000 0.00000 1.00000 0.00000 0.00000 ] defaultmatrix matrix concatmatrix setmatrix
cliprestore
1.00000 1.00000 1.00000 RG
newpath
0.00000 0.00000 m
872.000 0.00000 l
872.000 282.000 l
0.00000 282.000 l
0.00000 0.00000 l
h
f
0.00000 0.00000 0.00000 RG
0 0 872 282 rc
q
[ 2.00000 0.00000 0.00000 2.00000 0.00000 0.00000 ] concat
[ 1.00000 0.00000 0.00000 1.00000 -98.0000 -7.00000 ] concat
1.00000 1.00000 1.00000 RG
newpath
98.0000 7.00000 m
534.000 7.00000 l
534.000 148.000 l
98.0000 148.000 l
98.0000 7.00000 l
h
f
0.00000 0.00000 0.00000 RG
[ 2.00000 0.00000 0.00000 2.00000 -196.000 -14.0000 ] defaultmatrix matrix concatmatrix setmatrix
[ 2.00000 0.00000 0.00000 2.00000 -196.000 -14.0000 ] defaultmatrix matrix concatmatrix setmatrix
[ 1.00000 0.00000 0.00000 1.00000 0.00000 0.00000 ] defaultmatrix matrix concatmatrix setmatrix
[ 2.00000 0.00000 0.00000 2.00000 -196.000 -14.0000 ] defaultmatrix matrix concatmatrix setmatrix
1.00000 .800000 0.00000 RG
newpath
404.500 52.5682 m
525.500 52.5682 l
525.500 82.5682 l
404.500 82.5682 l
404.500 52.5682 l
h
f
0.00000 0.00000 0.00000 RG
0 J
1.45000 M
newpath
439.752 70.2381 m
440.986 70.2381 l
440.986 71.7225 l
439.752 71.7225 l
439.752 70.2381 l
h
439.752 65.5193 m
440.986 65.5193 l
440.986 67.0037 l
439.752 67.0037 l
439.752 65.5193 l
h
450.123 63.6443 m
450.123 64.8943 l
449.717 64.5193 449.290 64.2407 448.842 64.0584  c
448.394 63.8761 447.915 63.7850 447.404 63.7850  c
446.404 63.7850 445.639 64.0922 445.107 64.7068  c
444.576 65.3214 444.311 66.2068 444.311 67.3631  c
444.311 68.5089 444.576 69.3891 445.107 70.0037  c
445.639 70.6183 446.404 70.9256 447.404 70.9256  c
447.915 70.9256 448.394 70.8318 448.842 70.6443  c
449.290 70.4568 449.717 70.1808 450.123 69.8162  c
450.123 71.0506 l
449.706 71.3318 449.266 71.5428 448.803 71.6834  c
448.339 71.8240 447.852 71.8943 447.342 71.8943  c
446.008 71.8943 444.962 71.4881 444.201 70.6756  c
443.441 69.8631 443.061 68.7589 443.061 67.3631  c
443.061 65.9568 443.441 64.8475 444.201 64.0350  c
444.962 63.2225 446.008 62.8162 447.342 62.8162  c
447.863 62.8162 448.355 62.8865 448.818 63.0271  c
449.282 63.1678 449.717 63.3735 450.123 63.6443  c
h
457.361 67.7537 m
457.361 71.7225 l
456.283 71.7225 l
456.283 67.8006 l
456.283 67.1756 456.161 66.7094 455.916 66.4021  c
455.671 66.0948 455.309 65.9412 454.830 65.9412  c
454.247 65.9412 453.786 66.1261 453.447 66.4959  c
453.109 66.8657 452.939 67.3735 452.939 68.0193  c
452.939 71.7225 l
451.861 71.7225 l
451.861 62.5975 l
452.939 62.5975 l
452.939 66.1756 l
453.200 65.7797 453.505 65.4855 453.854 65.2928  c
454.202 65.1001 454.606 65.0037 455.064 65.0037  c
455.814 65.0037 456.385 65.2355 456.775 65.6990  c
457.166 66.1626 457.361 66.8475 457.361 67.7537  c
h
462.482 68.4256 m
461.618 68.4256 461.016 68.5245 460.678 68.7225  c
460.339 68.9204 460.170 69.2589 460.170 69.7381  c
460.170 70.1235 460.298 70.4282 460.553 70.6521  c
460.808 70.8761 461.149 70.9881 461.576 70.9881  c
462.180 70.9881 462.662 70.7771 463.021 70.3553  c
463.381 69.9334 463.561 69.3683 463.561 68.6600  c
463.561 68.4256 l
462.482 68.4256 l
h
464.639 67.9725 m
464.639 71.7225 l
463.561 71.7225 l
463.561 70.7225 l
463.311 71.1183 463.003 71.4126 462.639 71.6053  c
462.274 71.7980 461.826 71.8943 461.295 71.8943  c
460.618 71.8943 460.081 71.7042 459.686 71.3240  c
459.290 70.9438 459.092 70.4412 459.092 69.8162  c
459.092 69.0766 459.339 68.5193 459.834 68.1443  c
460.329 67.7693 461.066 67.5818 462.045 67.5818  c
463.561 67.5818 l
463.561 67.4725 l
463.561 66.9725 463.396 66.5870 463.068 66.3162  c
462.740 66.0454 462.285 65.9100 461.701 65.9100  c
461.326 65.9100 460.959 65.9568 460.600 66.0506  c
460.240 66.1443 459.899 66.2797 459.576 66.4568  c
459.576 65.4568 l
459.972 65.3006 460.355 65.1860 460.725 65.1131  c
461.094 65.0402 461.456 65.0037 461.811 65.0037  c
462.758 65.0037 463.467 65.2485 463.936 65.7381  c
464.404 66.2277 464.639 66.9725 464.639 67.9725  c
h
472.320 67.7537 m
472.320 71.7225 l
471.242 71.7225 l
471.242 67.8006 l
471.242 67.1756 471.120 66.7094 470.875 66.4021  c
470.630 66.0948 470.268 65.9412 469.789 65.9412  c
469.206 65.9412 468.745 66.1261 468.406 66.4959  c
468.068 66.8657 467.898 67.3735 467.898 68.0193  c
467.898 71.7225 l
466.820 71.7225 l
466.820 65.1600 l
467.898 65.1600 l
467.898 66.1756 l
468.159 65.7797 468.464 65.4855 468.812 65.2928  c
469.161 65.1001 469.565 65.0037 470.023 65.0037  c
470.773 65.0037 471.344 65.2355 471.734 65.6990  c
472.125 66.1626 472.320 66.8475 472.320 67.7537  c
h
479.926 67.7537 m
479.926 71.7225 l
478.848 71.7225 l
478.848 67.8006 l
478.848 67.1756 478.725 66.7094 478.480 66.4021  c
478.236 66.0948 477.874 65.9412 477.395 65.9412  c
476.811 65.9412 476.350 66.1261 476.012 66.4959  c
475.673 66.8657 475.504 67.3735 475.504 68.0193  c
475.504 71.7225 l
474.426 71.7225 l
474.426 65.1600 l
475.504 65.1600 l
475.504 66.1756 l
475.764 65.7797 476.069 65.4855 476.418 65.2928  c
476.767 65.1001 477.171 65.0037 477.629 65.0037  c
478.379 65.0037 478.949 65.2355 479.340 65.6990  c
479.730 66.1626 479.926 66.8475 479.926 67.7537  c
h
487.688 68.1756 m
487.688 68.6912 l
482.719 68.6912 l
482.771 69.4412 482.997 70.0089 483.398 70.3943  c
483.799 70.7797 484.354 70.9725 485.062 70.9725  c
485.479 70.9725 485.883 70.9230 486.273 70.8240  c
486.664 70.7251 487.052 70.5714 487.438 70.3631  c
487.438 71.3943 l
487.042 71.5506 486.641 71.6730 486.234 71.7615  c
485.828 71.8501 485.417 71.8943 485.000 71.8943  c
483.958 71.8943 483.130 71.5896 482.516 70.9803  c
481.901 70.3709 481.594 69.5454 481.594 68.5037  c
481.594 67.4308 481.885 66.5792 482.469 65.9490  c
483.052 65.3188 483.833 65.0037 484.812 65.0037  c
485.698 65.0037 486.398 65.2876 486.914 65.8553  c
487.430 66.4230 487.688 67.1964 487.688 68.1756  c
h
486.609 67.8475 m
486.599 67.2641 486.432 66.7954 486.109 66.4412  c
485.786 66.0870 485.359 65.9100 484.828 65.9100  c
484.224 65.9100 483.742 66.0818 483.383 66.4256  c
483.023 66.7693 482.818 67.2485 482.766 67.8631  c
486.609 67.8475 l
h
489.445 62.5975 m
490.523 62.5975 l
490.523 71.7225 l
489.445 71.7225 l
489.445 62.5975 l
h
f
2 J
10.0000 M
1.00000 .800000 0.00000 RG
0 J
1.45000 M
0.00000 0.00000 0.00000 RG
newpath
404.500 52.5682 m
525.500 52.5682 l
525.500 82.5682 l
404.500 82.5682 l
404.500 52.5682 l
h
S
2 J
10.0000 M
1.00000 .800000 0.00000 RG
newpath
240.000 56.5682 m
240.000 78.5682 l
240.000 80.7773 241.791 82.5682 244.000 82.5682  c
343.000 82.5682 l
345.209 82.5682 347.000 80.7773 347.000 78.5682  c
347.000 56.5682 l
347.000 54.3590 345.209 52.5682 343.000 52.5682  c
244.000 52.5682 l
241.791 52.5682 240.000 54.3590 240.000 56.5682  c
h
f
0.00000 0.00000 0.00000 RG
0 J
1.45000 M
newpath
271.773 70.2381 m
273.008 70.2381 l
273.008 71.7225 l
271.773 71.7225 l
271.773 70.2381 l
h
271.773 65.5193 m
273.008 65.5193 l
273.008 67.0037 l
271.773 67.0037 l
271.773 65.5193 l
h
274.379 62.9725 m
281.770 62.9725 l
281.770 63.9725 l
278.676 63.9725 l
278.676 71.7225 l
277.488 71.7225 l
277.488 63.9725 l
274.379 63.9725 l
274.379 62.9725 l
h
288.334 67.7537 m
288.334 71.7225 l
287.256 71.7225 l
287.256 67.8006 l
287.256 67.1756 287.133 66.7094 286.889 66.4021  c
286.644 66.0948 286.282 65.9412 285.803 65.9412  c
285.219 65.9412 284.758 66.1261 284.420 66.4959  c
284.081 66.8657 283.912 67.3735 283.912 68.0193  c
283.912 71.7225 l
282.834 71.7225 l
282.834 62.5975 l
283.912 62.5975 l
283.912 66.1756 l
284.173 65.7797 284.477 65.4855 284.826 65.2928  c
285.175 65.1001 285.579 65.0037 286.037 65.0037  c
286.787 65.0037 287.357 65.2355 287.748 65.6990  c
288.139 66.1626 288.334 66.8475 288.334 67.7537  c
h
294.283 66.1600 m
294.158 66.0975 294.025 66.0480 293.885 66.0115  c
293.744 65.9751 293.585 65.9568 293.408 65.9568  c
292.804 65.9568 292.338 66.1547 292.010 66.5506  c
291.682 66.9464 291.518 67.5193 291.518 68.2693  c
291.518 71.7225 l
290.439 71.7225 l
290.439 65.1600 l
291.518 65.1600 l
291.518 66.1756 l
291.747 65.7797 292.044 65.4855 292.408 65.2928  c
292.773 65.1001 293.215 65.0037 293.736 65.0037  c
293.809 65.0037 293.890 65.0089 293.979 65.0193  c
294.067 65.0297 294.163 65.0454 294.268 65.0662  c
294.283 66.1600 l
h
301.029 68.1756 m
301.029 68.6912 l
296.061 68.6912 l
296.113 69.4412 296.339 70.0089 296.740 70.3943  c
297.141 70.7797 297.696 70.9725 298.404 70.9725  c
298.821 70.9725 299.225 70.9230 299.615 70.8240  c
300.006 70.7251 300.394 70.5714 300.779 70.3631  c
300.779 71.3943 l
300.383 71.5506 299.982 71.6730 299.576 71.7615  c
299.170 71.8501 298.758 71.8943 298.342 71.8943  c
297.300 71.8943 296.472 71.5896 295.857 70.9803  c
295.243 70.3709 294.936 69.5454 294.936 68.5037  c
294.936 67.4308 295.227 66.5792 295.811 65.9490  c
296.394 65.3188 297.175 65.0037 298.154 65.0037  c
299.040 65.0037 299.740 65.2876 300.256 65.8553  c
300.771 66.4230 301.029 67.1964 301.029 68.1756  c
h
299.951 67.8475 m
299.941 67.2641 299.774 66.7954 299.451 66.4412  c
299.128 66.0870 298.701 65.9100 298.170 65.9100  c
297.566 65.9100 297.084 66.0818 296.725 66.4256  c
296.365 66.7693 296.160 67.2485 296.107 67.8631  c
299.951 67.8475 l
h
305.771 68.4256 m
304.907 68.4256 304.305 68.5245 303.967 68.7225  c
303.628 68.9204 303.459 69.2589 303.459 69.7381  c
303.459 70.1235 303.587 70.4282 303.842 70.6521  c
304.097 70.8761 304.438 70.9881 304.865 70.9881  c
305.469 70.9881 305.951 70.7771 306.311 70.3553  c
306.670 69.9334 306.850 69.3683 306.850 68.6600  c
306.850 68.4256 l
305.771 68.4256 l
h
307.928 67.9725 m
307.928 71.7225 l
306.850 71.7225 l
306.850 70.7225 l
306.600 71.1183 306.292 71.4126 305.928 71.6053  c
305.563 71.7980 305.115 71.8943 304.584 71.8943  c
303.907 71.8943 303.370 71.7042 302.975 71.3240  c
302.579 70.9438 302.381 70.4412 302.381 69.8162  c
302.381 69.0766 302.628 68.5193 303.123 68.1443  c
303.618 67.7693 304.355 67.5818 305.334 67.5818  c
306.850 67.5818 l
306.850 67.4725 l
306.850 66.9725 306.686 66.5870 306.357 66.3162  c
306.029 66.0454 305.574 65.9100 304.990 65.9100  c
304.615 65.9100 304.248 65.9568 303.889 66.0506  c
303.529 66.1443 303.188 66.2797 302.865 66.4568  c
302.865 65.4568 l
303.261 65.3006 303.644 65.1860 304.014 65.1131  c
304.383 65.0402 304.745 65.0037 305.100 65.0037  c
306.048 65.0037 306.756 65.2485 307.225 65.7381  c
307.693 66.2277 307.928 66.9725 307.928 67.9725  c
h
314.469 66.1600 m
314.469 62.5975 l
315.547 62.5975 l
315.547 71.7225 l
314.469 71.7225 l
314.469 70.7381 l
314.240 71.1235 313.953 71.4126 313.609 71.6053  c
313.266 71.7980 312.849 71.8943 312.359 71.8943  c
311.568 71.8943 310.922 71.5766 310.422 70.9412  c
309.922 70.3058 309.672 69.4725 309.672 68.4412  c
309.672 67.4100 309.922 66.5792 310.422 65.9490  c
310.922 65.3188 311.568 65.0037 312.359 65.0037  c
312.849 65.0037 313.266 65.0975 313.609 65.2850  c
313.953 65.4725 314.240 65.7641 314.469 66.1600  c
h
310.797 68.4412 m
310.797 69.2329 310.958 69.8553 311.281 70.3084  c
311.604 70.7615 312.052 70.9881 312.625 70.9881  c
313.198 70.9881 313.648 70.7615 313.977 70.3084  c
314.305 69.8553 314.469 69.2329 314.469 68.4412  c
314.469 67.6495 314.305 67.0297 313.977 66.5818  c
313.648 66.1339 313.198 65.9100 312.625 65.9100  c
312.052 65.9100 311.604 66.1339 311.281 66.5818  c
310.958 67.0297 310.797 67.6495 310.797 68.4412  c
h
f
2 J
10.0000 M
1.00000 .800000 0.00000 RG
0 J
1.45000 M
0.00000 0.00000 0.00000 RG
newpath
240.000 56.5682 m
240.000 78.5682 l
240.000 80.7773 241.791 82.5682 244.000 82.5682  c
343.000 82.5682 l
345.209 82.5682 347.000 80.7773 347.000 78.5682  c
347.000 56.5682 l
347.000 54.3590 345.209 52.5682 343.000 52.5682  c
244.000 52.5682 l
241.791 52.5682 240.000 54.3590 240.000 56.5682  c
h
S
2 J
10.0000 M
1.00000 .800000 0.00000 RG
newpath
404.114 109.331 m
525.114 109.331 l
525.114 139.331 l
404.114 139.331 l
404.114 109.331 l
h
f
0.00000 0.00000 0.00000 RG
0 J
1.45000 M
newpath
439.366 127.001 m
440.601 127.001 l
440.601 128.486 l
439.366 128.486 l
439.366 127.001 l
h
439.366 122.283 m
440.601 122.283 l
440.601 123.767 l
439.366 123.767 l
439.366 122.283 l
h
449.737 120.408 m
449.737 121.658 l
449.331 121.283 448.904 121.004 448.456 120.822  c
448.008 120.639 447.529 120.548 447.019 120.548  c
446.019 120.548 445.253 120.855 444.722 121.470  c
444.191 122.085 443.925 122.970 443.925 124.126  c
443.925 125.272 444.191 126.152 444.722 126.767  c
445.253 127.381 446.019 127.689 447.019 127.689  c
447.529 127.689 448.008 127.595 448.456 127.408  c
448.904 127.220 449.331 126.944 449.737 126.579  c
449.737 127.814 l
449.321 128.095 448.881 128.306 448.417 128.447  c
447.954 128.587 447.467 128.658 446.956 128.658  c
445.623 128.658 444.576 128.251 443.816 127.439  c
443.055 126.626 442.675 125.522 442.675 124.126  c
442.675 122.720 443.055 121.611 443.816 120.798  c
444.576 119.986 445.623 119.579 446.956 119.579  c
447.477 119.579 447.969 119.650 448.433 119.790  c
448.896 119.931 449.331 120.137 449.737 120.408  c
h
456.976 124.517 m
456.976 128.486 l
455.898 128.486 l
455.898 124.564 l
455.898 123.939 455.775 123.473 455.530 123.165  c
455.286 122.858 454.924 122.704 454.444 122.704  c
453.861 122.704 453.400 122.889 453.062 123.259  c
452.723 123.629 452.554 124.137 452.554 124.783  c
452.554 128.486 l
451.476 128.486 l
451.476 119.361 l
452.554 119.361 l
452.554 122.939 l
452.814 122.543 453.119 122.249 453.468 122.056  c
453.817 121.863 454.221 121.767 454.679 121.767  c
455.429 121.767 455.999 121.999 456.390 122.462  c
456.780 122.926 456.976 123.611 456.976 124.517  c
h
462.097 125.189 m
461.232 125.189 460.631 125.288 460.292 125.486  c
459.954 125.684 459.784 126.022 459.784 126.501  c
459.784 126.887 459.912 127.191 460.167 127.415  c
460.422 127.639 460.763 127.751 461.191 127.751  c
461.795 127.751 462.277 127.540 462.636 127.118  c
462.995 126.697 463.175 126.131 463.175 125.423  c
463.175 125.189 l
462.097 125.189 l
h
464.253 124.736 m
464.253 128.486 l
463.175 128.486 l
463.175 127.486 l
462.925 127.881 462.618 128.176 462.253 128.368  c
461.888 128.561 461.441 128.658 460.909 128.658  c
460.232 128.658 459.696 128.467 459.300 128.087  c
458.904 127.707 458.706 127.204 458.706 126.579  c
458.706 125.840 458.954 125.283 459.448 124.908  c
459.943 124.533 460.680 124.345 461.659 124.345  c
463.175 124.345 l
463.175 124.236 l
463.175 123.736 463.011 123.350 462.683 123.079  c
462.355 122.809 461.899 122.673 461.316 122.673  c
460.941 122.673 460.573 122.720 460.214 122.814  c
459.855 122.908 459.513 123.043 459.191 123.220  c
459.191 122.220 l
459.586 122.064 459.969 121.949 460.339 121.876  c
460.709 121.803 461.071 121.767 461.425 121.767  c
462.373 121.767 463.081 122.012 463.550 122.501  c
464.019 122.991 464.253 123.736 464.253 124.736  c
h
471.935 124.517 m
471.935 128.486 l
470.857 128.486 l
470.857 124.564 l
470.857 123.939 470.734 123.473 470.489 123.165  c
470.245 122.858 469.883 122.704 469.403 122.704  c
468.820 122.704 468.359 122.889 468.021 123.259  c
467.682 123.629 467.513 124.137 467.513 124.783  c
467.513 128.486 l
466.435 128.486 l
466.435 121.923 l
467.513 121.923 l
467.513 122.939 l
467.773 122.543 468.078 122.249 468.427 122.056  c
468.776 121.863 469.180 121.767 469.638 121.767  c
470.388 121.767 470.958 121.999 471.349 122.462  c
471.739 122.926 471.935 123.611 471.935 124.517  c
h
479.540 124.517 m
479.540 128.486 l
478.462 128.486 l
478.462 124.564 l
478.462 123.939 478.340 123.473 478.095 123.165  c
477.850 122.858 477.488 122.704 477.009 122.704  c
476.426 122.704 475.965 122.889 475.626 123.259  c
475.288 123.629 475.118 124.137 475.118 124.783  c
475.118 128.486 l
474.040 128.486 l
474.040 121.923 l
475.118 121.923 l
475.118 122.939 l
475.379 122.543 475.683 122.249 476.032 122.056  c
476.381 121.863 476.785 121.767 477.243 121.767  c
477.993 121.767 478.564 121.999 478.954 122.462  c
479.345 122.926 479.540 123.611 479.540 124.517  c
h
487.302 124.939 m
487.302 125.454 l
482.333 125.454 l
482.385 126.204 482.612 126.772 483.013 127.158  c
483.414 127.543 483.969 127.736 484.677 127.736  c
485.094 127.736 485.497 127.686 485.888 127.587  c
486.278 127.488 486.666 127.335 487.052 127.126  c
487.052 128.158 l
486.656 128.314 486.255 128.436 485.849 128.525  c
485.443 128.613 485.031 128.658 484.614 128.658  c
483.573 128.658 482.745 128.353 482.130 127.743  c
481.515 127.134 481.208 126.309 481.208 125.267  c
481.208 124.194 481.500 123.342 482.083 122.712  c
482.666 122.082 483.448 121.767 484.427 121.767  c
485.312 121.767 486.013 122.051 486.528 122.618  c
487.044 123.186 487.302 123.960 487.302 124.939  c
h
486.224 124.611 m
486.213 124.027 486.047 123.559 485.724 123.204  c
485.401 122.850 484.974 122.673 484.443 122.673  c
483.838 122.673 483.357 122.845 482.997 123.189  c
482.638 123.533 482.432 124.012 482.380 124.626  c
486.224 124.611 l
h
489.060 119.361 m
490.138 119.361 l
490.138 128.486 l
489.060 128.486 l
489.060 119.361 l
h
f
2 J
10.0000 M
1.00000 .800000 0.00000 RG
0 J
1.45000 M
0.00000 0.00000 0.00000 RG
newpath
404.114 109.331 m
525.114 109.331 l
525.114 139.331 l
404.114 139.331 l
404.114 109.331 l
h
S
2 J
10.0000 M
q
[ 6.12323E-17 1.00000 -1.00000 6.12323E-17 482.032 84.0800 ] concat
0 J
1.45000 M
newpath
4.14062 18.0801 m
6.20312 18.0801 l
6.20312 20.5645 l
4.14062 20.5645 l
4.14062 18.0801 l
h
10.4980 18.0801 m
12.5605 18.0801 l
12.5605 20.5645 l
10.4980 20.5645 l
10.4980 18.0801 l
h
16.8555 18.0801 m
18.9180 18.0801 l
18.9180 20.5645 l
16.8555 20.5645 l
16.8555 18.0801 l
h
f
2 J
10.0000 M
Q
1.00000 .800000 0.00000 RG
newpath
106.422 56.1682 m
193.578 56.1682 l
193.578 86.1682 l
106.422 86.1682 l
106.422 56.1682 l
h
f
0.00000 0.00000 0.00000 RG
0 J
1.45000 M
newpath
136.746 66.8537 m
136.746 68.0099 l
136.298 67.8016 135.874 67.6428 135.473 67.5334  c
135.072 67.4240 134.689 67.3693 134.324 67.3693  c
133.678 67.3693 133.181 67.4943 132.832 67.7443  c
132.483 67.9943 132.309 68.3537 132.309 68.8224  c
132.309 69.2079 132.423 69.4995 132.652 69.6974  c
132.882 69.8954 133.324 70.0516 133.980 70.1662  c
134.684 70.3224 l
135.569 70.4891 136.223 70.7834 136.645 71.2053  c
137.066 71.6271 137.277 72.1922 137.277 72.9006  c
137.277 73.7547 136.993 74.4006 136.426 74.8381  c
135.858 75.2756 135.022 75.4943 133.918 75.4943  c
133.512 75.4943 133.074 75.4474 132.605 75.3537  c
132.137 75.2599 131.652 75.1193 131.152 74.9318  c
131.152 73.7131 l
131.632 73.9839 132.103 74.1870 132.566 74.3224  c
133.030 74.4579 133.480 74.5256 133.918 74.5256  c
134.595 74.5256 135.118 74.3928 135.488 74.1271  c
135.858 73.8615 136.043 73.4839 136.043 72.9943  c
136.043 72.5672 135.910 72.2313 135.645 71.9865  c
135.379 71.7417 134.944 71.5620 134.340 71.4474  c
133.621 71.3068 l
132.736 71.1297 132.098 70.8537 131.707 70.4787  c
131.316 70.1037 131.121 69.5829 131.121 68.9162  c
131.121 68.1349 131.392 67.5230 131.934 67.0803  c
132.475 66.6376 133.225 66.4162 134.184 66.4162  c
134.600 66.4162 135.020 66.4527 135.441 66.5256  c
135.863 66.5985 136.298 66.7079 136.746 66.8537  c
h
144.691 71.7756 m
144.691 72.2912 l
139.723 72.2912 l
139.775 73.0412 140.001 73.6089 140.402 73.9943  c
140.803 74.3797 141.358 74.5724 142.066 74.5724  c
142.483 74.5724 142.887 74.5230 143.277 74.4240  c
143.668 74.3251 144.056 74.1714 144.441 73.9631  c
144.441 74.9943 l
144.046 75.1506 143.645 75.2730 143.238 75.3615  c
142.832 75.4501 142.421 75.4943 142.004 75.4943  c
140.962 75.4943 140.134 75.1896 139.520 74.5803  c
138.905 73.9709 138.598 73.1454 138.598 72.1037  c
138.598 71.0308 138.889 70.1792 139.473 69.5490  c
140.056 68.9188 140.837 68.6037 141.816 68.6037  c
142.702 68.6037 143.402 68.8876 143.918 69.4553  c
144.434 70.0230 144.691 70.7964 144.691 71.7756  c
h
143.613 71.4474 m
143.603 70.8641 143.436 70.3954 143.113 70.0412  c
142.790 69.6870 142.363 69.5099 141.832 69.5099  c
141.228 69.5099 140.746 69.6818 140.387 70.0256  c
140.027 70.3693 139.822 70.8485 139.770 71.4631  c
143.613 71.4474 l
h
150.262 69.7599 m
150.137 69.6974 150.004 69.6480 149.863 69.6115  c
149.723 69.5751 149.564 69.5568 149.387 69.5568  c
148.783 69.5568 148.316 69.7547 147.988 70.1506  c
147.660 70.5464 147.496 71.1193 147.496 71.8693  c
147.496 75.3224 l
146.418 75.3224 l
146.418 68.7599 l
147.496 68.7599 l
147.496 69.7756 l
147.725 69.3797 148.022 69.0855 148.387 68.8928  c
148.751 68.7001 149.194 68.6037 149.715 68.6037  c
149.788 68.6037 149.868 68.6089 149.957 68.6193  c
150.046 68.6297 150.142 68.6454 150.246 68.6662  c
150.262 69.7599 l
h
150.617 68.7599 m
151.758 68.7599 l
153.805 74.2599 l
155.867 68.7599 l
157.008 68.7599 l
154.539 75.3224 l
153.070 75.3224 l
150.617 68.7599 l
h
164.109 71.7756 m
164.109 72.2912 l
159.141 72.2912 l
159.193 73.0412 159.419 73.6089 159.820 73.9943  c
160.221 74.3797 160.776 74.5724 161.484 74.5724  c
161.901 74.5724 162.305 74.5230 162.695 74.4240  c
163.086 74.3251 163.474 74.1714 163.859 73.9631  c
163.859 74.9943 l
163.464 75.1506 163.062 75.2730 162.656 75.3615  c
162.250 75.4501 161.839 75.4943 161.422 75.4943  c
160.380 75.4943 159.552 75.1896 158.938 74.5803  c
158.323 73.9709 158.016 73.1454 158.016 72.1037  c
158.016 71.0308 158.307 70.1792 158.891 69.5490  c
159.474 68.9188 160.255 68.6037 161.234 68.6037  c
162.120 68.6037 162.820 68.8876 163.336 69.4553  c
163.852 70.0230 164.109 70.7964 164.109 71.7756  c
h
163.031 71.4474 m
163.021 70.8641 162.854 70.3954 162.531 70.0412  c
162.208 69.6870 161.781 69.5099 161.250 69.5099  c
160.646 69.5099 160.164 69.6818 159.805 70.0256  c
159.445 70.3693 159.240 70.8485 159.188 71.4631  c
163.031 71.4474 l
h
169.680 69.7599 m
169.555 69.6974 169.422 69.6480 169.281 69.6115  c
169.141 69.5751 168.982 69.5568 168.805 69.5568  c
168.201 69.5568 167.734 69.7547 167.406 70.1506  c
167.078 70.5464 166.914 71.1193 166.914 71.8693  c
166.914 75.3224 l
165.836 75.3224 l
165.836 68.7599 l
166.914 68.7599 l
166.914 69.7756 l
167.143 69.3797 167.440 69.0855 167.805 68.8928  c
168.169 68.7001 168.612 68.6037 169.133 68.6037  c
169.206 68.6037 169.286 68.6089 169.375 68.6193  c
169.464 68.6297 169.560 68.6454 169.664 68.6662  c
169.680 69.7599 l
h
f
2 J
10.0000 M
1.00000 .800000 0.00000 RG
0 J
1.45000 M
0.00000 0.00000 0.00000 RG
newpath
106.422 56.1682 m
193.578 56.1682 l
193.578 86.1682 l
106.422 86.1682 l
106.422 56.1682 l
h
S
2 J
10.0000 M
1.00000 .800000 0.00000 RG
newpath
404.000 15.0000 m
525.000 15.0000 l
525.000 45.0000 l
404.000 45.0000 l
404.000 15.0000 l
h
f
0.00000 0.00000 0.00000 RG
0 J
1.45000 M
newpath
439.252 32.6699 m
440.486 32.6699 l
440.486 34.1543 l
439.252 34.1543 l
439.252 32.6699 l
h
439.252 27.9512 m
440.486 27.9512 l
440.486 29.4355 l
439.252 29.4355 l
439.252 27.9512 l
h
449.623 26.0762 m
449.623 27.3262 l
449.217 26.9512 448.790 26.6725 448.342 26.4902  c
447.894 26.3079 447.415 26.2168 446.904 26.2168  c
445.904 26.2168 445.139 26.5241 444.607 27.1387  c
444.076 27.7533 443.811 28.6387 443.811 29.7949  c
443.811 30.9408 444.076 31.8210 444.607 32.4355  c
445.139 33.0501 445.904 33.3574 446.904 33.3574  c
447.415 33.3574 447.894 33.2637 448.342 33.0762  c
448.790 32.8887 449.217 32.6126 449.623 32.2480  c
449.623 33.4824 l
449.206 33.7637 448.766 33.9746 448.303 34.1152  c
447.839 34.2559 447.352 34.3262 446.842 34.3262  c
445.508 34.3262 444.462 33.9199 443.701 33.1074  c
442.941 32.2949 442.561 31.1908 442.561 29.7949  c
442.561 28.3887 442.941 27.2793 443.701 26.4668  c
444.462 25.6543 445.508 25.2480 446.842 25.2480  c
447.363 25.2480 447.855 25.3184 448.318 25.4590  c
448.782 25.5996 449.217 25.8053 449.623 26.0762  c
h
456.861 30.1855 m
456.861 34.1543 l
455.783 34.1543 l
455.783 30.2324 l
455.783 29.6074 455.661 29.1413 455.416 28.8340  c
455.171 28.5267 454.809 28.3730 454.330 28.3730  c
453.747 28.3730 453.286 28.5579 452.947 28.9277  c
452.609 29.2975 452.439 29.8053 452.439 30.4512  c
452.439 34.1543 l
451.361 34.1543 l
451.361 25.0293 l
452.439 25.0293 l
452.439 28.6074 l
452.700 28.2116 453.005 27.9173 453.354 27.7246  c
453.702 27.5319 454.106 27.4355 454.564 27.4355  c
455.314 27.4355 455.885 27.6673 456.275 28.1309  c
456.666 28.5944 456.861 29.2793 456.861 30.1855  c
h
461.982 30.8574 m
461.118 30.8574 460.516 30.9564 460.178 31.1543  c
459.839 31.3522 459.670 31.6908 459.670 32.1699  c
459.670 32.5553 459.798 32.8600 460.053 33.0840  c
460.308 33.3079 460.649 33.4199 461.076 33.4199  c
461.680 33.4199 462.162 33.2090 462.521 32.7871  c
462.881 32.3652 463.061 31.8001 463.061 31.0918  c
463.061 30.8574 l
461.982 30.8574 l
h
464.139 30.4043 m
464.139 34.1543 l
463.061 34.1543 l
463.061 33.1543 l
462.811 33.5501 462.503 33.8444 462.139 34.0371  c
461.774 34.2298 461.326 34.3262 460.795 34.3262  c
460.118 34.3262 459.581 34.1361 459.186 33.7559  c
458.790 33.3757 458.592 32.8730 458.592 32.2480  c
458.592 31.5085 458.839 30.9512 459.334 30.5762  c
459.829 30.2012 460.566 30.0137 461.545 30.0137  c
463.061 30.0137 l
463.061 29.9043 l
463.061 29.4043 462.896 29.0189 462.568 28.7480  c
462.240 28.4772 461.785 28.3418 461.201 28.3418  c
460.826 28.3418 460.459 28.3887 460.100 28.4824  c
459.740 28.5762 459.399 28.7116 459.076 28.8887  c
459.076 27.8887 l
459.472 27.7324 459.855 27.6178 460.225 27.5449  c
460.594 27.4720 460.956 27.4355 461.311 27.4355  c
462.258 27.4355 462.967 27.6803 463.436 28.1699  c
463.904 28.6595 464.139 29.4043 464.139 30.4043  c
h
471.820 30.1855 m
471.820 34.1543 l
470.742 34.1543 l
470.742 30.2324 l
470.742 29.6074 470.620 29.1413 470.375 28.8340  c
470.130 28.5267 469.768 28.3730 469.289 28.3730  c
468.706 28.3730 468.245 28.5579 467.906 28.9277  c
467.568 29.2975 467.398 29.8053 467.398 30.4512  c
467.398 34.1543 l
466.320 34.1543 l
466.320 27.5918 l
467.398 27.5918 l
467.398 28.6074 l
467.659 28.2116 467.964 27.9173 468.312 27.7246  c
468.661 27.5319 469.065 27.4355 469.523 27.4355  c
470.273 27.4355 470.844 27.6673 471.234 28.1309  c
471.625 28.5944 471.820 29.2793 471.820 30.1855  c
h
479.426 30.1855 m
479.426 34.1543 l
478.348 34.1543 l
478.348 30.2324 l
478.348 29.6074 478.225 29.1413 477.980 28.8340  c
477.736 28.5267 477.374 28.3730 476.895 28.3730  c
476.311 28.3730 475.850 28.5579 475.512 28.9277  c
475.173 29.2975 475.004 29.8053 475.004 30.4512  c
475.004 34.1543 l
473.926 34.1543 l
473.926 27.5918 l
475.004 27.5918 l
475.004 28.6074 l
475.264 28.2116 475.569 27.9173 475.918 27.7246  c
476.267 27.5319 476.671 27.4355 477.129 27.4355  c
477.879 27.4355 478.449 27.6673 478.840 28.1309  c
479.230 28.5944 479.426 29.2793 479.426 30.1855  c
h
487.188 30.6074 m
487.188 31.1230 l
482.219 31.1230 l
482.271 31.8730 482.497 32.4408 482.898 32.8262  c
483.299 33.2116 483.854 33.4043 484.562 33.4043  c
484.979 33.4043 485.383 33.3548 485.773 33.2559  c
486.164 33.1569 486.552 33.0033 486.938 32.7949  c
486.938 33.8262 l
486.542 33.9824 486.141 34.1048 485.734 34.1934  c
485.328 34.2819 484.917 34.3262 484.500 34.3262  c
483.458 34.3262 482.630 34.0215 482.016 33.4121  c
481.401 32.8027 481.094 31.9772 481.094 30.9355  c
481.094 29.8626 481.385 29.0111 481.969 28.3809  c
482.552 27.7507 483.333 27.4355 484.312 27.4355  c
485.198 27.4355 485.898 27.7194 486.414 28.2871  c
486.930 28.8548 487.188 29.6283 487.188 30.6074  c
h
486.109 30.2793 m
486.099 29.6960 485.932 29.2272 485.609 28.8730  c
485.286 28.5189 484.859 28.3418 484.328 28.3418  c
483.724 28.3418 483.242 28.5137 482.883 28.8574  c
482.523 29.2012 482.318 29.6803 482.266 30.2949  c
486.109 30.2793 l
h
488.945 25.0293 m
490.023 25.0293 l
490.023 34.1543 l
488.945 34.1543 l
488.945 25.0293 l
h
f
2 J
10.0000 M
1.00000 .800000 0.00000 RG
0 J
1.45000 M
0.00000 0.00000 0.00000 RG
newpath
404.000 15.0000 m
525.000 15.0000 l
525.000 45.0000 l
404.000 45.0000 l
404.000 15.0000 l
h
S
2 J
10.0000 M
0 J
1.45000 M
newpath
346.968 67.5682 m
396.500 67.5682 l
S
newpath
404.500 67.5682 m
392.500 62.5682 l
395.500 67.5682 l
392.500 72.5682 l
h
f
2 J
10.0000 M
0 J
1.45000 M
newpath
312.678 82.5875 m
331.898 94.9633 l
352.193 105.360 l
373.217 113.556 l
394.971 119.551 l
396.261 119.768 l
S
newpath
404.149 121.099 m
393.149 114.172 l
395.275 119.602 l
391.485 124.033 l
h
f
2 J
10.0000 M
0 J
1.45000 M
newpath
193.578 70.0749 m
231.980 69.1115 l
S
newpath
239.977 68.9109 m
227.856 64.2134 l
230.980 69.1366 l
228.106 74.2103 l
h
f
2 J
10.0000 M
0 J
1.45000 M
newpath
326.223 52.5729 m
334.294 49.2731 l
355.180 42.3513 l
376.392 36.9133 l
396.103 33.2947 l
396.202 33.2835 l
S
newpath
404.136 32.2565 m
391.593 28.8384 l
395.210 33.4119 l
392.877 38.7557 l
h
f
2 J
10.0000 M
Q
[ 1.00000 0.00000 0.00000 1.00000 0.00000 0.00000 ] defaultmatrix matrix concatmatrix setmatrix
cliprestore
end end restore showpage

%%Trailer
%%EOF
